@startuml
hide footbox
autonumber
entity "Timer" as ADM
participant ":RecordDailyVaccinesController" as CONT
participant ":Company" as COMP
participant "vctore:VaccinationCenterStore" as VCSTO
participant "vastore:VaccineAdministrationStore" as VASTO
participant "dvrtore:DailyRecordVaccineStore" as DVRSTO
activate ADM

    ADM -> CONT : Iniciates daily vaccine recording(according to configuration file)

 activate CONT
CONT -> COMP : vcstore=getVaccinationCenterStore()
activate COMP
CONT -> VCSTO : lVaccinationCenter=getVaccinationcenters()
deactivate COMP
activate VCSTO
CONT -> COMP : vastore=getVaccineAdministrationStore()
activate COMP
deactivate VCSTO
deactivate COMP
CONT -> VASTO : lVaccineAdministration=getVaccineAdministration()
activate VASTO
CONT -> CONT: calculateVaccinesForEachCenter()
activate CONT
deactivate VASTO
deactivate CONT
CONT -> VASTO: remove()
activate VASTO
CONT -> COMP: dvrstore=getDailyRecordVaccineStore()
deactivate VASTO
activate COMP
CONT -> DVRSTO: saveDailyRecord()
deactivate COMP
activate DVRSTO
DVRSTO -> DVRSTO: serialize() (saves into file)
activate DVRSTO
deactivate DVRSTO
deactivate DVRSTO




@enduml     
