@startuml
hide methods
left to right direction


class Company {
 -designation
}

class Vaccine {
  -name
  -brand
  -ID
  -vaccineType
  -lAgeGroups
  }
class CenterCoordinator{
  }




Company "1" -- "*" Vaccine : applies >
CenterCoordinator "1" -- "*" Vaccine: checks >
Company "1" -- "*" CenterCoordinator: knows >
@enduml
