<?xml version="1.0" encoding="UTF-8" standalone="no"?><svg xmlns="http://www.w3.org/2000/svg" xmlns:xlink="http://www.w3.org/1999/xlink" contentScriptType="application/ecmascript" contentStyleType="text/css" height="898px" preserveAspectRatio="none" style="width:1894px;height:898px;background:#FFFFFF;" version="1.1" viewBox="0 0 1894 898" width="1894px" zoomAndPan="magnify"><defs><filter height="300%" id="f9grpi8m2hzq7" width="300%" x="-1" y="-1"><feGaussianBlur result="blurOut" stdDeviation="2.0"/><feColorMatrix in="blurOut" result="blurOut2" type="matrix" values="0 0 0 0 0 0 0 0 0 0 0 0 0 0 0 0 0 0 .4 0"/><feOffset dx="4.0" dy="4.0" in="blurOut2" result="blurOut3"/><feBlend in="SourceGraphic" in2="blurOut3" mode="normal"/></filter></defs><g><!--MD5=[b5a2db3b4fca511447ae3e96458a0a82]
class SpecifyVaccineUI--><rect codeLine="3" fill="#FEFECE" filter="url(#f9grpi8m2hzq7)" height="48" id="SpecifyVaccineUI" style="stroke:#A80036;stroke-width:1.5;" width="137" x="706.5" y="7"/><ellipse cx="721.5" cy="23" fill="#ADD1B2" rx="11" ry="11" style="stroke:#A80036;stroke-width:1.0;"/><path d="M724.4688,28.6406 Q723.8906,28.9375 723.25,29.0781 Q722.6094,29.2344 721.9063,29.2344 Q719.4063,29.2344 718.0781,27.5938 Q716.7656,25.9375 716.7656,22.8125 Q716.7656,19.6875 718.0781,18.0313 Q719.4063,16.375 721.9063,16.375 Q722.6094,16.375 723.25,16.5313 Q723.9063,16.6875 724.4688,16.9844 L724.4688,19.7031 Q723.8438,19.125 723.25,18.8594 Q722.6563,18.5781 722.0313,18.5781 Q720.6875,18.5781 720,19.6563 Q719.3125,20.7188 719.3125,22.8125 Q719.3125,24.9063 720,25.9844 Q720.6875,27.0469 722.0313,27.0469 Q722.6563,27.0469 723.25,26.7813 Q723.8438,26.5 724.4688,25.9219 L724.4688,28.6406 Z " fill="#000000"/><text fill="#000000" font-family="sans-serif" font-size="12" lengthAdjust="spacing" textLength="105" x="735.5" y="27.1543">SpecifyVaccineUI</text><line style="stroke:#A80036;stroke-width:1.5;" x1="707.5" x2="842.5" y1="39" y2="39"/><line style="stroke:#A80036;stroke-width:1.5;" x1="707.5" x2="842.5" y1="47" y2="47"/><!--MD5=[d3c07019125b43adada0d94c26d5d789]
class SpecifyVaccineController--><rect codeLine="7" fill="#FEFECE" filter="url(#f9grpi8m2hzq7)" height="265.6797" id="SpecifyVaccineController" style="stroke:#A80036;stroke-width:1.5;" width="299" x="625.5" y="116"/><ellipse cx="693.75" cy="132" fill="#ADD1B2" rx="11" ry="11" style="stroke:#A80036;stroke-width:1.0;"/><path d="M696.7188,137.6406 Q696.1406,137.9375 695.5,138.0781 Q694.8594,138.2344 694.1563,138.2344 Q691.6563,138.2344 690.3281,136.5938 Q689.0156,134.9375 689.0156,131.8125 Q689.0156,128.6875 690.3281,127.0313 Q691.6563,125.375 694.1563,125.375 Q694.8594,125.375 695.5,125.5313 Q696.1563,125.6875 696.7188,125.9844 L696.7188,128.7031 Q696.0938,128.125 695.5,127.8594 Q694.9063,127.5781 694.2813,127.5781 Q692.9375,127.5781 692.25,128.6563 Q691.5625,129.7188 691.5625,131.8125 Q691.5625,133.9063 692.25,134.9844 Q692.9375,136.0469 694.2813,136.0469 Q694.9063,136.0469 695.5,135.7813 Q696.0938,135.5 696.7188,134.9219 L696.7188,137.6406 Z " fill="#000000"/><text fill="#000000" font-family="sans-serif" font-size="12" lengthAdjust="spacing" textLength="154" x="714.25" y="136.1543">SpecifyVaccineController</text><line style="stroke:#A80036;stroke-width:1.5;" x1="626.5" x2="923.5" y1="148" y2="148"/><rect fill="none" height="6" style="stroke:#C82930;stroke-width:1.0;" width="6" x="633.5" y="156"/><text fill="#000000" font-family="sans-serif" font-size="11" lengthAdjust="spacing" textLength="13" x="645.5" y="162.2104">va</text><rect fill="none" height="6" style="stroke:#C82930;stroke-width:1.0;" width="6" x="633.5" y="168.8047"/><text fill="#000000" font-family="sans-serif" font-size="11" lengthAdjust="spacing" textLength="32" x="645.5" y="175.0151">name</text><rect fill="none" height="6" style="stroke:#C82930;stroke-width:1.0;" width="6" x="633.5" y="181.6094"/><text fill="#000000" font-family="sans-serif" font-size="11" lengthAdjust="spacing" textLength="10" x="645.5" y="187.8198">id</text><rect fill="none" height="6" style="stroke:#C82930;stroke-width:1.0;" width="6" x="633.5" y="194.4141"/><text fill="#000000" font-family="sans-serif" font-size="11" lengthAdjust="spacing" textLength="33" x="645.5" y="200.6245">brand</text><rect fill="none" height="6" style="stroke:#C82930;stroke-width:1.0;" width="6" x="633.5" y="207.2188"/><text fill="#000000" font-family="sans-serif" font-size="11" lengthAdjust="spacing" textLength="10" x="645.5" y="213.4292">vt</text><rect fill="none" height="6" style="stroke:#C82930;stroke-width:1.0;" width="6" x="633.5" y="220.0234"/><text fill="#000000" font-family="sans-serif" font-size="11" lengthAdjust="spacing" textLength="66" x="645.5" y="226.2339">lAgeGroups</text><rect fill="none" height="6" style="stroke:#C82930;stroke-width:1.0;" width="6" x="633.5" y="232.8281"/><text fill="#000000" font-family="sans-serif" font-size="11" lengthAdjust="spacing" textLength="14" x="645.5" y="239.0386">ag</text><rect fill="none" height="6" style="stroke:#C82930;stroke-width:1.0;" width="6" x="633.5" y="245.6328"/><text fill="#000000" font-family="sans-serif" font-size="11" lengthAdjust="spacing" textLength="61" x="645.5" y="251.8433">nrOfDoses</text><rect fill="none" height="6" style="stroke:#C82930;stroke-width:1.0;" width="6" x="633.5" y="258.4375"/><text fill="#000000" font-family="sans-serif" font-size="11" lengthAdjust="spacing" textLength="51" x="645.5" y="264.6479">dosageQ</text><rect fill="none" height="6" style="stroke:#C82930;stroke-width:1.0;" width="6" x="633.5" y="271.2422"/><text fill="#000000" font-family="sans-serif" font-size="11" lengthAdjust="spacing" textLength="67" x="645.5" y="277.4526">timeInterval</text><rect fill="none" height="6" style="stroke:#C82930;stroke-width:1.0;" width="6" x="633.5" y="284.0469"/><text fill="#000000" font-family="sans-serif" font-size="11" lengthAdjust="spacing" textLength="56" x="645.5" y="290.2573">upperAGe</text><rect fill="none" height="6" style="stroke:#C82930;stroke-width:1.0;" width="6" x="633.5" y="296.8516"/><text fill="#000000" font-family="sans-serif" font-size="11" lengthAdjust="spacing" textLength="52" x="645.5" y="303.062">lowerAge</text><rect fill="none" height="6" style="stroke:#C82930;stroke-width:1.0;" width="6" x="633.5" y="309.6563"/><text fill="#000000" font-family="sans-serif" font-size="11" lengthAdjust="spacing" textLength="42" x="645.5" y="315.8667">dosage</text><line style="stroke:#A80036;stroke-width:1.5;" x1="626.5" x2="923.5" y1="322.4609" y2="322.4609"/><ellipse cx="636.5" cy="333.4609" fill="#84BE84" rx="3" ry="3" style="stroke:#038048;stroke-width:1.0;"/><text fill="#000000" font-family="sans-serif" font-size="11" lengthAdjust="spacing" textLength="127" x="645.5" y="336.6714">getVaccineTypeStore()</text><ellipse cx="636.5" cy="346.2656" fill="#84BE84" rx="3" ry="3" style="stroke:#038048;stroke-width:1.0;"/><text fill="#000000" font-family="sans-serif" font-size="11" lengthAdjust="spacing" textLength="273" x="645.5" y="349.4761">createDosage(nrOfDoses, dosage, timeInterval)</text><ellipse cx="636.5" cy="359.0703" fill="#84BE84" rx="3" ry="3" style="stroke:#038048;stroke-width:1.0;"/><text fill="#000000" font-family="sans-serif" font-size="11" lengthAdjust="spacing" textLength="270" x="645.5" y="362.2808">createVaccine(name, id, brand, vt, lAgeGroups)</text><ellipse cx="636.5" cy="371.875" fill="#84BE84" rx="3" ry="3" style="stroke:#038048;stroke-width:1.0;"/><text fill="#000000" font-family="sans-serif" font-size="11" lengthAdjust="spacing" textLength="78" x="645.5" y="375.0854">saveVaccine()</text><!--MD5=[16e898dea44373438d7a6991ca77efa0]
class VaccineStore--><rect codeLine="26" fill="#FEFECE" filter="url(#f9grpi8m2hzq7)" height="86.4141" id="VaccineStore" style="stroke:#A80036;stroke-width:1.5;" width="296" x="269" y="491"/><ellipse cx="371.25" cy="507" fill="#ADD1B2" rx="11" ry="11" style="stroke:#A80036;stroke-width:1.0;"/><path d="M374.2188,512.6406 Q373.6406,512.9375 373,513.0781 Q372.3594,513.2344 371.6563,513.2344 Q369.1563,513.2344 367.8281,511.5938 Q366.5156,509.9375 366.5156,506.8125 Q366.5156,503.6875 367.8281,502.0313 Q369.1563,500.375 371.6563,500.375 Q372.3594,500.375 373,500.5313 Q373.6563,500.6875 374.2188,500.9844 L374.2188,503.7031 Q373.5938,503.125 373,502.8594 Q372.4063,502.5781 371.7813,502.5781 Q370.4375,502.5781 369.75,503.6563 Q369.0625,504.7188 369.0625,506.8125 Q369.0625,508.9063 369.75,509.9844 Q370.4375,511.0469 371.7813,511.0469 Q372.4063,511.0469 373,510.7813 Q373.5938,510.5 374.2188,509.9219 L374.2188,512.6406 Z " fill="#000000"/><text fill="#000000" font-family="sans-serif" font-size="12" lengthAdjust="spacing" textLength="83" x="391.75" y="511.1543">VaccineStore</text><line style="stroke:#A80036;stroke-width:1.5;" x1="270" x2="564" y1="523" y2="523"/><line style="stroke:#A80036;stroke-width:1.5;" x1="270" x2="564" y1="531" y2="531"/><ellipse cx="280" cy="542" fill="#84BE84" rx="3" ry="3" style="stroke:#038048;stroke-width:1.0;"/><text fill="#000000" font-family="sans-serif" font-size="11" lengthAdjust="spacing" textLength="270" x="289" y="545.2104">createVaccine(name, id, brand, vt, lAgeGroups)</text><ellipse cx="280" cy="554.8047" fill="#84BE84" rx="3" ry="3" style="stroke:#038048;stroke-width:1.0;"/><text fill="#000000" font-family="sans-serif" font-size="11" lengthAdjust="spacing" textLength="108" x="289" y="558.0151">validateVaccine(va)</text><ellipse cx="280" cy="567.6094" fill="#84BE84" rx="3" ry="3" style="stroke:#038048;stroke-width:1.0;"/><text fill="#000000" font-family="sans-serif" font-size="11" lengthAdjust="spacing" textLength="91" x="289" y="570.8198">saveVaccine(va)</text><!--MD5=[9532c95099058dfe385d7270fd32fc0d]
class VaccineTypeStore--><rect codeLine="31" fill="#FEFECE" filter="url(#f9grpi8m2hzq7)" height="73.6094" id="VaccineTypeStore" style="stroke:#A80036;stroke-width:1.5;" width="218" x="1276" y="497"/><ellipse cx="1324.75" cy="513" fill="#ADD1B2" rx="11" ry="11" style="stroke:#A80036;stroke-width:1.0;"/><path d="M1327.7188,518.6406 Q1327.1406,518.9375 1326.5,519.0781 Q1325.8594,519.2344 1325.1563,519.2344 Q1322.6563,519.2344 1321.3281,517.5938 Q1320.0156,515.9375 1320.0156,512.8125 Q1320.0156,509.6875 1321.3281,508.0313 Q1322.6563,506.375 1325.1563,506.375 Q1325.8594,506.375 1326.5,506.5313 Q1327.1563,506.6875 1327.7188,506.9844 L1327.7188,509.7031 Q1327.0938,509.125 1326.5,508.8594 Q1325.9063,508.5781 1325.2813,508.5781 Q1323.9375,508.5781 1323.25,509.6563 Q1322.5625,510.7188 1322.5625,512.8125 Q1322.5625,514.9063 1323.25,515.9844 Q1323.9375,517.0469 1325.2813,517.0469 Q1325.9063,517.0469 1326.5,516.7813 Q1327.0938,516.5 1327.7188,515.9219 L1327.7188,518.6406 Z " fill="#000000"/><text fill="#000000" font-family="sans-serif" font-size="12" lengthAdjust="spacing" textLength="112" x="1345.25" y="517.1543">VaccineTypeStore</text><line style="stroke:#A80036;stroke-width:1.5;" x1="1277" x2="1493" y1="529" y2="529"/><rect fill="none" height="6" style="stroke:#C82930;stroke-width:1.0;" width="6" x="1284" y="537"/><text fill="#000000" font-family="sans-serif" font-size="11" lengthAdjust="spacing" textLength="80" x="1296" y="543.2104">lVaccineTypes</text><line style="stroke:#A80036;stroke-width:1.5;" x1="1277" x2="1493" y1="549.8047" y2="549.8047"/><ellipse cx="1287" cy="560.8047" fill="#84BE84" rx="3" ry="3" style="stroke:#038048;stroke-width:1.0;"/><text fill="#000000" font-family="sans-serif" font-size="11" lengthAdjust="spacing" textLength="192" x="1296" y="564.0151">lVaccineTypes=getVaccineTypes()</text><!--MD5=[02e4b9b7573f1156f41e60aa5b4e25a4]
class Company--><rect codeLine="35" fill="#FEFECE" filter="url(#f9grpi8m2hzq7)" height="150.4375" id="Company" style="stroke:#A80036;stroke-width:1.5;" width="202" x="7" y="459"/><ellipse cx="75.25" cy="475" fill="#ADD1B2" rx="11" ry="11" style="stroke:#A80036;stroke-width:1.0;"/><path d="M78.2188,480.6406 Q77.6406,480.9375 77,481.0781 Q76.3594,481.2344 75.6563,481.2344 Q73.1563,481.2344 71.8281,479.5938 Q70.5156,477.9375 70.5156,474.8125 Q70.5156,471.6875 71.8281,470.0313 Q73.1563,468.375 75.6563,468.375 Q76.3594,468.375 77,468.5313 Q77.6563,468.6875 78.2188,468.9844 L78.2188,471.7031 Q77.5938,471.125 77,470.8594 Q76.4063,470.5781 75.7813,470.5781 Q74.4375,470.5781 73.75,471.6563 Q73.0625,472.7188 73.0625,474.8125 Q73.0625,476.9063 73.75,477.9844 Q74.4375,479.0469 75.7813,479.0469 Q76.4063,479.0469 77,478.7813 Q77.5938,478.5 78.2188,477.9219 L78.2188,480.6406 Z " fill="#000000"/><text fill="#000000" font-family="sans-serif" font-size="12" lengthAdjust="spacing" textLength="57" x="95.75" y="479.1543">Company</text><line style="stroke:#A80036;stroke-width:1.5;" x1="8" x2="208" y1="491" y2="491"/><rect fill="none" height="6" style="stroke:#C82930;stroke-width:1.0;" width="6" x="15" y="499"/><text fill="#000000" font-family="sans-serif" font-size="11" lengthAdjust="spacing" textLength="40" x="27" y="505.2104">vtstore</text><rect fill="none" height="6" style="stroke:#C82930;stroke-width:1.0;" width="6" x="15" y="511.8047"/><text fill="#000000" font-family="sans-serif" font-size="11" lengthAdjust="spacing" textLength="37" x="27" y="518.0151">dstore</text><rect fill="none" height="6" style="stroke:#C82930;stroke-width:1.0;" width="6" x="15" y="524.6094"/><text fill="#000000" font-family="sans-serif" font-size="11" lengthAdjust="spacing" textLength="44" x="27" y="530.8198">agstore</text><rect fill="none" height="6" style="stroke:#C82930;stroke-width:1.0;" width="6" x="15" y="537.4141"/><text fill="#000000" font-family="sans-serif" font-size="11" lengthAdjust="spacing" textLength="36" x="27" y="543.6245">vstore</text><line style="stroke:#A80036;stroke-width:1.5;" x1="8" x2="208" y1="550.2188" y2="550.2188"/><ellipse cx="18" cy="561.2188" fill="#84BE84" rx="3" ry="3" style="stroke:#038048;stroke-width:1.0;"/><text fill="#000000" font-family="sans-serif" font-size="11" lengthAdjust="spacing" textLength="176" x="27" y="564.4292">vtstore=getVaccineTypeStore()</text><ellipse cx="18" cy="574.0234" fill="#84BE84" rx="3" ry="3" style="stroke:#038048;stroke-width:1.0;"/><text fill="#000000" font-family="sans-serif" font-size="11" lengthAdjust="spacing" textLength="155" x="27" y="577.2339">dStore = getDosageStore()</text><ellipse cx="18" cy="586.8281" fill="#84BE84" rx="3" ry="3" style="stroke:#038048;stroke-width:1.0;"/><text fill="#000000" font-family="sans-serif" font-size="11" lengthAdjust="spacing" textLength="166" x="27" y="590.0386">agstore=getAgeGroupStore()</text><ellipse cx="18" cy="599.6328" fill="#84BE84" rx="3" ry="3" style="stroke:#038048;stroke-width:1.0;"/><text fill="#000000" font-family="sans-serif" font-size="11" lengthAdjust="spacing" textLength="145" x="27" y="602.8433">vstore=getVaccineStore()</text><!--MD5=[22100f57fea215bb85a9cc04436d0497]
class DosageStore--><rect codeLine="45" fill="#FEFECE" filter="url(#f9grpi8m2hzq7)" height="86.4141" id="DosageStore" style="stroke:#A80036;stroke-width:1.5;" width="350" x="600" y="491"/><ellipse cx="729.75" cy="507" fill="#ADD1B2" rx="11" ry="11" style="stroke:#A80036;stroke-width:1.0;"/><path d="M732.7188,512.6406 Q732.1406,512.9375 731.5,513.0781 Q730.8594,513.2344 730.1563,513.2344 Q727.6563,513.2344 726.3281,511.5938 Q725.0156,509.9375 725.0156,506.8125 Q725.0156,503.6875 726.3281,502.0313 Q727.6563,500.375 730.1563,500.375 Q730.8594,500.375 731.5,500.5313 Q732.1563,500.6875 732.7188,500.9844 L732.7188,503.7031 Q732.0938,503.125 731.5,502.8594 Q730.9063,502.5781 730.2813,502.5781 Q728.9375,502.5781 728.25,503.6563 Q727.5625,504.7188 727.5625,506.8125 Q727.5625,508.9063 728.25,509.9844 Q728.9375,511.0469 730.2813,511.0469 Q730.9063,511.0469 731.5,510.7813 Q732.0938,510.5 732.7188,509.9219 L732.7188,512.6406 Z " fill="#000000"/><text fill="#000000" font-family="sans-serif" font-size="12" lengthAdjust="spacing" textLength="82" x="750.25" y="511.1543">DosageStore</text><line style="stroke:#A80036;stroke-width:1.5;" x1="601" x2="949" y1="523" y2="523"/><line style="stroke:#A80036;stroke-width:1.5;" x1="601" x2="949" y1="531" y2="531"/><ellipse cx="611" cy="542" fill="#84BE84" rx="3" ry="3" style="stroke:#038048;stroke-width:1.0;"/><text fill="#000000" font-family="sans-serif" font-size="11" lengthAdjust="spacing" textLength="324" x="620" y="545.2104">dosage =createDosage(nrOfDoses, dosage, timeInterval</text><ellipse cx="611" cy="554.8047" fill="#84BE84" rx="3" ry="3" style="stroke:#038048;stroke-width:1.0;"/><text fill="#000000" font-family="sans-serif" font-size="11" lengthAdjust="spacing" textLength="137" x="620" y="558.0151">validateDosage(dosage)</text><ellipse cx="611" cy="567.6094" fill="#84BE84" rx="3" ry="3" style="stroke:#038048;stroke-width:1.0;"/><text fill="#000000" font-family="sans-serif" font-size="11" lengthAdjust="spacing" textLength="120" x="620" y="570.8198">saveDosage(dosage)</text><!--MD5=[9f74f6c38bc22821d2740bd829946d56]
class AgeGroupStore--><rect codeLine="51" fill="#FEFECE" filter="url(#f9grpi8m2hzq7)" height="86.4141" id="AgeGroupStore" style="stroke:#A80036;stroke-width:1.5;" width="351" x="1529.5" y="491"/><ellipse cx="1652.75" cy="507" fill="#ADD1B2" rx="11" ry="11" style="stroke:#A80036;stroke-width:1.0;"/><path d="M1655.7188,512.6406 Q1655.1406,512.9375 1654.5,513.0781 Q1653.8594,513.2344 1653.1563,513.2344 Q1650.6563,513.2344 1649.3281,511.5938 Q1648.0156,509.9375 1648.0156,506.8125 Q1648.0156,503.6875 1649.3281,502.0313 Q1650.6563,500.375 1653.1563,500.375 Q1653.8594,500.375 1654.5,500.5313 Q1655.1563,500.6875 1655.7188,500.9844 L1655.7188,503.7031 Q1655.0938,503.125 1654.5,502.8594 Q1653.9063,502.5781 1653.2813,502.5781 Q1651.9375,502.5781 1651.25,503.6563 Q1650.5625,504.7188 1650.5625,506.8125 Q1650.5625,508.9063 1651.25,509.9844 Q1651.9375,511.0469 1653.2813,511.0469 Q1653.9063,511.0469 1654.5,510.7813 Q1655.0938,510.5 1655.7188,509.9219 L1655.7188,512.6406 Z " fill="#000000"/><text fill="#000000" font-family="sans-serif" font-size="12" lengthAdjust="spacing" textLength="96" x="1673.25" y="511.1543">AgeGroupStore</text><line style="stroke:#A80036;stroke-width:1.5;" x1="1530.5" x2="1879.5" y1="523" y2="523"/><line style="stroke:#A80036;stroke-width:1.5;" x1="1530.5" x2="1879.5" y1="531" y2="531"/><ellipse cx="1540.5" cy="542" fill="#84BE84" rx="3" ry="3" style="stroke:#038048;stroke-width:1.0;"/><text fill="#000000" font-family="sans-serif" font-size="11" lengthAdjust="spacing" textLength="325" x="1549.5" y="545.2104">ageGroup=createAgeGroup(upperAge, lowerAge, dosage</text><ellipse cx="1540.5" cy="554.8047" fill="#84BE84" rx="3" ry="3" style="stroke:#038048;stroke-width:1.0;"/><text fill="#000000" font-family="sans-serif" font-size="11" lengthAdjust="spacing" textLength="122" x="1549.5" y="558.0151">validateAgeGroup(ag)</text><ellipse cx="1540.5" cy="567.6094" fill="#84BE84" rx="3" ry="3" style="stroke:#038048;stroke-width:1.0;"/><text fill="#000000" font-family="sans-serif" font-size="11" lengthAdjust="spacing" textLength="105" x="1549.5" y="570.8198">saveAgeGroup(ag)</text><!--MD5=[c59c99efa75f30327e326596f335a568]
class AgeGroup--><rect codeLine="56" fill="#FEFECE" filter="url(#f9grpi8m2hzq7)" height="60.8047" id="AgeGroup" style="stroke:#A80036;stroke-width:1.5;" width="234" x="996" y="686"/><ellipse cx="1077.75" cy="702" fill="#ADD1B2" rx="11" ry="11" style="stroke:#A80036;stroke-width:1.0;"/><path d="M1080.7188,707.6406 Q1080.1406,707.9375 1079.5,708.0781 Q1078.8594,708.2344 1078.1563,708.2344 Q1075.6563,708.2344 1074.3281,706.5938 Q1073.0156,704.9375 1073.0156,701.8125 Q1073.0156,698.6875 1074.3281,697.0313 Q1075.6563,695.375 1078.1563,695.375 Q1078.8594,695.375 1079.5,695.5313 Q1080.1563,695.6875 1080.7188,695.9844 L1080.7188,698.7031 Q1080.0938,698.125 1079.5,697.8594 Q1078.9063,697.5781 1078.2813,697.5781 Q1076.9375,697.5781 1076.25,698.6563 Q1075.5625,699.7188 1075.5625,701.8125 Q1075.5625,703.9063 1076.25,704.9844 Q1076.9375,706.0469 1078.2813,706.0469 Q1078.9063,706.0469 1079.5,705.7813 Q1080.0938,705.5 1080.7188,704.9219 L1080.7188,707.6406 Z " fill="#000000"/><text fill="#000000" font-family="sans-serif" font-size="12" lengthAdjust="spacing" textLength="62" x="1098.25" y="706.1543">AgeGroup</text><line style="stroke:#A80036;stroke-width:1.5;" x1="997" x2="1229" y1="718" y2="718"/><line style="stroke:#A80036;stroke-width:1.5;" x1="997" x2="1229" y1="726" y2="726"/><ellipse cx="1007" cy="737" fill="#84BE84" rx="3" ry="3" style="stroke:#038048;stroke-width:1.0;"/><text fill="#000000" font-family="sans-serif" font-size="11" lengthAdjust="spacing" textLength="208" x="1016" y="740.2104">create(upperAge, lowerAge, dosage)</text><!--MD5=[b3411a3750bc281802b6652af7ee7751]
class Dosage--><rect codeLine="59" fill="#FEFECE" filter="url(#f9grpi8m2hzq7)" height="60.8047" id="Dosage" style="stroke:#A80036;stroke-width:1.5;" width="256" x="985" y="503.5"/><ellipse cx="1084.75" cy="519.5" fill="#ADD1B2" rx="11" ry="11" style="stroke:#A80036;stroke-width:1.0;"/><path d="M1087.7188,525.1406 Q1087.1406,525.4375 1086.5,525.5781 Q1085.8594,525.7344 1085.1563,525.7344 Q1082.6563,525.7344 1081.3281,524.0938 Q1080.0156,522.4375 1080.0156,519.3125 Q1080.0156,516.1875 1081.3281,514.5313 Q1082.6563,512.875 1085.1563,512.875 Q1085.8594,512.875 1086.5,513.0313 Q1087.1563,513.1875 1087.7188,513.4844 L1087.7188,516.2031 Q1087.0938,515.625 1086.5,515.3594 Q1085.9063,515.0781 1085.2813,515.0781 Q1083.9375,515.0781 1083.25,516.1563 Q1082.5625,517.2188 1082.5625,519.3125 Q1082.5625,521.4063 1083.25,522.4844 Q1083.9375,523.5469 1085.2813,523.5469 Q1085.9063,523.5469 1086.5,523.2813 Q1087.0938,523 1087.7188,522.4219 L1087.7188,525.1406 Z " fill="#000000"/><text fill="#000000" font-family="sans-serif" font-size="12" lengthAdjust="spacing" textLength="48" x="1105.25" y="523.6543">Dosage</text><line style="stroke:#A80036;stroke-width:1.5;" x1="986" x2="1240" y1="535.5" y2="535.5"/><line style="stroke:#A80036;stroke-width:1.5;" x1="986" x2="1240" y1="543.5" y2="543.5"/><ellipse cx="996" cy="554.5" fill="#84BE84" rx="3" ry="3" style="stroke:#038048;stroke-width:1.0;"/><text fill="#000000" font-family="sans-serif" font-size="11" lengthAdjust="spacing" textLength="230" x="1005" y="557.7104">create(nrOfDoses, dosage, timeInterval)</text><!--MD5=[19e445fc4d3b48519cbe33da05496394]
class Vaccine--><rect codeLine="62" fill="#FEFECE" filter="url(#f9grpi8m2hzq7)" height="60.8047" id="Vaccine" style="stroke:#A80036;stroke-width:1.5;" width="253" x="582.5" y="824"/><ellipse cx="680.25" cy="840" fill="#ADD1B2" rx="11" ry="11" style="stroke:#A80036;stroke-width:1.0;"/><path d="M683.2188,845.6406 Q682.6406,845.9375 682,846.0781 Q681.3594,846.2344 680.6563,846.2344 Q678.1563,846.2344 676.8281,844.5938 Q675.5156,842.9375 675.5156,839.8125 Q675.5156,836.6875 676.8281,835.0313 Q678.1563,833.375 680.6563,833.375 Q681.3594,833.375 682,833.5313 Q682.6563,833.6875 683.2188,833.9844 L683.2188,836.7031 Q682.5938,836.125 682,835.8594 Q681.4063,835.5781 680.7813,835.5781 Q679.4375,835.5781 678.75,836.6563 Q678.0625,837.7188 678.0625,839.8125 Q678.0625,841.9063 678.75,842.9844 Q679.4375,844.0469 680.7813,844.0469 Q681.4063,844.0469 682,843.7813 Q682.5938,843.5 683.2188,842.9219 L683.2188,845.6406 Z " fill="#000000"/><text fill="#000000" font-family="sans-serif" font-size="12" lengthAdjust="spacing" textLength="49" x="700.75" y="844.1543">Vaccine</text><line style="stroke:#A80036;stroke-width:1.5;" x1="583.5" x2="834.5" y1="856" y2="856"/><line style="stroke:#A80036;stroke-width:1.5;" x1="583.5" x2="834.5" y1="864" y2="864"/><ellipse cx="593.5" cy="875" fill="#84BE84" rx="3" ry="3" style="stroke:#038048;stroke-width:1.0;"/><text fill="#000000" font-family="sans-serif" font-size="11" lengthAdjust="spacing" textLength="227" x="602.5" y="878.2104">create(name, id, brand, vt, lAgeGroups)</text><!--MD5=[1f75bf9b6efb6263ea3b405d298447ae]
link SpecifyVaccineUI to SpecifyVaccineController--><path codeLine="67" d="M775,55.12 C775,69.42 775,89.1 775,110.44 " fill="none" id="SpecifyVaccineUI-to-SpecifyVaccineController" style="stroke:#A80036;stroke-width:1.0;stroke-dasharray:7.0,7.0;"/><polygon fill="#A80036" points="775,115.61,779,106.61,775,110.61,771,106.61,775,115.61" style="stroke:#A80036;stroke-width:1.0;"/><text fill="#000000" font-family="sans-serif" font-size="13" lengthAdjust="spacing" textLength="8" x="766.025" y="74.9105">1</text><text fill="#000000" font-family="sans-serif" font-size="13" lengthAdjust="spacing" textLength="8" x="766.7813" y="104.9844">1</text><!--MD5=[257f8b39d371c2a20a5ef8085f91b179]
link SpecifyVaccineController to Company--><path codeLine="68" d="M625.42,305.18 C519.71,345.27 375.27,402.23 251,459 C238.88,464.53 226.33,470.57 213.91,476.73 " fill="none" id="SpecifyVaccineController-to-Company" style="stroke:#A80036;stroke-width:1.0;stroke-dasharray:7.0,7.0;"/><polygon fill="#A80036" points="209.34,479.01,219.1798,478.5879,213.8178,476.7853,215.6204,471.4234,209.34,479.01" style="stroke:#A80036;stroke-width:1.0;"/><text fill="#000000" font-family="sans-serif" font-size="13" lengthAdjust="spacing" textLength="8" x="609.501" y="304.7686">1</text><text fill="#000000" font-family="sans-serif" font-size="13" lengthAdjust="spacing" textLength="8" x="217.0759" y="487.5782">1</text><!--MD5=[26b80dd60d3305f854b992ec0b603e2d]
link Company to VaccineTypeStore--><path codeLine="69" d="M209.36,474.38 C223.01,468.29 237.1,462.92 251,459 C251,459 1259,459 1259,459 C1284.35,466.7 1309.91,480.53 1331.32,494.24 " fill="none" id="Company-to-VaccineTypeStore" style="stroke:#A80036;stroke-width:1.0;"/><polygon fill="#A80036" points="1335.54,496.98,1330.1522,488.7355,1331.3406,494.2661,1325.81,495.4545,1335.54,496.98" style="stroke:#A80036;stroke-width:1.0;"/><text fill="#000000" font-family="sans-serif" font-size="13" lengthAdjust="spacing" textLength="23" x="688.5" y="425.0669">has</text><text fill="#000000" font-family="sans-serif" font-size="13" lengthAdjust="spacing" textLength="8" x="217.0974" y="466.5066">1</text><text fill="#000000" font-family="sans-serif" font-size="13" lengthAdjust="spacing" textLength="8" x="1317.6833" y="485.8868">1</text><!--MD5=[f2e0045a3c67c0696cf082af1b4c8493]
link Company to VaccineStore--><path codeLine="70" d="M209.18,534 C226.63,534 245.13,534 263.6,534 " fill="none" id="Company-to-VaccineStore" style="stroke:#A80036;stroke-width:1.0;"/><polygon fill="#A80036" points="268.8,534,259.8,530,263.8,534,259.8,538,268.8,534" style="stroke:#A80036;stroke-width:1.0;"/><text fill="#000000" font-family="sans-serif" font-size="13" lengthAdjust="spacing" textLength="23" x="227.5" y="527.0669">has</text><text fill="#000000" font-family="sans-serif" font-size="13" lengthAdjust="spacing" textLength="8" x="216.9042" y="530.5049">1</text><text fill="#000000" font-family="sans-serif" font-size="13" lengthAdjust="spacing" textLength="8" x="252.9522" y="530.6729">1</text><!--MD5=[5ccb396c81bb858536ff09827cedd2c2]
link Company to DosageStore--><path codeLine="71" d="M209.15,475.17 C222.89,468.91 237.06,463.27 251,459 C371.67,421.99 409.88,404.51 533.5,430 C588.94,441.43 647.32,466.18 692.8,488.68 " fill="none" id="Company-to-DosageStore" style="stroke:#A80036;stroke-width:1.0;"/><polygon fill="#A80036" points="697.44,490.98,691.1693,483.3854,692.965,488.7497,687.6007,490.5454,697.44,490.98" style="stroke:#A80036;stroke-width:1.0;"/><text fill="#000000" font-family="sans-serif" font-size="13" lengthAdjust="spacing" textLength="23" x="509.5" y="425.0669">has</text><text fill="#000000" font-family="sans-serif" font-size="13" lengthAdjust="spacing" textLength="8" x="216.872" y="483.4562">1</text><text fill="#000000" font-family="sans-serif" font-size="13" lengthAdjust="spacing" textLength="8" x="676.4414" y="479.9729">1</text><!--MD5=[9940ee1a55f4975827c870f99f79b0df]
link Company to AgeGroupStore--><path codeLine="72" d="M209.05,474.85 C222.81,468.64 237.01,463.11 251,459 C391.2,417.82 432.52,436.45 578.5,430 C785.84,420.84 1308.65,417.51 1512,459 C1544.1,465.55 1577.8,476.94 1607.89,488.89 " fill="none" id="Company-to-AgeGroupStore" style="stroke:#A80036;stroke-width:1.0;"/><polygon fill="#A80036" points="1612.69,490.82,1605.8193,483.7636,1608.0476,488.963,1602.8481,491.1914,1612.69,490.82" style="stroke:#A80036;stroke-width:1.0;"/><text fill="#000000" font-family="sans-serif" font-size="13" lengthAdjust="spacing" textLength="23" x="579.5" y="425.0669">has</text><text fill="#000000" font-family="sans-serif" font-size="13" lengthAdjust="spacing" textLength="8" x="217.1239" y="460.8528">1</text><text fill="#000000" font-family="sans-serif" font-size="13" lengthAdjust="spacing" textLength="8" x="1589.3406" y="479.7874">1</text><!--MD5=[b99cabe81112b1dbaefcdd115e5e2dc5]
link DosageStore to Dosage--><path codeLine="73" d="M950.27,534 C960.11,534 969.94,534 979.77,534 " fill="none" id="DosageStore-to-Dosage" style="stroke:#A80036;stroke-width:1.0;"/><polygon fill="#A80036" points="984.91,534,975.91,530,979.91,534,975.91,538,984.91,534" style="stroke:#A80036;stroke-width:1.0;"/><text fill="#000000" font-family="sans-serif" font-size="13" lengthAdjust="spacing" textLength="8" x="957.833" y="530.7446">1</text><text fill="#000000" font-family="sans-serif" font-size="13" lengthAdjust="spacing" textLength="7" x="969.8912" y="530.6199">*</text><!--MD5=[528355904f98b6da67797ff6d31e0877]
link AgeGroupStore to AgeGroup--><path codeLine="74" d="M1601.3,577.06 C1572.59,588.08 1541.27,599.51 1512,609 C1420.24,638.75 1314.72,666.64 1235.25,686.42 " fill="none" id="AgeGroupStore-to-AgeGroup" style="stroke:#A80036;stroke-width:1.0;"/><polygon fill="#A80036" points="1230.05,687.71,1239.7467,689.4346,1234.9041,686.5108,1237.8279,681.6681,1230.05,687.71" style="stroke:#A80036;stroke-width:1.0;"/><text fill="#000000" font-family="sans-serif" font-size="13" lengthAdjust="spacing" textLength="8" x="1575.4622" y="597.4776">1</text><text fill="#000000" font-family="sans-serif" font-size="13" lengthAdjust="spacing" textLength="7" x="1238.1495" y="682.3497">*</text><!--MD5=[89791a9cd8c9c78fd39f4b892a053799]
link VaccineStore to Vaccine--><path codeLine="75" d="M455.78,577.29 C514.52,641.37 624.89,761.76 678.39,820.11 " fill="none" id="VaccineStore-to-Vaccine" style="stroke:#A80036;stroke-width:1.0;"/><polygon fill="#A80036" points="681.83,823.86,678.6873,814.526,678.4475,820.1778,672.7957,819.938,681.83,823.86" style="stroke:#A80036;stroke-width:1.0;"/><text fill="#000000" font-family="sans-serif" font-size="13" lengthAdjust="spacing" textLength="8" x="453.3231" y="597.4291">1</text><text fill="#000000" font-family="sans-serif" font-size="13" lengthAdjust="spacing" textLength="7" x="668.5043" y="813.0944">*</text><!--MD5=[64969cb405753c3ea4b83baca30f329c]
link Dosage to AgeGroup--><path codeLine="76" d="M1113,564.81 C1113,594.16 1113,639.29 1113,672.52 " fill="none" id="Dosage-to-AgeGroup" style="stroke:#A80036;stroke-width:1.0;"/><polygon fill="#A80036" points="1113,685.95,1117,679.95,1113,673.95,1109,679.95,1113,685.95" style="stroke:#A80036;stroke-width:1.0;"/><text fill="#000000" font-family="sans-serif" font-size="13" lengthAdjust="spacing" textLength="17" x="1114" y="652.0669">for</text><text fill="#000000" font-family="sans-serif" font-size="13" lengthAdjust="spacing" textLength="8" x="1104.2125" y="584.4515">1</text><text fill="#000000" font-family="sans-serif" font-size="13" lengthAdjust="spacing" textLength="8" x="1104.125" y="674.7293">1</text><!--MD5=[b5c1e583bf1bcb4ccdf16e9f576fe454]
link AgeGroup to Vaccine--><path codeLine="77" d="M1025.34,747.01 C961.79,768.4 875.72,797.38 809.4,819.7 " fill="none" id="AgeGroup-to-Vaccine" style="stroke:#A80036;stroke-width:1.0;"/><polygon fill="#A80036" points="796.84,823.93,803.8016,825.8104,808.2149,820.1076,801.2533,818.2272,796.84,823.93" style="stroke:#A80036;stroke-width:1.0;"/><text fill="#000000" font-family="sans-serif" font-size="13" lengthAdjust="spacing" textLength="28" x="937" y="790.0669">gets</text><text fill="#000000" font-family="sans-serif" font-size="13" lengthAdjust="spacing" textLength="7" x="999.5383" y="766.9503">*</text><text fill="#000000" font-family="sans-serif" font-size="13" lengthAdjust="spacing" textLength="8" x="807.18" y="812.705">1</text><!--MD5=[8ee1549143658bc158b26c9a45931c59]
link SpecifyVaccineController to VaccineTypeStore--><path codeLine="78" d="M924.66,309.03 C1021.42,348.56 1149.31,403.37 1259,459 C1280.03,469.67 1302.41,482.35 1322.38,494.17 " fill="none" id="SpecifyVaccineController-to-VaccineTypeStore" style="stroke:#A80036;stroke-width:1.0;stroke-dasharray:7.0,7.0;"/><polygon fill="#A80036" points="1326.86,496.84,1321.169,488.8018,1322.5625,494.2843,1317.08,495.6778,1326.86,496.84" style="stroke:#A80036;stroke-width:1.0;"/><text fill="#000000" font-family="sans-serif" font-size="13" lengthAdjust="spacing" textLength="8" x="932.5831" y="308.8172">1</text><text fill="#000000" font-family="sans-serif" font-size="13" lengthAdjust="spacing" textLength="8" x="1307.7913" y="485.9985">1</text><!--MD5=[fced20791617f97fadac951903a5d205]
link SpecifyVaccineController to DosageStore--><path codeLine="79" d="M775,382.39 C775,419.36 775,457.16 775,485.65 " fill="none" id="SpecifyVaccineController-to-DosageStore" style="stroke:#A80036;stroke-width:1.0;stroke-dasharray:7.0,7.0;"/><polygon fill="#A80036" points="775,490.86,779,481.86,775,485.86,771,481.86,775,490.86" style="stroke:#A80036;stroke-width:1.0;"/><text fill="#000000" font-family="sans-serif" font-size="13" lengthAdjust="spacing" textLength="8" x="766.7938" y="401.7332">1</text><text fill="#000000" font-family="sans-serif" font-size="13" lengthAdjust="spacing" textLength="8" x="766.3625" y="479.8337">1</text><!--MD5=[3b6937d11dca46fd4df38118d551596b]
link SpecifyVaccineController to AgeGroupStore--><path codeLine="80" d="M924.77,288.24 C1074.53,327.48 1310.88,392.08 1512,459 C1539.36,468.1 1568.56,478.78 1595.75,489.15 " fill="none" id="SpecifyVaccineController-to-AgeGroupStore" style="stroke:#A80036;stroke-width:1.0;stroke-dasharray:7.0,7.0;"/><polygon fill="#A80036" points="1600.44,490.95,1593.4615,484.0001,1595.7696,489.1647,1590.605,491.4727,1600.44,490.95" style="stroke:#A80036;stroke-width:1.0;"/><text fill="#000000" font-family="sans-serif" font-size="13" lengthAdjust="spacing" textLength="8" x="932.6988" y="286.9552">1</text><text fill="#000000" font-family="sans-serif" font-size="13" lengthAdjust="spacing" textLength="8" x="1575.1383" y="479.9381">1</text><!--MD5=[92c4b6c96eb653fa12fc5ef940779e61]
link SpecifyVaccineController to VaccineStore--><path codeLine="81" d="M625.48,322.26 C582.27,347.18 536.86,377.59 500,412 C477.03,433.44 456.93,462.3 442.27,486.46 " fill="none" id="SpecifyVaccineController-to-VaccineStore" style="stroke:#A80036;stroke-width:1.0;stroke-dasharray:7.0,7.0;"/><polygon fill="#A80036" points="439.59,490.91,447.6504,485.2505,442.1625,486.6225,440.7905,481.1346,439.59,490.91" style="stroke:#A80036;stroke-width:1.0;"/><text fill="#000000" font-family="sans-serif" font-size="13" lengthAdjust="spacing" textLength="8" x="609.5641" y="322.7293">1</text><text fill="#000000" font-family="sans-serif" font-size="13" lengthAdjust="spacing" textLength="8" x="434.5528" y="479.8917">1</text><!--MD5=[cd913fa7dafcd35d2b9d33e4e097be37]
@startuml
skinparam classAtributionIconSize 0

class SpecifyVaccineUI{

}

class SpecifyVaccineController {
  -va
  -name
  -id
  -brand 
  -vt
  -lAgeGroups
  -ag
  -nrOfDoses
  -dosageQ
  -timeInterval
  -upperAGe
  -lowerAge
  -dosage
  +getVaccineTypeStore()
  +createDosage(nrOfDoses, dosage, timeInterval)
  +createVaccine(name, id, brand, vt, lAgeGroups)
  +saveVaccine()
  }
class VaccineStore{
+createVaccine(name, id, brand, vt, lAgeGroups)  
+validateVaccine(va) 
+saveVaccine(va)  
 }
class VaccineTypeStore{
-lVaccineTypes
+lVaccineTypes=getVaccineTypes()
  }
class Company{
-vtstore
-dstore
-agstore
-vstore
+vtstore=getVaccineTypeStore()
+dStore = getDosageStore()
+agstore=getAgeGroupStore()
+vstore=getVaccineStore() 
  }
class DosageStore{

+dosage =createDosage(nrOfDoses, dosage, timeInterval
+validateDosage(dosage)
+saveDosage(dosage)
  }
class AgeGroupStore{
+ageGroup=createAgeGroup(upperAge, lowerAge, dosage
+validateAgeGroup(ag)
+saveAgeGroup(ag)
  }
class AgeGroup{
+create(upperAge, lowerAge, dosage)
  }
class Dosage{
+create(nrOfDoses, dosage, timeInterval)  
  }
class Vaccine{
+create(name, id, brand, vt, lAgeGroups)  
  }


SpecifyVaccineUI "1" ..> "1" SpecifyVaccineController
SpecifyVaccineController "1" ..> "1" Company
Company "1" -> "1" VaccineTypeStore : has
Company "1" -> "1" VaccineStore : has
Company "1" -> "1" DosageStore : has
Company "1" -> "1" AgeGroupStore : has
DosageStore "1" -> "*" Dosage 
AgeGroupStore "1" -> "*" AgeGroup
VaccineStore "1" -> "*" Vaccine
Dosage "1" - -* "1" AgeGroup :   for
AgeGroup "*" - -* "1" Vaccine: gets  
SpecifyVaccineController "1" ..> "1" VaccineTypeStore
SpecifyVaccineController "1" ..> "1" DosageStore
SpecifyVaccineController "1" ..> "1" AgeGroupStore 
SpecifyVaccineController "1" ..> "1" VaccineStore
@enduml

PlantUML version 1.2021.16(Wed Dec 08 17:25:22 UTC 2021)
(GPL source distribution)
Java Runtime: OpenJDK Runtime Environment
JVM: OpenJDK 64-Bit Server VM
Default Encoding: UTF-8
Language: en
Country: US
--></g></svg>