<?xml version="1.0" encoding="UTF-8" standalone="no"?><svg xmlns="http://www.w3.org/2000/svg" xmlns:xlink="http://www.w3.org/1999/xlink" contentScriptType="application/ecmascript" contentStyleType="text/css" height="343px" preserveAspectRatio="none" style="width:688px;height:343px;background:#FFFFFF;" version="1.1" viewBox="0 0 688 343" width="688px" zoomAndPan="magnify"><defs><filter height="300%" id="fog7czniv2u4u" width="300%" x="-1" y="-1"><feGaussianBlur result="blurOut" stdDeviation="2.0"/><feColorMatrix in="blurOut" result="blurOut2" type="matrix" values="0 0 0 0 0 0 0 0 0 0 0 0 0 0 0 0 0 0 .4 0"/><feOffset dx="4.0" dy="4.0" in="blurOut2" result="blurOut3"/><feBlend in="SourceGraphic" in2="blurOut3" mode="normal"/></filter></defs><g><!--MD5=[6b185e8064f1903ce7064332957eac06]
class COMP--><rect codeLine="4" fill="#FEFECE" filter="url(#fog7czniv2u4u)" height="53.8359" id="COMP" style="stroke:#A80036;stroke-width:1.5;" width="85" x="7" y="45.81"/><ellipse cx="22" cy="61.81" fill="#ADD1B2" rx="11" ry="11" style="stroke:#A80036;stroke-width:1.0;"/><path d="M24,58.31 Q24.2031,57.81 24.4375,57.56 Q24.6719,57.31 24.9375,57.31 Q25.4063,57.31 25.7031,57.5913 Q26,57.8725 26,58.5288 L26,60.0913 Q26,60.7475 25.7188,61.0288 Q25.4375,61.31 25,61.31 Q24.6094,61.31 24.3594,61.1381 Q24.1094,60.9663 24,60.5131 Q23.9531,60.2006 23.7813,60.0288 Q23.4688,59.7006 22.9063,59.5131 Q22.3438,59.31 21.7813,59.31 Q21.0781,59.31 20.4844,59.5913 Q19.9063,59.8725 19.4531,60.4975 Q19,61.1225 19,61.9819 L19,62.9038 Q19,63.935 19.8438,64.6225 Q20.6875,65.31 22.1875,65.31 Q23.0781,65.31 23.7031,65.1069 Q24.0625,64.9975 24.4688,64.6381 Q24.7344,64.435 24.875,64.3725 Q25.0156,64.31 25.1875,64.31 Q25.5156,64.31 25.75,64.5756 Q26,64.8256 26,65.185 Q26,65.5288 25.6563,65.935 Q25.1563,66.5288 24.3594,66.8569 Q23.3125,67.31 22.0313,67.31 Q20.5313,67.31 19.3281,66.7163 Q18.3594,66.2475 17.6719,65.2319 Q17,64.2163 17,63.0131 L17,61.9194 Q17,60.6694 17.5938,59.5756 Q18.2031,58.4819 19.25,57.9038 Q20.3125,57.31 21.5,57.31 Q22.2188,57.31 22.8438,57.56 Q23.4688,57.81 24,58.31 Z " fill="#000000"/><text fill="#000000" font-family="sans-serif" font-size="12" lengthAdjust="spacing" textLength="53" x="36" y="66.7202">Company</text><line style="stroke:#A80036;stroke-width:1.5;" x1="8" x2="91" y1="77.81" y2="77.81"/><rect fill="none" height="6" style="stroke:#C82930;stroke-width:1.0;" width="6" x="15" y="85.81"/><text fill="#000000" font-family="sans-serif" font-size="11" lengthAdjust="spacing" textLength="55" x="27" y="93.2289">designation</text><!--MD5=[f3853aa2b8bce406a0e4037637558619]
class USER--><rect codeLine="8" fill="#FEFECE" filter="url(#fog7czniv2u4u)" height="81.5078" id="USER" style="stroke:#A80036;stroke-width:1.5;" width="76" x="598" y="46.81"/><ellipse cx="620.65" cy="62.81" fill="#ADD1B2" rx="11" ry="11" style="stroke:#A80036;stroke-width:1.0;"/><path d="M622.65,59.31 Q622.8531,58.81 623.0875,58.56 Q623.3219,58.31 623.5875,58.31 Q624.0563,58.31 624.3531,58.5913 Q624.65,58.8725 624.65,59.5288 L624.65,61.0913 Q624.65,61.7475 624.3688,62.0288 Q624.0875,62.31 623.65,62.31 Q623.2594,62.31 623.0094,62.1381 Q622.7594,61.9663 622.65,61.5131 Q622.6031,61.2006 622.4313,61.0288 Q622.1188,60.7006 621.5563,60.5131 Q620.9938,60.31 620.4313,60.31 Q619.7281,60.31 619.1344,60.5913 Q618.5563,60.8725 618.1031,61.4975 Q617.65,62.1225 617.65,62.9819 L617.65,63.9038 Q617.65,64.935 618.4938,65.6225 Q619.3375,66.31 620.8375,66.31 Q621.7281,66.31 622.3531,66.1069 Q622.7125,65.9975 623.1188,65.6381 Q623.3844,65.435 623.525,65.3725 Q623.6656,65.31 623.8375,65.31 Q624.1656,65.31 624.4,65.5756 Q624.65,65.8256 624.65,66.185 Q624.65,66.5288 624.3063,66.935 Q623.8063,67.5288 623.0094,67.8569 Q621.9625,68.31 620.6813,68.31 Q619.1813,68.31 617.9781,67.7163 Q617.0094,67.2475 616.3219,66.2319 Q615.65,65.2163 615.65,64.0131 L615.65,62.9194 Q615.65,61.6694 616.2438,60.5756 Q616.8531,59.4819 617.9,58.9038 Q618.9625,58.31 620.15,58.31 Q620.8688,58.31 621.4938,58.56 Q622.1188,58.81 622.65,59.31 Z " fill="#000000"/><text fill="#000000" font-family="sans-serif" font-size="12" lengthAdjust="spacing" textLength="27" x="636.35" y="67.7202">User</text><line style="stroke:#A80036;stroke-width:1.5;" x1="599" x2="673" y1="78.81" y2="78.81"/><ellipse cx="609" cy="89.81" fill="none" rx="3" ry="3" style="stroke:#038048;stroke-width:1.0;"/><text fill="#000000" font-family="sans-serif" font-size="11" lengthAdjust="spacing" textLength="24" x="618" y="94.2289">email</text><ellipse cx="609" cy="103.6459" fill="none" rx="3" ry="3" style="stroke:#038048;stroke-width:1.0;"/><text fill="#000000" font-family="sans-serif" font-size="11" lengthAdjust="spacing" textLength="50" x="618" y="108.0649">password</text><ellipse cx="609" cy="117.4819" fill="none" rx="3" ry="3" style="stroke:#038048;stroke-width:1.0;"/><text fill="#000000" font-family="sans-serif" font-size="11" lengthAdjust="spacing" textLength="18" x="618" y="121.9008">role</text><!--MD5=[3f0e00d26ea85a54cdc57e764a87c7db]
class STORE--><rect codeLine="14" fill="#FEFECE" filter="url(#fog7czniv2u4u)" height="53.8359" id="STORE" style="stroke:#A80036;stroke-width:1.5;" width="88" x="449" y="45.81"/><ellipse cx="464" cy="61.81" fill="#ADD1B2" rx="11" ry="11" style="stroke:#A80036;stroke-width:1.0;"/><path d="M466,58.31 Q466.2031,57.81 466.4375,57.56 Q466.6719,57.31 466.9375,57.31 Q467.4063,57.31 467.7031,57.5913 Q468,57.8725 468,58.5288 L468,60.0913 Q468,60.7475 467.7188,61.0288 Q467.4375,61.31 467,61.31 Q466.6094,61.31 466.3594,61.1381 Q466.1094,60.9663 466,60.5131 Q465.9531,60.2006 465.7813,60.0288 Q465.4688,59.7006 464.9063,59.5131 Q464.3438,59.31 463.7813,59.31 Q463.0781,59.31 462.4844,59.5913 Q461.9063,59.8725 461.4531,60.4975 Q461,61.1225 461,61.9819 L461,62.9038 Q461,63.935 461.8438,64.6225 Q462.6875,65.31 464.1875,65.31 Q465.0781,65.31 465.7031,65.1069 Q466.0625,64.9975 466.4688,64.6381 Q466.7344,64.435 466.875,64.3725 Q467.0156,64.31 467.1875,64.31 Q467.5156,64.31 467.75,64.5756 Q468,64.8256 468,65.185 Q468,65.5288 467.6563,65.935 Q467.1563,66.5288 466.3594,66.8569 Q465.3125,67.31 464.0313,67.31 Q462.5313,67.31 461.3281,66.7163 Q460.3594,66.2475 459.6719,65.2319 Q459,64.2163 459,63.0131 L459,61.9194 Q459,60.6694 459.5938,59.5756 Q460.2031,58.4819 461.25,57.9038 Q462.3125,57.31 463.5,57.31 Q464.2188,57.31 464.8438,57.56 Q465.4688,57.81 466,58.31 Z " fill="#000000"/><text fill="#000000" font-family="sans-serif" font-size="12" lengthAdjust="spacing" textLength="56" x="478" y="66.7202">UserStore</text><line style="stroke:#A80036;stroke-width:1.5;" x1="450" x2="536" y1="77.81" y2="77.81"/><rect fill="none" height="6" style="stroke:#C82930;stroke-width:1.0;" width="6" x="457" y="85.81"/><text fill="#000000" font-family="sans-serif" font-size="11" lengthAdjust="spacing" textLength="39" x="469" y="93.2289">userList</text><!--MD5=[e423b5bdce70c6eb941fb2176a750d2f]
class EMP--><rect codeLine="18" fill="#FEFECE" filter="url(#fog7czniv2u4u)" height="95.3438" id="EMP" style="stroke:#A80036;stroke-width:1.5;" width="87" x="449.5" y="135.31"/><ellipse cx="464.5" cy="151.31" fill="#ADD1B2" rx="11" ry="11" style="stroke:#A80036;stroke-width:1.0;"/><path d="M466.5,147.81 Q466.7031,147.31 466.9375,147.06 Q467.1719,146.81 467.4375,146.81 Q467.9063,146.81 468.2031,147.0913 Q468.5,147.3725 468.5,148.0288 L468.5,149.5913 Q468.5,150.2475 468.2188,150.5288 Q467.9375,150.81 467.5,150.81 Q467.1094,150.81 466.8594,150.6381 Q466.6094,150.4663 466.5,150.0131 Q466.4531,149.7006 466.2813,149.5288 Q465.9688,149.2006 465.4063,149.0131 Q464.8438,148.81 464.2813,148.81 Q463.5781,148.81 462.9844,149.0913 Q462.4063,149.3725 461.9531,149.9975 Q461.5,150.6225 461.5,151.4819 L461.5,152.4038 Q461.5,153.435 462.3438,154.1225 Q463.1875,154.81 464.6875,154.81 Q465.5781,154.81 466.2031,154.6069 Q466.5625,154.4975 466.9688,154.1381 Q467.2344,153.935 467.375,153.8725 Q467.5156,153.81 467.6875,153.81 Q468.0156,153.81 468.25,154.0756 Q468.5,154.3256 468.5,154.685 Q468.5,155.0288 468.1563,155.435 Q467.6563,156.0288 466.8594,156.3569 Q465.8125,156.81 464.5313,156.81 Q463.0313,156.81 461.8281,156.2163 Q460.8594,155.7475 460.1719,154.7319 Q459.5,153.7163 459.5,152.5131 L459.5,151.4194 Q459.5,150.1694 460.0938,149.0756 Q460.7031,147.9819 461.75,147.4038 Q462.8125,146.81 464,146.81 Q464.7188,146.81 465.3438,147.06 Q465.9688,147.31 466.5,147.81 Z " fill="#000000"/><text fill="#000000" font-family="sans-serif" font-size="12" lengthAdjust="spacing" textLength="55" x="478.5" y="156.2202">Employee</text><line style="stroke:#A80036;stroke-width:1.5;" x1="450.5" x2="535.5" y1="167.31" y2="167.31"/><rect fill="none" height="6" style="stroke:#C82930;stroke-width:1.0;" width="6" x="457.5" y="175.31"/><text fill="#000000" font-family="sans-serif" font-size="11" lengthAdjust="spacing" textLength="26" x="469.5" y="182.7289">name</text><rect fill="none" height="6" style="stroke:#C82930;stroke-width:1.0;" width="6" x="457.5" y="189.1459"/><text fill="#000000" font-family="sans-serif" font-size="11" lengthAdjust="spacing" textLength="8" x="469.5" y="196.5649">id</text><rect fill="none" height="6" style="stroke:#C82930;stroke-width:1.0;" width="6" x="457.5" y="202.9819"/><text fill="#000000" font-family="sans-serif" font-size="11" lengthAdjust="spacing" textLength="24" x="469.5" y="210.4008">email</text><rect fill="none" height="6" style="stroke:#C82930;stroke-width:1.0;" width="6" x="457.5" y="216.8178"/><text fill="#000000" font-family="sans-serif" font-size="11" lengthAdjust="spacing" textLength="18" x="469.5" y="224.2368">role</text><!--MD5=[375d63618663bc85a73cd5ad6098fde0]
class NURSE--><rect codeLine="25" fill="#FEFECE" filter="url(#fog7czniv2u4u)" height="40" id="NURSE" style="stroke:#A80036;stroke-width:1.5;" width="66" x="231" y="139.81"/><ellipse cx="246" cy="155.81" fill="#ADD1B2" rx="11" ry="11" style="stroke:#A80036;stroke-width:1.0;"/><path d="M248,152.31 Q248.2031,151.81 248.4375,151.56 Q248.6719,151.31 248.9375,151.31 Q249.4063,151.31 249.7031,151.5913 Q250,151.8725 250,152.5288 L250,154.0913 Q250,154.7475 249.7188,155.0288 Q249.4375,155.31 249,155.31 Q248.6094,155.31 248.3594,155.1381 Q248.1094,154.9663 248,154.5131 Q247.9531,154.2006 247.7813,154.0288 Q247.4688,153.7006 246.9063,153.5131 Q246.3438,153.31 245.7813,153.31 Q245.0781,153.31 244.4844,153.5913 Q243.9063,153.8725 243.4531,154.4975 Q243,155.1225 243,155.9819 L243,156.9038 Q243,157.935 243.8438,158.6225 Q244.6875,159.31 246.1875,159.31 Q247.0781,159.31 247.7031,159.1069 Q248.0625,158.9975 248.4688,158.6381 Q248.7344,158.435 248.875,158.3725 Q249.0156,158.31 249.1875,158.31 Q249.5156,158.31 249.75,158.5756 Q250,158.8256 250,159.185 Q250,159.5288 249.6563,159.935 Q249.1563,160.5288 248.3594,160.8569 Q247.3125,161.31 246.0313,161.31 Q244.5313,161.31 243.3281,160.7163 Q242.3594,160.2475 241.6719,159.2319 Q241,158.2163 241,157.0131 L241,155.9194 Q241,154.6694 241.5938,153.5756 Q242.2031,152.4819 243.25,151.9038 Q244.3125,151.31 245.5,151.31 Q246.2188,151.31 246.8438,151.56 Q247.4688,151.81 248,152.31 Z " fill="#000000"/><text fill="#000000" font-family="sans-serif" font-size="12" lengthAdjust="spacing" textLength="34" x="260" y="160.7202">Nurse</text><line style="stroke:#A80036;stroke-width:1.5;" x1="232" x2="296" y1="171.81" y2="171.81"/><!--MD5=[2a3e9e863cace2b9cce9e1e3d3285ab8]
class COORD--><rect codeLine="26" fill="#FEFECE" filter="url(#fog7czniv2u4u)" height="40" id="COORD" style="stroke:#A80036;stroke-width:1.5;" width="137" x="195.5" y="214.81"/><ellipse cx="210.5" cy="230.81" fill="#ADD1B2" rx="11" ry="11" style="stroke:#A80036;stroke-width:1.0;"/><path d="M212.5,227.31 Q212.7031,226.81 212.9375,226.56 Q213.1719,226.31 213.4375,226.31 Q213.9063,226.31 214.2031,226.5913 Q214.5,226.8725 214.5,227.5288 L214.5,229.0913 Q214.5,229.7475 214.2188,230.0288 Q213.9375,230.31 213.5,230.31 Q213.1094,230.31 212.8594,230.1381 Q212.6094,229.9663 212.5,229.5131 Q212.4531,229.2006 212.2813,229.0288 Q211.9688,228.7006 211.4063,228.5131 Q210.8438,228.31 210.2813,228.31 Q209.5781,228.31 208.9844,228.5913 Q208.4063,228.8725 207.9531,229.4975 Q207.5,230.1225 207.5,230.9819 L207.5,231.9038 Q207.5,232.935 208.3438,233.6225 Q209.1875,234.31 210.6875,234.31 Q211.5781,234.31 212.2031,234.1069 Q212.5625,233.9975 212.9688,233.6381 Q213.2344,233.435 213.375,233.3725 Q213.5156,233.31 213.6875,233.31 Q214.0156,233.31 214.25,233.5756 Q214.5,233.8256 214.5,234.185 Q214.5,234.5288 214.1563,234.935 Q213.6563,235.5288 212.8594,235.8569 Q211.8125,236.31 210.5313,236.31 Q209.0313,236.31 207.8281,235.7163 Q206.8594,235.2475 206.1719,234.2319 Q205.5,233.2163 205.5,232.0131 L205.5,230.9194 Q205.5,229.6694 206.0938,228.5756 Q206.7031,227.4819 207.75,226.9038 Q208.8125,226.31 210,226.31 Q210.7188,226.31 211.3438,226.56 Q211.9688,226.81 212.5,227.31 Z " fill="#000000"/><text fill="#000000" font-family="sans-serif" font-size="12" lengthAdjust="spacing" textLength="105" x="224.5" y="235.7202">Center Coordinator</text><line style="stroke:#A80036;stroke-width:1.5;" x1="196.5" x2="331.5" y1="246.81" y2="246.81"/><!--MD5=[05840e7ab7e0794f84a27ba4a50e2f57]
class RECEP--><rect codeLine="27" fill="#FEFECE" filter="url(#fog7czniv2u4u)" height="40" id="RECEP" style="stroke:#A80036;stroke-width:1.5;" width="101" x="213.5" y="289.81"/><ellipse cx="228.5" cy="305.81" fill="#ADD1B2" rx="11" ry="11" style="stroke:#A80036;stroke-width:1.0;"/><path d="M230.5,302.31 Q230.7031,301.81 230.9375,301.56 Q231.1719,301.31 231.4375,301.31 Q231.9063,301.31 232.2031,301.5913 Q232.5,301.8725 232.5,302.5288 L232.5,304.0913 Q232.5,304.7475 232.2188,305.0288 Q231.9375,305.31 231.5,305.31 Q231.1094,305.31 230.8594,305.1381 Q230.6094,304.9663 230.5,304.5131 Q230.4531,304.2006 230.2813,304.0288 Q229.9688,303.7006 229.4063,303.5131 Q228.8438,303.31 228.2813,303.31 Q227.5781,303.31 226.9844,303.5913 Q226.4063,303.8725 225.9531,304.4975 Q225.5,305.1225 225.5,305.9819 L225.5,306.9038 Q225.5,307.935 226.3438,308.6225 Q227.1875,309.31 228.6875,309.31 Q229.5781,309.31 230.2031,309.1069 Q230.5625,308.9975 230.9688,308.6381 Q231.2344,308.435 231.375,308.3725 Q231.5156,308.31 231.6875,308.31 Q232.0156,308.31 232.25,308.5756 Q232.5,308.8256 232.5,309.185 Q232.5,309.5288 232.1563,309.935 Q231.6563,310.5288 230.8594,310.8569 Q229.8125,311.31 228.5313,311.31 Q227.0313,311.31 225.8281,310.7163 Q224.8594,310.2475 224.1719,309.2319 Q223.5,308.2163 223.5,307.0131 L223.5,305.9194 Q223.5,304.6694 224.0938,303.5756 Q224.7031,302.4819 225.75,301.9038 Q226.8125,301.31 228,301.31 Q228.7188,301.31 229.3438,301.56 Q229.9688,301.81 230.5,302.31 Z " fill="#000000"/><text fill="#000000" font-family="sans-serif" font-size="12" lengthAdjust="spacing" textLength="69" x="242.5" y="310.7202">Receptionist</text><line style="stroke:#A80036;stroke-width:1.5;" x1="214.5" x2="313.5" y1="321.81" y2="321.81"/><!--MD5=[94b40ae548dbe01e91e228a57d2bf10c]
class ADMIN--><rect codeLine="30" fill="#FEFECE" filter="url(#fog7czniv2u4u)" height="40" id="ADMIN" style="stroke:#A80036;stroke-width:1.5;" width="146" x="191" y="52.81"/><ellipse cx="206" cy="68.81" fill="#ADD1B2" rx="11" ry="11" style="stroke:#A80036;stroke-width:1.0;"/><path d="M208,65.31 Q208.2031,64.81 208.4375,64.56 Q208.6719,64.31 208.9375,64.31 Q209.4063,64.31 209.7031,64.5913 Q210,64.8725 210,65.5288 L210,67.0913 Q210,67.7475 209.7188,68.0288 Q209.4375,68.31 209,68.31 Q208.6094,68.31 208.3594,68.1381 Q208.1094,67.9663 208,67.5131 Q207.9531,67.2006 207.7813,67.0288 Q207.4688,66.7006 206.9063,66.5131 Q206.3438,66.31 205.7813,66.31 Q205.0781,66.31 204.4844,66.5913 Q203.9063,66.8725 203.4531,67.4975 Q203,68.1225 203,68.9819 L203,69.9038 Q203,70.935 203.8438,71.6225 Q204.6875,72.31 206.1875,72.31 Q207.0781,72.31 207.7031,72.1069 Q208.0625,71.9975 208.4688,71.6381 Q208.7344,71.435 208.875,71.3725 Q209.0156,71.31 209.1875,71.31 Q209.5156,71.31 209.75,71.5756 Q210,71.8256 210,72.185 Q210,72.5288 209.6563,72.935 Q209.1563,73.5288 208.3594,73.8569 Q207.3125,74.31 206.0313,74.31 Q204.5313,74.31 203.3281,73.7163 Q202.3594,73.2475 201.6719,72.2319 Q201,71.2163 201,70.0131 L201,68.9194 Q201,67.6694 201.5938,66.5756 Q202.2031,65.4819 203.25,64.9038 Q204.3125,64.31 205.5,64.31 Q206.2188,64.31 206.8438,64.56 Q207.4688,64.81 208,65.31 Z " fill="#000000"/><text fill="#000000" font-family="sans-serif" font-size="12" lengthAdjust="spacing" textLength="114" x="220" y="73.7202">SystemAdministrator</text><line style="stroke:#A80036;stroke-width:1.5;" x1="192" x2="336" y1="84.81" y2="84.81"/><!--MD5=[115cc785ddf873b985ca71ee251850f5]
link ADMIN to USER--><path codeLine="33" d="M311.89,52.78 C366.65,32.19 459.6,6 537,27.81 C552.09,32.06 567.14,39.36 580.77,47.42 " fill="none" id="ADMIN-to-USER" style="stroke:#A80036;stroke-width:1.0;"/><polygon fill="none" points="584.67,41.61,597.74,58.28,577.12,53.4,584.67,41.61" style="stroke:#A80036;stroke-width:1.0;"/><!--MD5=[122fa93f6442ff54692fba0b76507f0b]
link ADMIN to EMP--><path codeLine="34" d="M306.37,92.86 C341.29,109.78 391.75,134.23 431.26,153.37 " fill="none" id="ADMIN-to-EMP" style="stroke:#A80036;stroke-width:1.0;"/><polygon fill="none" points="434.43,147.13,449.37,162.15,428.32,159.73,434.43,147.13" style="stroke:#A80036;stroke-width:1.0;"/><!--MD5=[b6cafb20381c47c46e0cae163bb7d914]
link COORD to EMP--><path codeLine="35" d="M332.8,219.28 C363.48,212.25 399.5,204 429.51,197.12 " fill="none" id="COORD-to-EMP" style="stroke:#A80036;stroke-width:1.0;"/><polygon fill="none" points="428.14,190.26,449.19,192.62,431.26,203.91,428.14,190.26" style="stroke:#A80036;stroke-width:1.0;"/><!--MD5=[5e6d4691390333a51e54b1dc3675e201]
link NURSE to EMP--><path codeLine="36" d="M297.04,163.06 C331.28,166.53 386.42,172.11 429.34,176.46 " fill="none" id="NURSE-to-EMP" style="stroke:#A80036;stroke-width:1.0;"/><polygon fill="none" points="430.09,169.5,449.28,178.48,428.68,183.43,430.09,169.5" style="stroke:#A80036;stroke-width:1.0;"/><!--MD5=[2716a648efd042e20636e4c966b19a19]
link RECEP to EMP--><path codeLine="37" d="M305.18,289.62 C315.6,284.26 326.77,278.41 337,272.81 C368.62,255.52 403.35,235.46 431.9,218.67 " fill="none" id="RECEP-to-EMP" style="stroke:#A80036;stroke-width:1.0;"/><polygon fill="none" points="428.46,212.57,449.24,208.43,435.58,224.63,428.46,212.57" style="stroke:#A80036;stroke-width:1.0;"/><!--MD5=[40d2b789a5ca4d2eed5bb24718bd62ca]
link EMP to USER--><path codeLine="38" d="M536.69,154.05 C550.67,144.63 566.39,134.04 581.09,124.13 " fill="none" id="EMP-to-USER" style="stroke:#A80036;stroke-width:1.0;"/><polygon fill="none" points="577.21,118.3,597.71,112.93,585.04,129.91,577.21,118.3" style="stroke:#A80036;stroke-width:1.0;"/><!--MD5=[5d86274f56fe534483fe848293801993]
link ADMIN to STORE--><path codeLine="40" d="M337.14,72.81 C371.87,72.81 412.58,72.81 443.55,72.81 " fill="none" id="ADMIN-to-STORE" style="stroke:#A80036;stroke-width:1.0;"/><polygon fill="#A80036" points="448.82,72.81,439.82,68.81,443.82,72.81,439.82,76.81,448.82,72.81" style="stroke:#A80036;stroke-width:1.0;"/><text fill="#000000" font-family="sans-serif" font-size="13" lengthAdjust="spacing" textLength="50" x="368" y="69.3051">requests</text><text fill="#000000" font-family="sans-serif" font-size="13" lengthAdjust="spacing" textLength="7" x="345.0435" y="87.1482">1</text><text fill="#000000" font-family="sans-serif" font-size="13" lengthAdjust="spacing" textLength="5" x="436.0886" y="87.6728">*</text><!--MD5=[9bbd45b2cec9cb7f4bde5faf40d1caf3]
link COMP to ADMIN--><path codeLine="41" d="M92.23,72.81 C118.85,72.81 154.16,72.81 185.76,72.81 " fill="none" id="COMP-to-ADMIN" style="stroke:#A80036;stroke-width:1.0;"/><polygon fill="#A80036" points="190.8,72.81,181.8,68.81,185.8,72.81,181.8,76.81,190.8,72.81" style="stroke:#A80036;stroke-width:1.0;"/><text fill="#000000" font-family="sans-serif" font-size="13" lengthAdjust="spacing" textLength="37" x="123" y="69.3051">knows</text><text fill="#000000" font-family="sans-serif" font-size="13" lengthAdjust="spacing" textLength="7" x="99.8868" y="87.6728">1</text><text fill="#000000" font-family="sans-serif" font-size="13" lengthAdjust="spacing" textLength="5" x="177.9934" y="87.1482">*</text><!--MD5=[7328f1c9850209d8b45d5f7eec9cc798]
@startuml
hide methods
left to right direction

class "Company" as COMP{
-designation
}

class "User" as USER{
+email
+password
+role
}

class "UserStore" as STORE{
-userList
}

class "Employee" as EMP {
-name
-id
-email
-role
}

class "Nurse" as NURSE{}
class "Center Coordinator" as COORD{}
class "Receptionist" as RECEP {}


class "SystemAdministrator" as ADMIN{
}

ADMIN - -|> USER
ADMIN - -|> EMP
COORD - -|> EMP
NURSE - -|> EMP
RECEP - -|> EMP
EMP - -|> USER

ADMIN "1" - -> "*" STORE :requests
COMP "1" - -> "*" ADMIN : knows

@enduml

PlantUML version 1.2022.1(Tue Feb 01 18:19:58 GMT 2022)
(GPL source distribution)
Java Runtime: OpenJDK Runtime Environment
JVM: Dynamic Code Evolution 64-Bit Server VM
Default Encoding: Cp1252
Language: en
Country: GB
--></g></svg>