@startuml
autonumber

actor "Administrator" as ACT
participant "CreateEmployeeUI" as UI
participant "CreateEmployeeController" as CTRL
participant "Company" as COMP
participant "UserStore" as STORE
participant "Nurse" as EMP

activate ACT

ACT -> UI : initiates employee registration process
activate UI
UI -> ACT : shows list of roles to select from
deactivate UI
ACT -> UI : selects one
activate UI
UI -> ACT : asks for user information
deactivate UI
ACT -> UI : submits information

activate UI
UI -> CTRL : createNurse(email, password)
activate CTRL
CTRL -> COMP : getUserStore()
activate COMP
deactivate COMP
CTRL -> STORE : createCoordinator(email, password)
activate STORE
STORE -> EMP : create(email, password)
activate EMP
deactivate EMP
deactivate STORE
deactivate CTRL
UI -> ACT : shows information gathered and requests confirmation
deactivate UI

ACT -> UI : confirms submission
activate UI
UI -> CTRL : saveNurse()
activate CTRL
CTRL -> STORE : validateUser(employee)
activate STORE
deactivate STORE
CTRL -> STORE : saveUser(employee)
activate STORE
STORE -> STORE : validateUser(employee)
STORE -> STORE : addUser(employee)
deactivate STORE
deactivate CTRL
UI -> ACT : informs of operation's success
deactivate UI
deactivate ACT

@enduml
