<?xml version="1.0" encoding="UTF-8" standalone="no"?><svg xmlns="http://www.w3.org/2000/svg" xmlns:xlink="http://www.w3.org/1999/xlink" contentScriptType="application/ecmascript" contentStyleType="text/css" height="317px" preserveAspectRatio="none" style="width:365px;height:317px;" version="1.1" viewBox="0 0 365 317" width="365px" zoomAndPan="magnify">
    <defs>
        <filter height="300%" id="f11cd6h09hfgl5" width="300%" x="-1" y="-1">
            <feGaussianBlur result="blurOut" stdDeviation="2.0" />
            <feColorMatrix in="blurOut" result="blurOut2" type="matrix" values="0 0 0 0 0 0 0 0 0 0 0 0 0 0 0 0 0 0 .4 0" />
            <feOffset dx="4.0" dy="4.0" in="blurOut2" result="blurOut3" />
            <feBlend in="SourceGraphic" in2="blurOut3" mode="normal" />
        </filter>
    </defs>
    <g>
        <rect fill="#FFFFFF" filter="url(#f11cd6h09hfgl5)" height="122.4063" style="stroke: #A80036; stroke-width: 1.0;" width="10" x="67" y="97.6094" />
        <rect fill="#FFFFFF" filter="url(#f11cd6h09hfgl5)" height="30.3516" style="stroke: #A80036; stroke-width: 1.0;" width="10" x="319" y="119.9609" />
        <rect fill="#FFFFFF" filter="url(#f11cd6h09hfgl5)" height="39.3516" style="stroke: #A80036; stroke-width: 1.0;" width="10" x="319" y="180.6641" />
        <line style="stroke: #A80036; stroke-width: 1.0; stroke-dasharray: 5.0,5.0;" x1="72" x2="72" y1="87.6094" y2="229.0156" />
        <line style="stroke: #A80036; stroke-width: 1.0; stroke-dasharray: 5.0,5.0;" x1="324" x2="324" y1="87.6094" y2="229.0156" /><text fill="#000000" font-family="sans-serif" font-size="14" lengthAdjust="spacingAndGlyphs" textLength="122" x="8" y="84.5332">Center Coordinator</text>
        <ellipse cx="72" cy="13" fill="#FEFECE" filter="url(#f11cd6h09hfgl5)" rx="8" ry="8" style="stroke: #A80036; stroke-width: 2.0;" />
        <path d="M72,21 L72,48 M59,29 L85,29 M72,48 L59,63 M72,48 L85,63 " fill="none" filter="url(#f11cd6h09hfgl5)" style="stroke: #A80036; stroke-width: 2.0;" /><text fill="#000000" font-family="sans-serif" font-size="14" lengthAdjust="spacingAndGlyphs" textLength="122" x="8" y="242.5488">Center Coordinator</text>
        <ellipse cx="72" cy="255.625" fill="#FEFECE" filter="url(#f11cd6h09hfgl5)" rx="8" ry="8" style="stroke: #A80036; stroke-width: 2.0;" />
        <path d="M72,263.625 L72,290.625 M59,271.625 L85,271.625 M72,290.625 L59,305.625 M72,290.625 L85,305.625 " fill="none" filter="url(#f11cd6h09hfgl5)" style="stroke: #A80036; stroke-width: 2.0;" />
        <rect fill="#FEFECE" filter="url(#f11cd6h09hfgl5)" height="31.6094" style="stroke: #A80036; stroke-width: 1.5;" width="64" x="290" y="51" /><text fill="#000000" font-family="sans-serif" font-size="14" lengthAdjust="spacingAndGlyphs" textLength="50" x="297" y="72.5332">:System</text>
        <rect fill="#FEFECE" filter="url(#f11cd6h09hfgl5)" height="31.6094" style="stroke: #A80036; stroke-width: 1.5;" width="64" x="290" y="228.0156" /><text fill="#000000" font-family="sans-serif" font-size="14" lengthAdjust="spacingAndGlyphs" textLength="50" x="297" y="249.5488">:System</text>
        <rect fill="#FFFFFF" filter="url(#f11cd6h09hfgl5)" height="122.4063" style="stroke: #A80036; stroke-width: 1.0;" width="10" x="67" y="97.6094" />
        <rect fill="#FFFFFF" filter="url(#f11cd6h09hfgl5)" height="30.3516" style="stroke: #A80036; stroke-width: 1.0;" width="10" x="319" y="119.9609" />
        <rect fill="#FFFFFF" filter="url(#f11cd6h09hfgl5)" height="39.3516" style="stroke: #A80036; stroke-width: 1.0;" width="10" x="319" y="180.6641" />
        <polygon fill="#A80036" points="307,115.9609,317,119.9609,307,123.9609,311,119.9609" style="stroke: #A80036; stroke-width: 1.0;" />
        <line style="stroke: #A80036; stroke-width: 1.0;" x1="77" x2="313" y1="119.9609" y2="119.9609" /><text fill="#000000" font-family="sans-serif" font-size="13" font-weight="bold" lengthAdjust="spacingAndGlyphs" textLength="7" x="84" y="115.1045">1</text><text fill="#000000" font-family="sans-serif" font-size="13" lengthAdjust="spacingAndGlyphs" textLength="92" x="95" y="115.1045">Starts operation</text>
        <polygon fill="#A80036" points="88,146.3125,78,150.3125,88,154.3125,84,150.3125" style="stroke: #A80036; stroke-width: 1.0;" />
        <line style="stroke: #A80036; stroke-width: 1.0; stroke-dasharray: 2.0,2.0;" x1="82" x2="323" y1="150.3125" y2="150.3125" /><text fill="#000000" font-family="sans-serif" font-size="13" font-weight="bold" lengthAdjust="spacingAndGlyphs" textLength="7" x="94" y="145.4561">2</text><text fill="#000000" font-family="sans-serif" font-size="13" lengthAdjust="spacingAndGlyphs" textLength="207" x="105" y="145.4561">Shows data of vaccination statistics</text>
        <polygon fill="#A80036" points="307,176.6641,317,180.6641,307,184.6641,311,180.6641" style="stroke: #A80036; stroke-width: 1.0;" />
        <line style="stroke: #A80036; stroke-width: 1.0;" x1="77" x2="313" y1="180.6641" y2="180.6641" /><text fill="#000000" font-family="sans-serif" font-size="13" font-weight="bold" lengthAdjust="spacingAndGlyphs" textLength="7" x="84" y="175.8076">3</text><text fill="#000000" font-family="sans-serif" font-size="13" lengthAdjust="spacingAndGlyphs" textLength="193" x="95" y="175.8076">Chooses to export data to cvs file</text>
        <polygon fill="#A80036" points="88,207.0156,78,211.0156,88,215.0156,84,211.0156" style="stroke: #A80036; stroke-width: 1.0;" />
        <line style="stroke: #A80036; stroke-width: 1.0; stroke-dasharray: 2.0,2.0;" x1="82" x2="318" y1="211.0156" y2="211.0156" /><text fill="#000000" font-family="sans-serif" font-size="13" font-weight="bold" lengthAdjust="spacingAndGlyphs" textLength="7" x="94" y="206.1592">4</text><text fill="#000000" font-family="sans-serif" font-size="13" lengthAdjust="spacingAndGlyphs" textLength="175" x="105" y="206.1592">Informs of operation's success</text>
        <!--
@startuml
autonumber

actor "Center Coordinator" as ACT

participant ":System" as SYS

activate ACT
ACT -> SYS : Starts operation
activate SYS
SYS - -> ACT: Shows data of vaccination statistics
deactivate SYS

ACT -> SYS : Chooses to export data to cvs file
activate SYS
SYS - -> ACT : Informs of operation's success

@enduml

PlantUML version 1.2018.14(Fri Dec 21 16:33:16 GMT 2018)
(GPL source distribution)
Java Runtime: Java(TM) SE Runtime Environment
JVM: Java HotSpot(TM) 64-Bit Server VM
Java Version: 1.8.0_321-b07
Operating System: Windows 10
OS Version: 10.0
Default Encoding: Cp1252
Language: pt
Country: PT
-->
    </g>
</svg>