<?xml version="1.0" encoding="UTF-8" standalone="no"?><svg xmlns="http://www.w3.org/2000/svg" xmlns:xlink="http://www.w3.org/1999/xlink" contentScriptType="application/ecmascript" contentStyleType="text/css" height="459px" preserveAspectRatio="none" style="width:687px;height:459px;background:#FFFFFF;" version="1.1" viewBox="0 0 687 459" width="687px" zoomAndPan="magnify"><defs><filter height="300%" id="fa44lzp710a8i" width="300%" x="-1" y="-1"><feGaussianBlur result="blurOut" stdDeviation="2.0"/><feColorMatrix in="blurOut" result="blurOut2" type="matrix" values="0 0 0 0 0 0 0 0 0 0 0 0 0 0 0 0 0 0 .4 0"/><feOffset dx="4.0" dy="4.0" in="blurOut2" result="blurOut3"/><feBlend in="SourceGraphic" in2="blurOut3" mode="normal"/></filter></defs><g><!--MD5=[02e4b9b7573f1156f41e60aa5b4e25a4]
class Company--><rect codeLine="5" fill="#FEFECE" filter="url(#fa44lzp710a8i)" height="53.8359" id="Company" style="stroke:#A80036;stroke-width:1.5;" width="85" x="28" y="197"/><ellipse cx="43" cy="213" fill="#ADD1B2" rx="11" ry="11" style="stroke:#A80036;stroke-width:1.0;"/><path d="M45,209.5 Q45.2031,209 45.4375,208.75 Q45.6719,208.5 45.9375,208.5 Q46.4063,208.5 46.7031,208.7813 Q47,209.0625 47,209.7188 L47,211.2813 Q47,211.9375 46.7188,212.2188 Q46.4375,212.5 46,212.5 Q45.6094,212.5 45.3594,212.3281 Q45.1094,212.1563 45,211.7031 Q44.9531,211.3906 44.7813,211.2188 Q44.4688,210.8906 43.9063,210.7031 Q43.3438,210.5 42.7813,210.5 Q42.0781,210.5 41.4844,210.7813 Q40.9063,211.0625 40.4531,211.6875 Q40,212.3125 40,213.1719 L40,214.0938 Q40,215.125 40.8438,215.8125 Q41.6875,216.5 43.1875,216.5 Q44.0781,216.5 44.7031,216.2969 Q45.0625,216.1875 45.4688,215.8281 Q45.7344,215.625 45.875,215.5625 Q46.0156,215.5 46.1875,215.5 Q46.5156,215.5 46.75,215.7656 Q47,216.0156 47,216.375 Q47,216.7188 46.6563,217.125 Q46.1563,217.7188 45.3594,218.0469 Q44.3125,218.5 43.0313,218.5 Q41.5313,218.5 40.3281,217.9063 Q39.3594,217.4375 38.6719,216.4219 Q38,215.4063 38,214.2031 L38,213.1094 Q38,211.8594 38.5938,210.7656 Q39.2031,209.6719 40.25,209.0938 Q41.3125,208.5 42.5,208.5 Q43.2188,208.5 43.8438,208.75 Q44.4688,209 45,209.5 Z " fill="#000000"/><text fill="#000000" font-family="sans-serif" font-size="12" lengthAdjust="spacing" textLength="53" x="57" y="217.9102">Company</text><line style="stroke:#A80036;stroke-width:1.5;" x1="29" x2="112" y1="229" y2="229"/><rect fill="none" height="6" style="stroke:#C82930;stroke-width:1.0;" width="6" x="36" y="237"/><text fill="#000000" font-family="sans-serif" font-size="11" lengthAdjust="spacing" textLength="55" x="48" y="244.4189">designation</text><!--MD5=[cd4ce1c0d44638ff9f42448de30e6b92]
class VaccineSchedule--><rect codeLine="9" fill="#FEFECE" filter="url(#fa44lzp710a8i)" height="67.6719" id="VaccineSchedule" style="stroke:#A80036;stroke-width:1.5;" width="127" x="7" y="335"/><ellipse cx="22" cy="351" fill="#ADD1B2" rx="11" ry="11" style="stroke:#A80036;stroke-width:1.0;"/><path d="M24,347.5 Q24.2031,347 24.4375,346.75 Q24.6719,346.5 24.9375,346.5 Q25.4063,346.5 25.7031,346.7813 Q26,347.0625 26,347.7188 L26,349.2813 Q26,349.9375 25.7188,350.2188 Q25.4375,350.5 25,350.5 Q24.6094,350.5 24.3594,350.3281 Q24.1094,350.1563 24,349.7031 Q23.9531,349.3906 23.7813,349.2188 Q23.4688,348.8906 22.9063,348.7031 Q22.3438,348.5 21.7813,348.5 Q21.0781,348.5 20.4844,348.7813 Q19.9063,349.0625 19.4531,349.6875 Q19,350.3125 19,351.1719 L19,352.0938 Q19,353.125 19.8438,353.8125 Q20.6875,354.5 22.1875,354.5 Q23.0781,354.5 23.7031,354.2969 Q24.0625,354.1875 24.4688,353.8281 Q24.7344,353.625 24.875,353.5625 Q25.0156,353.5 25.1875,353.5 Q25.5156,353.5 25.75,353.7656 Q26,354.0156 26,354.375 Q26,354.7188 25.6563,355.125 Q25.1563,355.7188 24.3594,356.0469 Q23.3125,356.5 22.0313,356.5 Q20.5313,356.5 19.3281,355.9063 Q18.3594,355.4375 17.6719,354.4219 Q17,353.4063 17,352.2031 L17,351.1094 Q17,349.8594 17.5938,348.7656 Q18.2031,347.6719 19.25,347.0938 Q20.3125,346.5 21.5,346.5 Q22.2188,346.5 22.8438,346.75 Q23.4688,347 24,347.5 Z " fill="#000000"/><text fill="#000000" font-family="sans-serif" font-size="12" lengthAdjust="spacing" textLength="95" x="36" y="355.9102">VaccineSchedule</text><line style="stroke:#A80036;stroke-width:1.5;" x1="8" x2="133" y1="367" y2="367"/><rect fill="none" height="6" style="stroke:#C82930;stroke-width:1.0;" width="6" x="15" y="375"/><text fill="#000000" font-family="sans-serif" font-size="11" lengthAdjust="spacing" textLength="21" x="27" y="382.4189">date</text><rect fill="none" height="6" style="stroke:#C82930;stroke-width:1.0;" width="6" x="15" y="388.8359"/><text fill="#000000" font-family="sans-serif" font-size="11" lengthAdjust="spacing" textLength="38" x="27" y="396.2549">vaccine</text><!--MD5=[72be06cc7ae02ccc98efe28a50e62246]
class SNSUser--><rect codeLine="14" fill="#FEFECE" filter="url(#fa44lzp710a8i)" height="95.3438" id="SNSUser" style="stroke:#A80036;stroke-width:1.5;" width="93" x="323.5" y="350.5"/><ellipse cx="342.55" cy="366.5" fill="#ADD1B2" rx="11" ry="11" style="stroke:#A80036;stroke-width:1.0;"/><path d="M344.55,363 Q344.7531,362.5 344.9875,362.25 Q345.2219,362 345.4875,362 Q345.9563,362 346.2531,362.2813 Q346.55,362.5625 346.55,363.2188 L346.55,364.7813 Q346.55,365.4375 346.2688,365.7188 Q345.9875,366 345.55,366 Q345.1594,366 344.9094,365.8281 Q344.6594,365.6563 344.55,365.2031 Q344.5031,364.8906 344.3313,364.7188 Q344.0188,364.3906 343.4563,364.2031 Q342.8938,364 342.3313,364 Q341.6281,364 341.0344,364.2813 Q340.4563,364.5625 340.0031,365.1875 Q339.55,365.8125 339.55,366.6719 L339.55,367.5938 Q339.55,368.625 340.3938,369.3125 Q341.2375,370 342.7375,370 Q343.6281,370 344.2531,369.7969 Q344.6125,369.6875 345.0188,369.3281 Q345.2844,369.125 345.425,369.0625 Q345.5656,369 345.7375,369 Q346.0656,369 346.3,369.2656 Q346.55,369.5156 346.55,369.875 Q346.55,370.2188 346.2063,370.625 Q345.7063,371.2188 344.9094,371.5469 Q343.8625,372 342.5813,372 Q341.0813,372 339.8781,371.4063 Q338.9094,370.9375 338.2219,369.9219 Q337.55,368.9063 337.55,367.7031 L337.55,366.6094 Q337.55,365.3594 338.1438,364.2656 Q338.7531,363.1719 339.8,362.5938 Q340.8625,362 342.05,362 Q342.7688,362 343.3938,362.25 Q344.0188,362.5 344.55,363 Z " fill="#000000"/><text fill="#000000" font-family="sans-serif" font-size="12" lengthAdjust="spacing" textLength="52" x="357.45" y="371.4102">SNSUser</text><line style="stroke:#A80036;stroke-width:1.5;" x1="324.5" x2="415.5" y1="382.5" y2="382.5"/><rect fill="none" height="6" style="stroke:#C82930;stroke-width:1.0;" width="6" x="331.5" y="390.5"/><text fill="#000000" font-family="sans-serif" font-size="11" lengthAdjust="spacing" textLength="55" x="343.5" y="397.9189">snsNumber</text><rect fill="none" height="6" style="stroke:#C82930;stroke-width:1.0;" width="6" x="331.5" y="404.3359"/><text fill="#000000" font-family="sans-serif" font-size="11" lengthAdjust="spacing" textLength="67" x="343.5" y="411.7549">phoneNumber</text><rect fill="none" height="6" style="stroke:#C82930;stroke-width:1.0;" width="6" x="331.5" y="418.1719"/><text fill="#000000" font-family="sans-serif" font-size="11" lengthAdjust="spacing" textLength="26" x="343.5" y="425.5908">name</text><rect fill="none" height="6" style="stroke:#C82930;stroke-width:1.0;" width="6" x="331.5" y="432.0078"/><text fill="#000000" font-family="sans-serif" font-size="11" lengthAdjust="spacing" textLength="43" x="343.5" y="439.4268">birthDate</text><!--MD5=[de60e6d4f424ae4d0522096f76a59010]
class VaccinationCenter--><rect codeLine="21" fill="#FEFECE" filter="url(#fa44lzp710a8i)" height="178.3594" id="VaccinationCenter" style="stroke:#A80036;stroke-width:1.5;" width="132" x="304" y="7"/><ellipse cx="319" cy="23" fill="#ADD1B2" rx="11" ry="11" style="stroke:#A80036;stroke-width:1.0;"/><path d="M321,19.5 Q321.2031,19 321.4375,18.75 Q321.6719,18.5 321.9375,18.5 Q322.4063,18.5 322.7031,18.7813 Q323,19.0625 323,19.7188 L323,21.2813 Q323,21.9375 322.7188,22.2188 Q322.4375,22.5 322,22.5 Q321.6094,22.5 321.3594,22.3281 Q321.1094,22.1563 321,21.7031 Q320.9531,21.3906 320.7813,21.2188 Q320.4688,20.8906 319.9063,20.7031 Q319.3438,20.5 318.7813,20.5 Q318.0781,20.5 317.4844,20.7813 Q316.9063,21.0625 316.4531,21.6875 Q316,22.3125 316,23.1719 L316,24.0938 Q316,25.125 316.8438,25.8125 Q317.6875,26.5 319.1875,26.5 Q320.0781,26.5 320.7031,26.2969 Q321.0625,26.1875 321.4688,25.8281 Q321.7344,25.625 321.875,25.5625 Q322.0156,25.5 322.1875,25.5 Q322.5156,25.5 322.75,25.7656 Q323,26.0156 323,26.375 Q323,26.7188 322.6563,27.125 Q322.1563,27.7188 321.3594,28.0469 Q320.3125,28.5 319.0313,28.5 Q317.5313,28.5 316.3281,27.9063 Q315.3594,27.4375 314.6719,26.4219 Q314,25.4063 314,24.2031 L314,23.1094 Q314,21.8594 314.5938,20.7656 Q315.2031,19.6719 316.25,19.0938 Q317.3125,18.5 318.5,18.5 Q319.2188,18.5 319.8438,18.75 Q320.4688,19 321,19.5 Z " fill="#000000"/><text fill="#000000" font-family="sans-serif" font-size="12" lengthAdjust="spacing" textLength="100" x="333" y="27.9102">VaccinationCenter</text><line style="stroke:#A80036;stroke-width:1.5;" x1="305" x2="435" y1="39" y2="39"/><rect fill="none" height="6" style="stroke:#C82930;stroke-width:1.0;" width="6" x="312" y="47"/><text fill="#000000" font-family="sans-serif" font-size="11" lengthAdjust="spacing" textLength="26" x="324" y="54.4189">name</text><rect fill="none" height="6" style="stroke:#C82930;stroke-width:1.0;" width="6" x="312" y="60.8359"/><text fill="#000000" font-family="sans-serif" font-size="11" lengthAdjust="spacing" textLength="34" x="324" y="68.2549">adress</text><rect fill="none" height="6" style="stroke:#C82930;stroke-width:1.0;" width="6" x="312" y="74.6719"/><text fill="#000000" font-family="sans-serif" font-size="11" lengthAdjust="spacing" textLength="67" x="324" y="82.0908">phoneNumber</text><rect fill="none" height="6" style="stroke:#C82930;stroke-width:1.0;" width="6" x="312" y="88.5078"/><text fill="#000000" font-family="sans-serif" font-size="11" lengthAdjust="spacing" textLength="24" x="324" y="95.9268">email</text><rect fill="none" height="6" style="stroke:#C82930;stroke-width:1.0;" width="6" x="312" y="102.3438"/><text fill="#000000" font-family="sans-serif" font-size="11" lengthAdjust="spacing" textLength="53" x="324" y="109.7627">faxNumber</text><rect fill="none" height="6" style="stroke:#C82930;stroke-width:1.0;" width="6" x="312" y="116.1797"/><text fill="#000000" font-family="sans-serif" font-size="11" lengthAdjust="spacing" textLength="39" x="324" y="123.5986">website</text><rect fill="none" height="6" style="stroke:#C82930;stroke-width:1.0;" width="6" x="312" y="130.0156"/><text fill="#000000" font-family="sans-serif" font-size="11" lengthAdjust="spacing" textLength="61" x="324" y="137.4346">openingHour</text><rect fill="none" height="6" style="stroke:#C82930;stroke-width:1.0;" width="6" x="312" y="143.8516"/><text fill="#000000" font-family="sans-serif" font-size="11" lengthAdjust="spacing" textLength="57" x="324" y="151.2705">closingHour</text><rect fill="none" height="6" style="stroke:#C82930;stroke-width:1.0;" width="6" x="312" y="157.6875"/><text fill="#000000" font-family="sans-serif" font-size="11" lengthAdjust="spacing" textLength="57" x="324" y="165.1064">slotDuration</text><rect fill="none" height="6" style="stroke:#C82930;stroke-width:1.0;" width="6" x="312" y="171.5234"/><text fill="#000000" font-family="sans-serif" font-size="11" lengthAdjust="spacing" textLength="72" x="324" y="178.9424">vaccinePerSlot</text><!--MD5=[03960189e81aa2c066c762ffabbee709]
class Receptionist--><rect codeLine="34" fill="#FEFECE" filter="url(#fa44lzp710a8i)" height="95.3438" id="Receptionist" style="stroke:#A80036;stroke-width:1.5;" width="101" x="319.5" y="220.5"/><ellipse cx="334.5" cy="236.5" fill="#ADD1B2" rx="11" ry="11" style="stroke:#A80036;stroke-width:1.0;"/><path d="M336.5,233 Q336.7031,232.5 336.9375,232.25 Q337.1719,232 337.4375,232 Q337.9063,232 338.2031,232.2813 Q338.5,232.5625 338.5,233.2188 L338.5,234.7813 Q338.5,235.4375 338.2188,235.7188 Q337.9375,236 337.5,236 Q337.1094,236 336.8594,235.8281 Q336.6094,235.6563 336.5,235.2031 Q336.4531,234.8906 336.2813,234.7188 Q335.9688,234.3906 335.4063,234.2031 Q334.8438,234 334.2813,234 Q333.5781,234 332.9844,234.2813 Q332.4063,234.5625 331.9531,235.1875 Q331.5,235.8125 331.5,236.6719 L331.5,237.5938 Q331.5,238.625 332.3438,239.3125 Q333.1875,240 334.6875,240 Q335.5781,240 336.2031,239.7969 Q336.5625,239.6875 336.9688,239.3281 Q337.2344,239.125 337.375,239.0625 Q337.5156,239 337.6875,239 Q338.0156,239 338.25,239.2656 Q338.5,239.5156 338.5,239.875 Q338.5,240.2188 338.1563,240.625 Q337.6563,241.2188 336.8594,241.5469 Q335.8125,242 334.5313,242 Q333.0313,242 331.8281,241.4063 Q330.8594,240.9375 330.1719,239.9219 Q329.5,238.9063 329.5,237.7031 L329.5,236.6094 Q329.5,235.3594 330.0938,234.2656 Q330.7031,233.1719 331.75,232.5938 Q332.8125,232 334,232 Q334.7188,232 335.3438,232.25 Q335.9688,232.5 336.5,233 Z " fill="#000000"/><text fill="#000000" font-family="sans-serif" font-size="12" lengthAdjust="spacing" textLength="69" x="348.5" y="241.4102">Receptionist</text><line style="stroke:#A80036;stroke-width:1.5;" x1="320.5" x2="419.5" y1="252.5" y2="252.5"/><rect fill="none" height="6" style="stroke:#C82930;stroke-width:1.0;" width="6" x="327.5" y="260.5"/><text fill="#000000" font-family="sans-serif" font-size="11" lengthAdjust="spacing" textLength="26" x="339.5" y="267.9189">name</text><rect fill="none" height="6" style="stroke:#C82930;stroke-width:1.0;" width="6" x="327.5" y="274.3359"/><text fill="#000000" font-family="sans-serif" font-size="11" lengthAdjust="spacing" textLength="24" x="339.5" y="281.7549">email</text><rect fill="none" height="6" style="stroke:#C82930;stroke-width:1.0;" width="6" x="327.5" y="288.1719"/><text fill="#000000" font-family="sans-serif" font-size="11" lengthAdjust="spacing" textLength="67" x="339.5" y="295.5908">phoneNumber</text><rect fill="none" height="6" style="stroke:#C82930;stroke-width:1.0;" width="6" x="327.5" y="302.0078"/><text fill="#000000" font-family="sans-serif" font-size="11" lengthAdjust="spacing" textLength="27" x="339.5" y="309.4268">roleID</text><!--MD5=[59fd4a5f529b9480c721398510617cdc]
class RegisterArrival--><rect codeLine="41" fill="#FEFECE" filter="url(#fa44lzp710a8i)" height="81.5078" id="RegisterArrival" style="stroke:#A80036;stroke-width:1.5;" width="112" x="561" y="227"/><ellipse cx="576" cy="243" fill="#ADD1B2" rx="11" ry="11" style="stroke:#A80036;stroke-width:1.0;"/><path d="M578,239.5 Q578.2031,239 578.4375,238.75 Q578.6719,238.5 578.9375,238.5 Q579.4063,238.5 579.7031,238.7813 Q580,239.0625 580,239.7188 L580,241.2813 Q580,241.9375 579.7188,242.2188 Q579.4375,242.5 579,242.5 Q578.6094,242.5 578.3594,242.3281 Q578.1094,242.1563 578,241.7031 Q577.9531,241.3906 577.7813,241.2188 Q577.4688,240.8906 576.9063,240.7031 Q576.3438,240.5 575.7813,240.5 Q575.0781,240.5 574.4844,240.7813 Q573.9063,241.0625 573.4531,241.6875 Q573,242.3125 573,243.1719 L573,244.0938 Q573,245.125 573.8438,245.8125 Q574.6875,246.5 576.1875,246.5 Q577.0781,246.5 577.7031,246.2969 Q578.0625,246.1875 578.4688,245.8281 Q578.7344,245.625 578.875,245.5625 Q579.0156,245.5 579.1875,245.5 Q579.5156,245.5 579.75,245.7656 Q580,246.0156 580,246.375 Q580,246.7188 579.6563,247.125 Q579.1563,247.7188 578.3594,248.0469 Q577.3125,248.5 576.0313,248.5 Q574.5313,248.5 573.3281,247.9063 Q572.3594,247.4375 571.6719,246.4219 Q571,245.4063 571,244.2031 L571,243.1094 Q571,241.8594 571.5938,240.7656 Q572.2031,239.6719 573.25,239.0938 Q574.3125,238.5 575.5,238.5 Q576.2188,238.5 576.8438,238.75 Q577.4688,239 578,239.5 Z " fill="#000000"/><text fill="#000000" font-family="sans-serif" font-size="12" lengthAdjust="spacing" textLength="80" x="590" y="247.9102">RegisterArrival</text><line style="stroke:#A80036;stroke-width:1.5;" x1="562" x2="672" y1="259" y2="259"/><rect fill="none" height="6" style="stroke:#C82930;stroke-width:1.0;" width="6" x="569" y="267"/><text fill="#000000" font-family="sans-serif" font-size="11" lengthAdjust="spacing" textLength="55" x="581" y="274.4189">timeArrived</text><rect fill="none" height="6" style="stroke:#C82930;stroke-width:1.0;" width="6" x="569" y="280.8359"/><text fill="#000000" font-family="sans-serif" font-size="11" lengthAdjust="spacing" textLength="81" x="581" y="288.2549">SNSUserNumber</text><rect fill="none" height="6" style="stroke:#C82930;stroke-width:1.0;" width="6" x="569" y="294.6719"/><text fill="#000000" font-family="sans-serif" font-size="11" lengthAdjust="spacing" textLength="83" x="581" y="302.0908">vaccineSchedule</text><!--MD5=[eebe9b198877275d05dd12630ed9e401]
link Company to VaccinationCenter--><path codeLine="47" d="M113.18,206.07 C162.67,184.77 245.81,149 303.83,124.04 " fill="none" id="Company-VaccinationCenter" style="stroke:#A80036;stroke-width:1.0;"/><polygon fill="#000000" points="194.5929,127.1996,185.1227,128.0749,187.4458,133.4742,194.5929,127.1996" style="stroke:#000000;stroke-width:1.0;"/><text fill="#000000" font-family="sans-serif" font-size="13" lengthAdjust="spacing" textLength="53" x="199" y="134.4951">manages</text><text fill="#000000" font-family="sans-serif" font-size="13" lengthAdjust="spacing" textLength="7" x="121.1172" y="217.9027">1</text><text fill="#000000" font-family="sans-serif" font-size="13" lengthAdjust="spacing" textLength="5" x="290.89" y="141.7018">*</text><!--MD5=[8e51fd2526d7ed1449c2aa4f1c32bf49]
link VaccineSchedule to SNSUser--><path codeLine="48" d="M134.21,393.81 C144.04,396.79 154.2,399.35 164,401 C218.23,410.12 281.67,407.14 323.45,403.34 " fill="none" id="VaccineSchedule-SNSUser" style="stroke:#A80036;stroke-width:1.0;"/><polygon fill="#000000" points="173.9937,392.4273,165.1078,389.0371,164.8122,394.9075,173.9937,392.4273" style="stroke:#000000;stroke-width:1.0;"/><text fill="#000000" font-family="sans-serif" font-size="13" lengthAdjust="spacing" textLength="95" x="178" y="397.4951">scheduled by/for</text><text fill="#000000" font-family="sans-serif" font-size="13" lengthAdjust="spacing" textLength="7" x="141.9812" y="411.1381">1</text><text fill="#000000" font-family="sans-serif" font-size="13" lengthAdjust="spacing" textLength="5" x="310.6327" y="418.9618">*</text><!--MD5=[b50e805441a2e23b26400b5687923e53]
link VaccineSchedule to Receptionist--><path codeLine="49" d="M134.43,369.51 C175.59,367.81 229.73,361.61 274,343 C289.88,336.32 305.34,326.23 319.01,315.59 " fill="none" id="VaccineSchedule-Receptionist" style="stroke:#A80036;stroke-width:1.0;"/><polygon fill="#000000" points="173.7994,332.7738,164.2931,332.489,165.9413,338.1311,173.7994,332.7738" style="stroke:#000000;stroke-width:1.0;"/><text fill="#000000" font-family="sans-serif" font-size="13" lengthAdjust="spacing" textLength="95" x="178" y="339.4951">scheduled by/for</text><text fill="#000000" font-family="sans-serif" font-size="13" lengthAdjust="spacing" textLength="7" x="141.8052" y="383.9731">1</text><text fill="#000000" font-family="sans-serif" font-size="13" lengthAdjust="spacing" textLength="5" x="306.488" y="336.903">*</text><!--MD5=[1a8aa2b864b87f860d28abceaa28b7a5]
link Company to SNSUser--><path codeLine="50" d="M113.02,250.75 C128.68,260.28 146.84,270.7 164,279 C211.11,301.79 228.66,294.86 274,321 C291.11,330.86 308.32,343.72 323.31,356.1 " fill="none" id="Company-SNSUser" style="stroke:#A80036;stroke-width:1.0;"/><polygon fill="#000000" points="202.4704,272.4153,195.6998,265.7363,193.067,270.9916,202.4704,272.4153" style="stroke:#000000;stroke-width:1.0;"/><text fill="#000000" font-family="sans-serif" font-size="13" lengthAdjust="spacing" textLength="37" x="207" y="275.4951">knows</text><text fill="#000000" font-family="sans-serif" font-size="13" lengthAdjust="spacing" textLength="7" x="120.9297" y="270.2621">1</text><text fill="#000000" font-family="sans-serif" font-size="13" lengthAdjust="spacing" textLength="5" x="310.4703" y="364.1929">*</text><!--MD5=[5448e79142bdfcbfebd9929e0faf45a6]
link Company to Receptionist--><path codeLine="51" d="M113.18,230.16 C167.31,238.17 261.68,252.13 319.43,260.67 " fill="none" id="Company-Receptionist" style="stroke:#A80036;stroke-width:1.0;"/><polygon fill="#000000" points="202.9462,229.9075,194.4285,225.6766,193.5684,231.4911,202.9462,229.9075" style="stroke:#000000;stroke-width:1.0;"/><text fill="#000000" font-family="sans-serif" font-size="13" lengthAdjust="spacing" textLength="37" x="207" y="234.4951">knows</text><text fill="#000000" font-family="sans-serif" font-size="13" lengthAdjust="spacing" textLength="7" x="121.1172" y="246.1332">1</text><text fill="#000000" font-family="sans-serif" font-size="13" lengthAdjust="spacing" textLength="5" x="306.6353" y="274.2641">*</text><!--MD5=[c7e4a5081ba6932b6dabdddc30d26357]
link Receptionist to RegisterArrival--><path codeLine="52" d="M420.58,268 C461.27,268 518.83,268 560.95,268 " fill="none" id="Receptionist-RegisterArrival" style="stroke:#A80036;stroke-width:1.0;"/><polygon fill="#000000" points="476,259.1758,466.9549,256.2369,466.9549,262.1147,476,259.1758" style="stroke:#000000;stroke-width:1.0;"/><text fill="#000000" font-family="sans-serif" font-size="13" lengthAdjust="spacing" textLength="50" x="480" y="264.4951">registers</text><text fill="#000000" font-family="sans-serif" font-size="13" lengthAdjust="spacing" textLength="7" x="428.523" y="282.6707">1</text><text fill="#000000" font-family="sans-serif" font-size="13" lengthAdjust="spacing" textLength="5" x="548.0823" y="282.6268">*</text><!--MD5=[1625571e2496f4d5f049982336d259a1]
@startuml
hide methods
left to right direction


class Company {
 -designation
}

class VaccineSchedule{
  -date
  -vaccine
}

class SNSUser{
  -snsNumber
  -phoneNumber
  -name
  -birthDate
  }

class VaccinationCenter{
-name
-adress
-phoneNumber
-email
-faxNumber
-website
-openingHour
-closingHour
-slotDuration
-vaccinePerSlot
  }

class Receptionist{
-name
-email
-phoneNumber
-roleID
}

class RegisterArrival{
- timeArrived
- SNSUserNumber
- vaccineSchedule
}

Company "1" - - "*" VaccinationCenter: manages >
VaccineSchedule "1" - - "*" SNSUser: scheduled by/for >
VaccineSchedule "1" - - "*" Receptionist: scheduled by/for >
Company "1" - - "*" SNSUser: knows >
Company "1" - - "*" Receptionist: knows >
Receptionist "1" - - "*" RegisterArrival: registers >

@enduml

PlantUML version 1.2022.1(Tue Feb 01 18:19:58 GMT 2022)
(GPL source distribution)
Java Runtime: OpenJDK Runtime Environment
JVM: Dynamic Code Evolution 64-Bit Server VM
Default Encoding: Cp1252
Language: en
Country: GB
--></g></svg>