<?xml version="1.0" encoding="UTF-8" standalone="no"?><svg xmlns="http://www.w3.org/2000/svg" xmlns:xlink="http://www.w3.org/1999/xlink" contentScriptType="application/ecmascript" contentStyleType="text/css" height="1533px" preserveAspectRatio="none" style="width:3102px;height:1533px;background:#FFFFFF;" version="1.1" viewBox="0 0 3102 1533" width="3102px" zoomAndPan="magnify"><defs><filter height="300%" id="fhn5m8fn3scc0" width="300%" x="-1" y="-1"><feGaussianBlur result="blurOut" stdDeviation="2.0"/><feColorMatrix in="blurOut" result="blurOut2" type="matrix" values="0 0 0 0 0 0 0 0 0 0 0 0 0 0 0 0 0 0 .4 0"/><feOffset dx="4.0" dy="4.0" in="blurOut2" result="blurOut3"/><feBlend in="SourceGraphic" in2="blurOut3" mode="normal"/></filter></defs><g><rect fill="#FFFFFF" filter="url(#fhn5m8fn3scc0)" height="1418.8047" style="stroke:#A80036;stroke-width:1.0;" width="10" x="63.5" y="98.2969"/><rect fill="#FFFFFF" filter="url(#fhn5m8fn3scc0)" height="29.1328" style="stroke:#A80036;stroke-width:1.0;" width="10" x="657.5" y="119.4297"/><rect fill="#FFFFFF" filter="url(#fhn5m8fn3scc0)" height="145.6641" style="stroke:#A80036;stroke-width:1.0;" width="10" x="657.5" y="177.6953"/><rect fill="#FFFFFF" filter="url(#fhn5m8fn3scc0)" height="614.4531" style="stroke:#A80036;stroke-width:1.0;" width="10" x="657.5" y="376.625"/><rect fill="#FFFFFF" filter="url(#fhn5m8fn3scc0)" height="58.2656" style="stroke:#A80036;stroke-width:1.0;" width="10" x="657.5" y="1027.2109"/><rect fill="#FFFFFF" filter="url(#fhn5m8fn3scc0)" height="269.7969" style="stroke:#A80036;stroke-width:1.0;" width="10" x="657.5" y="1247.3047"/><rect fill="#FFFFFF" filter="url(#fhn5m8fn3scc0)" height="87.3984" style="stroke:#A80036;stroke-width:1.0;" width="10" x="1024.5" y="206.8281"/><rect fill="#FFFFFF" filter="url(#fhn5m8fn3scc0)" height="432.6563" style="stroke:#A80036;stroke-width:1.0;" width="10" x="1024.5" y="493.1563"/><rect fill="#FFFFFF" filter="url(#fhn5m8fn3scc0)" height="132.6953" style="stroke:#A80036;stroke-width:1.0;" width="10" x="1024.5" y="1085.4766"/><rect fill="#FFFFFF" filter="url(#fhn5m8fn3scc0)" height="211.5313" style="stroke:#A80036;stroke-width:1.0;" width="10" x="1024.5" y="1305.5703"/><rect fill="#FFFFFF" filter="url(#fhn5m8fn3scc0)" height="29.1328" style="stroke:#A80036;stroke-width:1.0;" width="10" x="1268.5" y="235.9609"/><rect fill="#FFFFFF" filter="url(#fhn5m8fn3scc0)" height="30" style="stroke:#A80036;stroke-width:1.0;" width="10" x="1268.5" y="522.2891"/><rect fill="#FFFFFF" filter="url(#fhn5m8fn3scc0)" height="29.1328" style="stroke:#A80036;stroke-width:1.0;" width="10" x="1268.5" y="757.1172"/><rect fill="#FFFFFF" filter="url(#fhn5m8fn3scc0)" height="29.1328" style="stroke:#A80036;stroke-width:1.0;" width="10" x="1268.5" y="1114.6094"/><rect fill="#FFFFFF" filter="url(#fhn5m8fn3scc0)" height="29.1328" style="stroke:#A80036;stroke-width:1.0;" width="10" x="1420.5" y="265.0938"/><rect fill="#FFFFFF" filter="url(#fhn5m8fn3scc0)" height="29.1328" style="stroke:#A80036;stroke-width:1.0;" width="10" x="1608" y="581.4219"/><rect fill="#FFFFFF" filter="url(#fhn5m8fn3scc0)" height="101.2656" style="stroke:#A80036;stroke-width:1.0;" width="10" x="1608" y="655.8516"/><rect fill="#FFFFFF" filter="url(#fhn5m8fn3scc0)" height="28" style="stroke:#A80036;stroke-width:1.0;" width="10" x="1613" y="692.9844"/><rect fill="#FFFFFF" filter="url(#fhn5m8fn3scc0)" height="29.1328" style="stroke:#A80036;stroke-width:1.0;" width="10" x="2156.5" y="786.25"/><rect fill="#FFFFFF" filter="url(#fhn5m8fn3scc0)" height="101.2656" style="stroke:#A80036;stroke-width:1.0;" width="10" x="2156.5" y="860.6797"/><rect fill="#FFFFFF" filter="url(#fhn5m8fn3scc0)" height="28" style="stroke:#A80036;stroke-width:1.0;" width="10" x="2161.5" y="897.8125"/><rect fill="#FFFFFF" filter="url(#fhn5m8fn3scc0)" height="29.1328" style="stroke:#A80036;stroke-width:1.0;" width="10" x="2690" y="1143.7422"/><rect fill="#FFFFFF" filter="url(#fhn5m8fn3scc0)" height="29.1328" style="stroke:#A80036;stroke-width:1.0;" width="10" x="2690" y="1218.1719"/><rect fill="#FFFFFF" filter="url(#fhn5m8fn3scc0)" height="182.3984" style="stroke:#A80036;stroke-width:1.0;" width="10" x="2690" y="1334.7031"/><rect fill="#FFFFFF" filter="url(#fhn5m8fn3scc0)" height="28" style="stroke:#A80036;stroke-width:1.0;" width="10" x="2695" y="1371.8359"/><rect fill="#FFFFFF" filter="url(#fhn5m8fn3scc0)" height="28" style="stroke:#A80036;stroke-width:1.0;" width="10" x="2695" y="1443.9688"/><rect fill="#FFFFFF" filter="url(#fhn5m8fn3scc0)" height="660.7188" style="stroke:#000000;stroke-width:2.0;" width="2606.5" x="10" y="338.3594"/><line style="stroke:#A80036;stroke-width:1.0;stroke-dasharray:5.0,5.0;" x1="68" x2="68" y1="88.2969" y2="1526.1016"/><line style="stroke:#A80036;stroke-width:1.0;stroke-dasharray:5.0,5.0;" x1="662" x2="662" y1="88.2969" y2="1526.1016"/><line style="stroke:#A80036;stroke-width:1.0;stroke-dasharray:5.0,5.0;" x1="1029" x2="1029" y1="88.2969" y2="1526.1016"/><line style="stroke:#A80036;stroke-width:1.0;stroke-dasharray:5.0,5.0;" x1="1273.5" x2="1273.5" y1="88.2969" y2="1526.1016"/><line style="stroke:#A80036;stroke-width:1.0;stroke-dasharray:5.0,5.0;" x1="1425.5" x2="1425.5" y1="88.2969" y2="1526.1016"/><line style="stroke:#A80036;stroke-width:1.0;stroke-dasharray:5.0,5.0;" x1="1612.5" x2="1612.5" y1="88.2969" y2="1526.1016"/><line style="stroke:#A80036;stroke-width:1.0;stroke-dasharray:5.0,5.0;" x1="1995" x2="1995" y1="622.0703" y2="1526.1016"/><line style="stroke:#A80036;stroke-width:1.0;stroke-dasharray:5.0,5.0;" x1="2161" x2="2161" y1="88.2969" y2="1526.1016"/><line style="stroke:#A80036;stroke-width:1.0;stroke-dasharray:5.0,5.0;" x1="2526.5" x2="2526.5" y1="826.8984" y2="1526.1016"/><line style="stroke:#A80036;stroke-width:1.0;stroke-dasharray:5.0,5.0;" x1="2694.5" x2="2694.5" y1="88.2969" y2="1526.1016"/><line style="stroke:#A80036;stroke-width:1.0;stroke-dasharray:5.0,5.0;" x1="3046" x2="3046" y1="1184.3906" y2="1526.1016"/><text fill="#000000" font-family="sans-serif" font-size="14" lengthAdjust="spacing" textLength="91" x="20" y="84.9951">Administrator</text><ellipse cx="68.5" cy="15" fill="#FEFECE" filter="url(#fhn5m8fn3scc0)" rx="8" ry="8" style="stroke:#A80036;stroke-width:2.0;"/><path d="M68.5,23 L68.5,50 M55.5,31 L81.5,31 M68.5,50 L55.5,65 M68.5,50 L81.5,65 " fill="none" filter="url(#fhn5m8fn3scc0)" style="stroke:#A80036;stroke-width:2.0;"/><rect fill="#FEFECE" filter="url(#fhn5m8fn3scc0)" height="30.2969" style="stroke:#A80036;stroke-width:1.5;" width="135" x="593" y="53"/><text fill="#000000" font-family="sans-serif" font-size="14" lengthAdjust="spacing" textLength="121" x="600" y="72.9951">:SpecifyVaccineUI</text><rect fill="#FEFECE" filter="url(#fhn5m8fn3scc0)" height="30.2969" style="stroke:#A80036;stroke-width:1.5;" width="189" x="933" y="53"/><text fill="#000000" font-family="sans-serif" font-size="14" lengthAdjust="spacing" textLength="175" x="940" y="72.9951">:SpecifyVaccineController</text><rect fill="#FEFECE" filter="url(#fhn5m8fn3scc0)" height="30.2969" style="stroke:#A80036;stroke-width:1.5;" width="84" x="1229.5" y="53"/><text fill="#000000" font-family="sans-serif" font-size="14" lengthAdjust="spacing" textLength="70" x="1236.5" y="72.9951">:Company</text><rect fill="#FEFECE" filter="url(#fhn5m8fn3scc0)" height="30.2969" style="stroke:#A80036;stroke-width:1.5;" width="192" x="1327.5" y="53"/><text fill="#000000" font-family="sans-serif" font-size="14" lengthAdjust="spacing" textLength="178" x="1334.5" y="72.9951">vtstore:VaccineTypeStore</text><rect fill="#FEFECE" filter="url(#fhn5m8fn3scc0)" height="30.2969" style="stroke:#A80036;stroke-width:1.5;" width="155" x="1533.5" y="53"/><text fill="#000000" font-family="sans-serif" font-size="14" lengthAdjust="spacing" textLength="141" x="1540.5" y="72.9951">dstore:DosageStore</text><rect fill="#FEFECE" filter="url(#fhn5m8fn3scc0)" height="30.2969" style="stroke:#A80036;stroke-width:1.5;" width="179" x="2070" y="53"/><text fill="#000000" font-family="sans-serif" font-size="14" lengthAdjust="spacing" textLength="165" x="2077" y="72.9951">agstore:AgeGroupStore</text><rect fill="#FEFECE" filter="url(#fhn5m8fn3scc0)" height="30.2969" style="stroke:#A80036;stroke-width:1.5;" width="153" x="2616.5" y="53"/><text fill="#000000" font-family="sans-serif" font-size="14" lengthAdjust="spacing" textLength="139" x="2623.5" y="72.9951">vstore:VaccineStore</text><rect fill="#FFFFFF" filter="url(#fhn5m8fn3scc0)" height="1418.8047" style="stroke:#A80036;stroke-width:1.0;" width="10" x="63.5" y="98.2969"/><rect fill="#FFFFFF" filter="url(#fhn5m8fn3scc0)" height="29.1328" style="stroke:#A80036;stroke-width:1.0;" width="10" x="657.5" y="119.4297"/><rect fill="#FFFFFF" filter="url(#fhn5m8fn3scc0)" height="145.6641" style="stroke:#A80036;stroke-width:1.0;" width="10" x="657.5" y="177.6953"/><rect fill="#FFFFFF" filter="url(#fhn5m8fn3scc0)" height="614.4531" style="stroke:#A80036;stroke-width:1.0;" width="10" x="657.5" y="376.625"/><rect fill="#FFFFFF" filter="url(#fhn5m8fn3scc0)" height="58.2656" style="stroke:#A80036;stroke-width:1.0;" width="10" x="657.5" y="1027.2109"/><rect fill="#FFFFFF" filter="url(#fhn5m8fn3scc0)" height="269.7969" style="stroke:#A80036;stroke-width:1.0;" width="10" x="657.5" y="1247.3047"/><rect fill="#FFFFFF" filter="url(#fhn5m8fn3scc0)" height="87.3984" style="stroke:#A80036;stroke-width:1.0;" width="10" x="1024.5" y="206.8281"/><rect fill="#FFFFFF" filter="url(#fhn5m8fn3scc0)" height="432.6563" style="stroke:#A80036;stroke-width:1.0;" width="10" x="1024.5" y="493.1563"/><rect fill="#FFFFFF" filter="url(#fhn5m8fn3scc0)" height="132.6953" style="stroke:#A80036;stroke-width:1.0;" width="10" x="1024.5" y="1085.4766"/><rect fill="#FFFFFF" filter="url(#fhn5m8fn3scc0)" height="211.5313" style="stroke:#A80036;stroke-width:1.0;" width="10" x="1024.5" y="1305.5703"/><rect fill="#FFFFFF" filter="url(#fhn5m8fn3scc0)" height="29.1328" style="stroke:#A80036;stroke-width:1.0;" width="10" x="1268.5" y="235.9609"/><rect fill="#FFFFFF" filter="url(#fhn5m8fn3scc0)" height="30" style="stroke:#A80036;stroke-width:1.0;" width="10" x="1268.5" y="522.2891"/><rect fill="#FFFFFF" filter="url(#fhn5m8fn3scc0)" height="29.1328" style="stroke:#A80036;stroke-width:1.0;" width="10" x="1268.5" y="757.1172"/><rect fill="#FFFFFF" filter="url(#fhn5m8fn3scc0)" height="29.1328" style="stroke:#A80036;stroke-width:1.0;" width="10" x="1268.5" y="1114.6094"/><rect fill="#FFFFFF" filter="url(#fhn5m8fn3scc0)" height="29.1328" style="stroke:#A80036;stroke-width:1.0;" width="10" x="1420.5" y="265.0938"/><rect fill="#FFFFFF" filter="url(#fhn5m8fn3scc0)" height="29.1328" style="stroke:#A80036;stroke-width:1.0;" width="10" x="1608" y="581.4219"/><rect fill="#FFFFFF" filter="url(#fhn5m8fn3scc0)" height="101.2656" style="stroke:#A80036;stroke-width:1.0;" width="10" x="1608" y="655.8516"/><rect fill="#FFFFFF" filter="url(#fhn5m8fn3scc0)" height="28" style="stroke:#A80036;stroke-width:1.0;" width="10" x="1613" y="692.9844"/><rect fill="#FFFFFF" filter="url(#fhn5m8fn3scc0)" height="29.1328" style="stroke:#A80036;stroke-width:1.0;" width="10" x="2156.5" y="786.25"/><rect fill="#FFFFFF" filter="url(#fhn5m8fn3scc0)" height="101.2656" style="stroke:#A80036;stroke-width:1.0;" width="10" x="2156.5" y="860.6797"/><rect fill="#FFFFFF" filter="url(#fhn5m8fn3scc0)" height="28" style="stroke:#A80036;stroke-width:1.0;" width="10" x="2161.5" y="897.8125"/><rect fill="#FFFFFF" filter="url(#fhn5m8fn3scc0)" height="29.1328" style="stroke:#A80036;stroke-width:1.0;" width="10" x="2690" y="1143.7422"/><rect fill="#FFFFFF" filter="url(#fhn5m8fn3scc0)" height="29.1328" style="stroke:#A80036;stroke-width:1.0;" width="10" x="2690" y="1218.1719"/><rect fill="#FFFFFF" filter="url(#fhn5m8fn3scc0)" height="182.3984" style="stroke:#A80036;stroke-width:1.0;" width="10" x="2690" y="1334.7031"/><rect fill="#FFFFFF" filter="url(#fhn5m8fn3scc0)" height="28" style="stroke:#A80036;stroke-width:1.0;" width="10" x="2695" y="1371.8359"/><rect fill="#FFFFFF" filter="url(#fhn5m8fn3scc0)" height="28" style="stroke:#A80036;stroke-width:1.0;" width="10" x="2695" y="1443.9688"/><polygon fill="#A80036" points="645.5,115.4297,655.5,119.4297,645.5,123.4297,649.5,119.4297" style="stroke:#A80036;stroke-width:1.0;"/><line style="stroke:#A80036;stroke-width:1.0;" x1="73.5" x2="651.5" y1="119.4297" y2="119.4297"/><text fill="#000000" font-family="sans-serif" font-size="13" font-weight="bold" lengthAdjust="spacing" textLength="9" x="80.5" y="114.3638">1</text><text fill="#000000" font-family="sans-serif" font-size="13" lengthAdjust="spacing" textLength="187" x="93.5" y="114.3638">Iniciates vaccine specification</text><polygon fill="#A80036" points="84.5,144.5625,74.5,148.5625,84.5,152.5625,80.5,148.5625" style="stroke:#A80036;stroke-width:1.0;"/><line style="stroke:#A80036;stroke-width:1.0;stroke-dasharray:2.0,2.0;" x1="78.5" x2="661.5" y1="148.5625" y2="148.5625"/><text fill="#000000" font-family="sans-serif" font-size="13" font-weight="bold" lengthAdjust="spacing" textLength="9" x="90.5" y="143.4966">2</text><text fill="#000000" font-family="sans-serif" font-size="13" lengthAdjust="spacing" textLength="336" x="103.5" y="143.4966">Asks for introduction of vaccine Name, ID and brand;</text><polygon fill="#A80036" points="645.5,173.6953,655.5,177.6953,645.5,181.6953,649.5,177.6953" style="stroke:#A80036;stroke-width:1.0;"/><line style="stroke:#A80036;stroke-width:1.0;" x1="73.5" x2="651.5" y1="177.6953" y2="177.6953"/><text fill="#000000" font-family="sans-serif" font-size="13" font-weight="bold" lengthAdjust="spacing" textLength="9" x="80.5" y="172.6294">3</text><text fill="#000000" font-family="sans-serif" font-size="13" lengthAdjust="spacing" textLength="173" x="93.5" y="172.6294">Introduces requested data;</text><polygon fill="#A80036" points="1012.5,202.8281,1022.5,206.8281,1012.5,210.8281,1016.5,206.8281" style="stroke:#A80036;stroke-width:1.0;"/><line style="stroke:#A80036;stroke-width:1.0;" x1="667.5" x2="1018.5" y1="206.8281" y2="206.8281"/><text fill="#000000" font-family="sans-serif" font-size="13" font-weight="bold" lengthAdjust="spacing" textLength="9" x="674.5" y="201.7622">4</text><text fill="#000000" font-family="sans-serif" font-size="13" lengthAdjust="spacing" textLength="146" x="687.5" y="201.7622">getVaccineTypeStore()</text><polygon fill="#A80036" points="1256.5,231.9609,1266.5,235.9609,1256.5,239.9609,1260.5,235.9609" style="stroke:#A80036;stroke-width:1.0;"/><line style="stroke:#A80036;stroke-width:1.0;" x1="1034.5" x2="1262.5" y1="235.9609" y2="235.9609"/><text fill="#000000" font-family="sans-serif" font-size="13" font-weight="bold" lengthAdjust="spacing" textLength="9" x="1041.5" y="230.895">5</text><text fill="#000000" font-family="sans-serif" font-size="13" lengthAdjust="spacing" textLength="202" x="1054.5" y="230.895">vtstore=getVaccineTypeStore()</text><polygon fill="#A80036" points="1408.5,261.0938,1418.5,265.0938,1408.5,269.0938,1412.5,265.0938" style="stroke:#A80036;stroke-width:1.0;"/><line style="stroke:#A80036;stroke-width:1.0;" x1="1034.5" x2="1414.5" y1="265.0938" y2="265.0938"/><text fill="#000000" font-family="sans-serif" font-size="13" font-weight="bold" lengthAdjust="spacing" textLength="9" x="1041.5" y="260.0278">6</text><text fill="#000000" font-family="sans-serif" font-size="13" lengthAdjust="spacing" textLength="219" x="1054.5" y="260.0278">lVaccineTypes=getVaccineTypes()</text><polygon fill="#A80036" points="84.5,290.2266,74.5,294.2266,84.5,298.2266,80.5,294.2266" style="stroke:#A80036;stroke-width:1.0;"/><line style="stroke:#A80036;stroke-width:1.0;stroke-dasharray:2.0,2.0;" x1="78.5" x2="656.5" y1="294.2266" y2="294.2266"/><text fill="#000000" font-family="sans-serif" font-size="13" font-weight="bold" lengthAdjust="spacing" textLength="9" x="90.5" y="289.1606">7</text><text fill="#000000" font-family="sans-serif" font-size="13" lengthAdjust="spacing" textLength="334" x="103.5" y="289.1606">Shows vaccine type list and asks for selection of one</text><polygon fill="#A80036" points="650.5,319.3594,660.5,323.3594,650.5,327.3594,654.5,323.3594" style="stroke:#A80036;stroke-width:1.0;"/><line style="stroke:#A80036;stroke-width:1.0;" x1="73.5" x2="656.5" y1="323.3594" y2="323.3594"/><text fill="#000000" font-family="sans-serif" font-size="13" font-weight="bold" lengthAdjust="spacing" textLength="9" x="80.5" y="318.2935">8</text><text fill="#000000" font-family="sans-serif" font-size="13" lengthAdjust="spacing" textLength="131" x="93.5" y="318.2935">Selects vaccine type</text><path d="M10,338.3594 L87,338.3594 L87,345.3594 L77,355.3594 L10,355.3594 L10,338.3594 " fill="#EEEEEE" style="stroke:#000000;stroke-width:1.0;"/><rect fill="none" height="660.7188" style="stroke:#000000;stroke-width:2.0;" width="2606.5" x="10" y="338.3594"/><text fill="#000000" font-family="sans-serif" font-size="13" font-weight="bold" lengthAdjust="spacing" textLength="32" x="25" y="351.4263">loop</text><text fill="#000000" font-family="sans-serif" font-size="11" font-weight="bold" lengthAdjust="spacing" textLength="220" x="102" y="350.5698">[(for all the age groups intended)]</text><polygon fill="#A80036" points="84.5,372.625,74.5,376.625,84.5,380.625,80.5,376.625" style="stroke:#A80036;stroke-width:1.0;"/><line style="stroke:#A80036;stroke-width:1.0;stroke-dasharray:2.0,2.0;" x1="78.5" x2="656.5" y1="376.625" y2="376.625"/><text fill="#000000" font-family="sans-serif" font-size="13" font-weight="bold" lengthAdjust="spacing" textLength="9" x="90.5" y="371.5591">9</text><text fill="#000000" font-family="sans-serif" font-size="13" lengthAdjust="spacing" textLength="323" x="103.5" y="371.5591">Asks for upper age and lower age of the age group</text><polygon fill="#A80036" points="645.5,401.7578,655.5,405.7578,645.5,409.7578,649.5,405.7578" style="stroke:#A80036;stroke-width:1.0;"/><line style="stroke:#A80036;stroke-width:1.0;" x1="73.5" x2="651.5" y1="405.7578" y2="405.7578"/><text fill="#000000" font-family="sans-serif" font-size="13" font-weight="bold" lengthAdjust="spacing" textLength="18" x="80.5" y="400.6919">10</text><text fill="#000000" font-family="sans-serif" font-size="13" lengthAdjust="spacing" textLength="229" x="102.5" y="400.6919">Introduces upper age and lower age</text><polygon fill="#A80036" points="84.5,430.8906,74.5,434.8906,84.5,438.8906,80.5,434.8906" style="stroke:#A80036;stroke-width:1.0;"/><line style="stroke:#A80036;stroke-width:1.0;stroke-dasharray:2.0,2.0;" x1="78.5" x2="656.5" y1="434.8906" y2="434.8906"/><text fill="#000000" font-family="sans-serif" font-size="13" font-weight="bold" lengthAdjust="spacing" textLength="18" x="90.5" y="429.8247">11</text><text fill="#000000" font-family="sans-serif" font-size="13" lengthAdjust="spacing" textLength="482" x="112.5" y="429.8247">Asks for number of doses, vaccine dosage and time interval between doses</text><polygon fill="#A80036" points="645.5,460.0234,655.5,464.0234,645.5,468.0234,649.5,464.0234" style="stroke:#A80036;stroke-width:1.0;"/><line style="stroke:#A80036;stroke-width:1.0;" x1="73.5" x2="651.5" y1="464.0234" y2="464.0234"/><text fill="#000000" font-family="sans-serif" font-size="13" font-weight="bold" lengthAdjust="spacing" textLength="18" x="80.5" y="458.9575">12</text><text fill="#000000" font-family="sans-serif" font-size="13" lengthAdjust="spacing" textLength="169" x="102.5" y="458.9575">Introduces requested data</text><polygon fill="#A80036" points="1012.5,489.1563,1022.5,493.1563,1012.5,497.1563,1016.5,493.1563" style="stroke:#A80036;stroke-width:1.0;"/><line style="stroke:#A80036;stroke-width:1.0;" x1="667.5" x2="1018.5" y1="493.1563" y2="493.1563"/><text fill="#000000" font-family="sans-serif" font-size="13" font-weight="bold" lengthAdjust="spacing" textLength="18" x="674.5" y="488.0903">13</text><text fill="#000000" font-family="sans-serif" font-size="13" lengthAdjust="spacing" textLength="316" x="696.5" y="488.0903">createDosage(nrOfDoses, dosageQ, timeInterval)</text><polygon fill="#A80036" points="1256.5,518.2891,1266.5,522.2891,1256.5,526.2891,1260.5,522.2891" style="stroke:#A80036;stroke-width:1.0;"/><line style="stroke:#A80036;stroke-width:1.0;" x1="1034.5" x2="1262.5" y1="522.2891" y2="522.2891"/><text fill="#000000" font-family="sans-serif" font-size="13" font-weight="bold" lengthAdjust="spacing" textLength="18" x="1041.5" y="517.2231">14</text><text fill="#000000" font-family="sans-serif" font-size="13" lengthAdjust="spacing" textLength="177" x="1063.5" y="517.2231">dStore = getDosageStore()</text><polygon fill="#A80036" points="1596,577.4219,1606,581.4219,1596,585.4219,1600,581.4219" style="stroke:#A80036;stroke-width:1.0;"/><line style="stroke:#A80036;stroke-width:1.0;" x1="1034.5" x2="1602" y1="581.4219" y2="581.4219"/><text fill="#000000" font-family="sans-serif" font-size="13" font-weight="bold" lengthAdjust="spacing" textLength="18" x="1041.5" y="576.356">15</text><text fill="#000000" font-family="sans-serif" font-size="13" lengthAdjust="spacing" textLength="378" x="1063.5" y="576.356">dosage =createDosage(nrOfDoses, dosageQ, timeInterval)</text><polygon fill="#A80036" points="1919,606.5547,1929,610.5547,1919,614.5547,1923,610.5547" style="stroke:#A80036;stroke-width:1.0;"/><line style="stroke:#A80036;stroke-width:1.0;" x1="1613" x2="1925" y1="610.5547" y2="610.5547"/><text fill="#000000" font-family="sans-serif" font-size="13" font-weight="bold" lengthAdjust="spacing" textLength="18" x="1620" y="605.4888">16</text><text fill="#000000" font-family="sans-serif" font-size="13" lengthAdjust="spacing" textLength="267" x="1642" y="605.4888">create(nrOfDoses, dosageQ, timeInterval)</text><rect fill="#FEFECE" filter="url(#fhn5m8fn3scc0)" height="30.2969" style="stroke:#A80036;stroke-width:1.5;" width="125" x="1931" y="589.4219"/><text fill="#000000" font-family="sans-serif" font-size="14" lengthAdjust="spacing" textLength="111" x="1938" y="609.417">dosage:Dosage</text><polygon fill="#A80036" points="1596,651.8516,1606,655.8516,1596,659.8516,1600,655.8516" style="stroke:#A80036;stroke-width:1.0;"/><line style="stroke:#A80036;stroke-width:1.0;" x1="1034.5" x2="1602" y1="655.8516" y2="655.8516"/><text fill="#000000" font-family="sans-serif" font-size="13" font-weight="bold" lengthAdjust="spacing" textLength="18" x="1041.5" y="650.7856">17</text><text fill="#000000" font-family="sans-serif" font-size="13" lengthAdjust="spacing" textLength="156" x="1063.5" y="650.7856">validateDosage(dosage)</text><line style="stroke:#A80036;stroke-width:1.0;" x1="1623" x2="1665" y1="684.9844" y2="684.9844"/><line style="stroke:#A80036;stroke-width:1.0;" x1="1665" x2="1665" y1="684.9844" y2="697.9844"/><line style="stroke:#A80036;stroke-width:1.0;" x1="1624" x2="1665" y1="697.9844" y2="697.9844"/><polygon fill="#A80036" points="1634,693.9844,1624,697.9844,1634,701.9844,1630,697.9844" style="stroke:#A80036;stroke-width:1.0;"/><text fill="#000000" font-family="sans-serif" font-size="13" font-weight="bold" lengthAdjust="spacing" textLength="18" x="1630" y="679.9185">18</text><text fill="#000000" font-family="sans-serif" font-size="13" lengthAdjust="spacing" textLength="136" x="1652" y="679.9185">saveDosage(dosage)</text><polygon fill="#A80036" points="1256.5,753.1172,1266.5,757.1172,1256.5,761.1172,1260.5,757.1172" style="stroke:#A80036;stroke-width:1.0;"/><line style="stroke:#A80036;stroke-width:1.0;" x1="1034.5" x2="1262.5" y1="757.1172" y2="757.1172"/><text fill="#000000" font-family="sans-serif" font-size="13" font-weight="bold" lengthAdjust="spacing" textLength="18" x="1041.5" y="752.0513">19</text><text fill="#000000" font-family="sans-serif" font-size="13" lengthAdjust="spacing" textLength="190" x="1063.5" y="752.0513">agstore=getAgeGroupStore()</text><polygon fill="#A80036" points="2144.5,782.25,2154.5,786.25,2144.5,790.25,2148.5,786.25" style="stroke:#A80036;stroke-width:1.0;"/><line style="stroke:#A80036;stroke-width:1.0;" x1="1034.5" x2="2150.5" y1="786.25" y2="786.25"/><text fill="#000000" font-family="sans-serif" font-size="13" font-weight="bold" lengthAdjust="spacing" textLength="18" x="1041.5" y="781.1841">20</text><text fill="#000000" font-family="sans-serif" font-size="13" lengthAdjust="spacing" textLength="372" x="1063.5" y="781.1841">ageGroup=createAgeGroup(upperAge, lowerAge, dosage)</text><polygon fill="#A80036" points="2434.5,811.3828,2444.5,815.3828,2434.5,819.3828,2438.5,815.3828" style="stroke:#A80036;stroke-width:1.0;"/><line style="stroke:#A80036;stroke-width:1.0;" x1="2161.5" x2="2440.5" y1="815.3828" y2="815.3828"/><text fill="#000000" font-family="sans-serif" font-size="13" font-weight="bold" lengthAdjust="spacing" textLength="18" x="2168.5" y="810.3169">21</text><text fill="#000000" font-family="sans-serif" font-size="13" lengthAdjust="spacing" textLength="234" x="2190.5" y="810.3169">create(upperAge, lowerAge, dosage)</text><rect fill="#FEFECE" filter="url(#fhn5m8fn3scc0)" height="30.2969" style="stroke:#A80036;stroke-width:1.5;" width="156" x="2446.5" y="794.25"/><text fill="#000000" font-family="sans-serif" font-size="14" lengthAdjust="spacing" textLength="142" x="2453.5" y="814.2451">agegroup:AgeGroup</text><polygon fill="#A80036" points="2144.5,856.6797,2154.5,860.6797,2144.5,864.6797,2148.5,860.6797" style="stroke:#A80036;stroke-width:1.0;"/><line style="stroke:#A80036;stroke-width:1.0;" x1="1034.5" x2="2150.5" y1="860.6797" y2="860.6797"/><text fill="#000000" font-family="sans-serif" font-size="13" font-weight="bold" lengthAdjust="spacing" textLength="18" x="1041.5" y="855.6138">22</text><text fill="#000000" font-family="sans-serif" font-size="13" lengthAdjust="spacing" textLength="140" x="1063.5" y="855.6138">validateAgeGroup(ag)</text><line style="stroke:#A80036;stroke-width:1.0;" x1="2171.5" x2="2213.5" y1="889.8125" y2="889.8125"/><line style="stroke:#A80036;stroke-width:1.0;" x1="2213.5" x2="2213.5" y1="889.8125" y2="902.8125"/><line style="stroke:#A80036;stroke-width:1.0;" x1="2172.5" x2="2213.5" y1="902.8125" y2="902.8125"/><polygon fill="#A80036" points="2182.5,898.8125,2172.5,902.8125,2182.5,906.8125,2178.5,902.8125" style="stroke:#A80036;stroke-width:1.0;"/><text fill="#000000" font-family="sans-serif" font-size="13" font-weight="bold" lengthAdjust="spacing" textLength="18" x="2178.5" y="884.7466">23</text><text fill="#000000" font-family="sans-serif" font-size="13" lengthAdjust="spacing" textLength="120" x="2200.5" y="884.7466">saveAgeGroup(ag)</text><polygon fill="#A80036" points="84.5,957.9453,74.5,961.9453,84.5,965.9453,80.5,961.9453" style="stroke:#A80036;stroke-width:1.0;"/><line style="stroke:#A80036;stroke-width:1.0;stroke-dasharray:2.0,2.0;" x1="78.5" x2="656.5" y1="961.9453" y2="961.9453"/><text fill="#000000" font-family="sans-serif" font-size="13" font-weight="bold" lengthAdjust="spacing" textLength="18" x="90.5" y="956.8794">24</text><text fill="#000000" font-family="sans-serif" font-size="13" lengthAdjust="spacing" textLength="356" x="112.5" y="956.8794">Shows introduced information and asks for confirmation</text><polygon fill="#A80036" points="650.5,987.0781,660.5,991.0781,650.5,995.0781,654.5,991.0781" style="stroke:#A80036;stroke-width:1.0;"/><line style="stroke:#A80036;stroke-width:1.0;" x1="73.5" x2="656.5" y1="991.0781" y2="991.0781"/><text fill="#000000" font-family="sans-serif" font-size="13" font-weight="bold" lengthAdjust="spacing" textLength="18" x="80.5" y="986.0122">25</text><text fill="#000000" font-family="sans-serif" font-size="13" lengthAdjust="spacing" textLength="263" x="102.5" y="986.0122">Confirms information regading age group</text><polygon fill="#A80036" points="84.5,1023.2109,74.5,1027.2109,84.5,1031.2109,80.5,1027.2109" style="stroke:#A80036;stroke-width:1.0;"/><line style="stroke:#A80036;stroke-width:1.0;stroke-dasharray:2.0,2.0;" x1="78.5" x2="656.5" y1="1027.2109" y2="1027.2109"/><text fill="#000000" font-family="sans-serif" font-size="13" font-weight="bold" lengthAdjust="spacing" textLength="18" x="90.5" y="1022.145">26</text><text fill="#000000" font-family="sans-serif" font-size="13" lengthAdjust="spacing" textLength="543" x="112.5" y="1022.145">Shows list of age groups introduced with respective dosage and asks for confirmation</text><polygon fill="#A80036" points="645.5,1052.3438,655.5,1056.3438,645.5,1060.3438,649.5,1056.3438" style="stroke:#A80036;stroke-width:1.0;"/><line style="stroke:#A80036;stroke-width:1.0;" x1="73.5" x2="651.5" y1="1056.3438" y2="1056.3438"/><text fill="#000000" font-family="sans-serif" font-size="13" font-weight="bold" lengthAdjust="spacing" textLength="18" x="80.5" y="1051.2778">27</text><text fill="#000000" font-family="sans-serif" font-size="13" lengthAdjust="spacing" textLength="133" x="102.5" y="1051.2778">Confirms age groups</text><polygon fill="#A80036" points="1012.5,1081.4766,1022.5,1085.4766,1012.5,1089.4766,1016.5,1085.4766" style="stroke:#A80036;stroke-width:1.0;"/><line style="stroke:#A80036;stroke-width:1.0;" x1="662.5" x2="1018.5" y1="1085.4766" y2="1085.4766"/><text fill="#000000" font-family="sans-serif" font-size="13" font-weight="bold" lengthAdjust="spacing" textLength="18" x="669.5" y="1080.4106">28</text><text fill="#000000" font-family="sans-serif" font-size="13" lengthAdjust="spacing" textLength="304" x="691.5" y="1080.4106">createVaccine(name, id, brand, vt, lAgeGroups)</text><polygon fill="#A80036" points="1256.5,1110.6094,1266.5,1114.6094,1256.5,1118.6094,1260.5,1114.6094" style="stroke:#A80036;stroke-width:1.0;"/><line style="stroke:#A80036;stroke-width:1.0;" x1="1034.5" x2="1262.5" y1="1114.6094" y2="1114.6094"/><text fill="#000000" font-family="sans-serif" font-size="13" font-weight="bold" lengthAdjust="spacing" textLength="18" x="1041.5" y="1109.5435">29</text><text fill="#000000" font-family="sans-serif" font-size="13" lengthAdjust="spacing" textLength="167" x="1063.5" y="1109.5435">vstore=getVaccineStore()</text><polygon fill="#A80036" points="2678,1139.7422,2688,1143.7422,2678,1147.7422,2682,1143.7422" style="stroke:#A80036;stroke-width:1.0;"/><line style="stroke:#A80036;stroke-width:1.0;" x1="1034.5" x2="2684" y1="1143.7422" y2="1143.7422"/><text fill="#000000" font-family="sans-serif" font-size="13" font-weight="bold" lengthAdjust="spacing" textLength="18" x="1041.5" y="1138.6763">30</text><text fill="#000000" font-family="sans-serif" font-size="13" lengthAdjust="spacing" textLength="304" x="1063.5" y="1138.6763">createVaccine(name, id, brand, vt, lAgeGroups)</text><polygon fill="#A80036" points="2988,1168.875,2998,1172.875,2988,1176.875,2992,1172.875" style="stroke:#A80036;stroke-width:1.0;"/><line style="stroke:#A80036;stroke-width:1.0;" x1="2695" x2="2994" y1="1172.875" y2="1172.875"/><text fill="#000000" font-family="sans-serif" font-size="13" font-weight="bold" lengthAdjust="spacing" textLength="18" x="2702" y="1167.8091">31</text><text fill="#000000" font-family="sans-serif" font-size="13" lengthAdjust="spacing" textLength="254" x="2724" y="1167.8091">create(name, id, brand, vt, lAgeGroups)</text><rect fill="#FEFECE" filter="url(#fhn5m8fn3scc0)" height="30.2969" style="stroke:#A80036;stroke-width:1.5;" width="88" x="3000" y="1151.7422"/><text fill="#000000" font-family="sans-serif" font-size="14" lengthAdjust="spacing" textLength="74" x="3007" y="1171.7373">va:Vaccine</text><polygon fill="#A80036" points="2678,1214.1719,2688,1218.1719,2678,1222.1719,2682,1218.1719" style="stroke:#A80036;stroke-width:1.0;"/><line style="stroke:#A80036;stroke-width:1.0;" x1="1029.5" x2="2684" y1="1218.1719" y2="1218.1719"/><text fill="#000000" font-family="sans-serif" font-size="13" font-weight="bold" lengthAdjust="spacing" textLength="18" x="1036.5" y="1213.106">32</text><text fill="#000000" font-family="sans-serif" font-size="13" lengthAdjust="spacing" textLength="125" x="1058.5" y="1213.106">validateVaccine(va)</text><polygon fill="#A80036" points="84.5,1243.3047,74.5,1247.3047,84.5,1251.3047,80.5,1247.3047" style="stroke:#A80036;stroke-width:1.0;"/><line style="stroke:#A80036;stroke-width:1.0;stroke-dasharray:2.0,2.0;" x1="78.5" x2="656.5" y1="1247.3047" y2="1247.3047"/><text fill="#000000" font-family="sans-serif" font-size="13" font-weight="bold" lengthAdjust="spacing" textLength="18" x="90.5" y="1242.2388">33</text><text fill="#000000" font-family="sans-serif" font-size="13" lengthAdjust="spacing" textLength="298" x="112.5" y="1242.2388">Shows vaccine data and requests confirmation</text><polygon fill="#A80036" points="645.5,1272.4375,655.5,1276.4375,645.5,1280.4375,649.5,1276.4375" style="stroke:#A80036;stroke-width:1.0;"/><line style="stroke:#A80036;stroke-width:1.0;" x1="73.5" x2="651.5" y1="1276.4375" y2="1276.4375"/><text fill="#000000" font-family="sans-serif" font-size="13" font-weight="bold" lengthAdjust="spacing" textLength="18" x="80.5" y="1271.3716">34</text><text fill="#000000" font-family="sans-serif" font-size="13" lengthAdjust="spacing" textLength="142" x="102.5" y="1271.3716">Confirms vaccine data</text><polygon fill="#A80036" points="1012.5,1301.5703,1022.5,1305.5703,1012.5,1309.5703,1016.5,1305.5703" style="stroke:#A80036;stroke-width:1.0;"/><line style="stroke:#A80036;stroke-width:1.0;" x1="667.5" x2="1018.5" y1="1305.5703" y2="1305.5703"/><text fill="#000000" font-family="sans-serif" font-size="13" font-weight="bold" lengthAdjust="spacing" textLength="18" x="674.5" y="1300.5044">35</text><text fill="#000000" font-family="sans-serif" font-size="13" lengthAdjust="spacing" textLength="90" x="696.5" y="1300.5044">saveVaccine()</text><polygon fill="#A80036" points="2678,1330.7031,2688,1334.7031,2678,1338.7031,2682,1334.7031" style="stroke:#A80036;stroke-width:1.0;"/><line style="stroke:#A80036;stroke-width:1.0;" x1="1034.5" x2="2684" y1="1334.7031" y2="1334.7031"/><text fill="#000000" font-family="sans-serif" font-size="13" font-weight="bold" lengthAdjust="spacing" textLength="18" x="1041.5" y="1329.6372">36</text><text fill="#000000" font-family="sans-serif" font-size="13" lengthAdjust="spacing" textLength="105" x="1063.5" y="1329.6372">saveVaccine(va)</text><line style="stroke:#A80036;stroke-width:1.0;" x1="2705" x2="2747" y1="1363.8359" y2="1363.8359"/><line style="stroke:#A80036;stroke-width:1.0;" x1="2747" x2="2747" y1="1363.8359" y2="1376.8359"/><line style="stroke:#A80036;stroke-width:1.0;" x1="2706" x2="2747" y1="1376.8359" y2="1376.8359"/><polygon fill="#A80036" points="2716,1372.8359,2706,1376.8359,2716,1380.8359,2712,1376.8359" style="stroke:#A80036;stroke-width:1.0;"/><text fill="#000000" font-family="sans-serif" font-size="13" font-weight="bold" lengthAdjust="spacing" textLength="18" x="2712" y="1358.77">37</text><text fill="#000000" font-family="sans-serif" font-size="13" lengthAdjust="spacing" textLength="125" x="2734" y="1358.77">validateVaccine(va)</text><line style="stroke:#A80036;stroke-width:1.0;" x1="2705" x2="2747" y1="1435.9688" y2="1435.9688"/><line style="stroke:#A80036;stroke-width:1.0;" x1="2747" x2="2747" y1="1435.9688" y2="1448.9688"/><line style="stroke:#A80036;stroke-width:1.0;" x1="2706" x2="2747" y1="1448.9688" y2="1448.9688"/><polygon fill="#A80036" points="2716,1444.9688,2706,1448.9688,2716,1452.9688,2712,1448.9688" style="stroke:#A80036;stroke-width:1.0;"/><text fill="#000000" font-family="sans-serif" font-size="13" font-weight="bold" lengthAdjust="spacing" textLength="18" x="2712" y="1430.9028">38</text><text fill="#000000" font-family="sans-serif" font-size="13" lengthAdjust="spacing" textLength="105" x="2734" y="1430.9028">saveVaccine(va)</text><polygon fill="#A80036" points="84.5,1504.1016,74.5,1508.1016,84.5,1512.1016,80.5,1508.1016" style="stroke:#A80036;stroke-width:1.0;"/><line style="stroke:#A80036;stroke-width:1.0;stroke-dasharray:2.0,2.0;" x1="78.5" x2="656.5" y1="1508.1016" y2="1508.1016"/><text fill="#000000" font-family="sans-serif" font-size="13" font-weight="bold" lengthAdjust="spacing" textLength="18" x="90.5" y="1503.0356">39</text><text fill="#000000" font-family="sans-serif" font-size="13" lengthAdjust="spacing" textLength="205" x="112.5" y="1503.0356">Informs (in)success of operation</text><!--MD5=[194f1310186149610a86328a9146f297]
@startuml
hide footbox
autonumber
actor "Administrator" as ADM
participant ":SpecifyVaccineUI" as UI
participant ":SpecifyVaccineController" as CONT
participant ":Company" as COMP
participant "vtstore:VaccineTypeStore" as VTSTO
participant "dstore:DosageStore" as DSTO
participant "dosage:Dosage" as DO
participant "agstore:AgeGroupStore" as AGSTO
participant "agegroup:AgeGroup" as AG
participant "vstore:VaccineStore" as VSTO
participant "va:Vaccine" as VA
activate ADM

    ADM -> UI : Iniciates vaccine specification

 activate UI


     UI - -> ADM : Asks for introduction of vaccine Name, ID and brand;
deactivate UI
     ADM -> UI : Introduces requested data;
activate UI


     UI -> CONT : getVaccineTypeStore()
activate CONT

     CONT -> COMP : vtstore=getVaccineTypeStore()
activate COMP
     CONT -> VTSTO : lVaccineTypes=getVaccineTypes()
deactivate COMP
activate VTSTO


    UI - -> ADM : Shows vaccine type list and asks for selection of one
deactivate VTSTO
deactivate CONT

  ADM -> UI: Selects vaccine type
deactivate UI
loop       (for all the age groups intended)

  UI - -> ADM: Asks for upper age and lower age of the age group
activate UI
  ADM -> UI: Introduces upper age and lower age
  UI - -> ADM: Asks for number of doses, vaccine dosage and time interval between doses
  ADM -> UI : Introduces requested data
  UI -> CONT : createDosage(nrOfDoses, dosageQ, timeInterval)

activate CONT
 CONT -> COMP : dStore = getDosageStore()
activate COMP
deactivate COMP
 CONT -> DSTO : dosage =createDosage(nrOfDoses, dosageQ, timeInterval)
activate DSTO
 DSTO -> DO **: create(nrOfDoses, dosageQ, timeInterval)
deactivate DSTO
 CONT -> DSTO: validateDosage(dosage)
activate DSTO
 DSTO -> DSTO: saveDosage(dosage)
activate DSTO
deactivate DSTO
 CONT -> COMP: agstore=getAgeGroupStore()
deactivate DSTO
activate COMP

 CONT -> AGSTO: ageGroup=createAgeGroup(upperAge, lowerAge, dosage)
deactivate COMP
 activate AGSTO
 AGSTO -> AG **: create(upperAge, lowerAge, dosage)
deactivate AGSTO
 CONT -> AGSTO: validateAgeGroup(ag)
activate AGSTO
 AGSTO-> AGSTO: saveAgeGroup(ag)
activate AGSTO
deactivate AGSTO
deactivate CONT

 UI- -> ADM: Shows introduced information and asks for confirmation
deactivate AGSTO
 ADM -> UI: Confirms information regading age group
deactivate UI
end
 UI - -> ADM: Shows list of age groups introduced with respective dosage and asks for confirmation
activate UI
 ADM -> UI: Confirms age groups

 UI -> CONT: createVaccine(name, id, brand, vt, lAgeGroups)
deactivate UI
activate CONT
 CONT -> COMP: vstore=getVaccineStore()
activate COMP
 CONT -> VSTO: createVaccine(name, id, brand, vt, lAgeGroups)
deactivate COMP
activate VSTO
 VSTO -> VA **: create(name, id, brand, vt, lAgeGroups)
deactivate VSTO
 CONT -> VSTO: validateVaccine(va)
deactivate CONT
activate VSTO
 UI - -> ADM: Shows vaccine data and requests confirmation
deactivate VSTO
activate UI
 ADM -> UI: Confirms vaccine data
 UI -> CONT: saveVaccine()
activate CONT
 CONT -> VSTO: saveVaccine(va)
activate VSTO
 VSTO -> VSTO: validateVaccine(va)
activate VSTO
deactivate VSTO
 VSTO -> VSTO: saveVaccine(va)
activate VSTO 
deactivate VSTO
 UI - -> ADM: Informs (in)success of operation
@enduml

PlantUML version 1.2021.16(Wed Dec 08 17:25:22 UTC 2021)
(GPL source distribution)
Java Runtime: OpenJDK Runtime Environment
JVM: OpenJDK 64-Bit Server VM
Default Encoding: UTF-8
Language: en
Country: US
--></g></svg>