@startuml
'https://plantuml.com/sequence-diagram

autonumber

[o-> ":SnsUserMapper" : toDTO(SnsUsers)
":SnsUserMapper" -> "SnsUserDto \n:List<SnsUserDto>" ** : create()
loop for each object in snsUserList
":SnsUserMapper" -> "store \n:SnsUserStore" : name = getName(i)
":SnsUserMapper" -> "store \n:SnsUserStore" : snsNumber = getName(i)
":SnsUserMapper" -> "dto : SnsUserDto" : create(name, snsNumber)
":SnsUserMapper" -> "SnsUserDto \n:List<SnsUserDto>" : add(dto)
end
[<-- ":SnsUserMapper" : SnsUserDto
@enduml