<?xml version="1.0" encoding="UTF-8"?>
<!DOCTYPE svg PUBLIC '-//W3C//DTD SVG 1.0//EN'
          'http://www.w3.org/TR/2001/REC-SVG-20010904/DTD/svg10.dtd'>
<svg fill-opacity="0" xmlns:xlink="http://www.w3.org/1999/xlink" color-rendering="auto" color-interpolation="auto" text-rendering="auto" stroke="rgb(0,0,0)" stroke-linecap="square" width="548" stroke-miterlimit="10" shape-rendering="auto" stroke-opacity="0" fill="rgb(0,0,0)" stroke-dasharray="none" font-weight="normal" stroke-width="1" height="207" xmlns="http://www.w3.org/2000/svg" font-family="'Dialog'" font-style="normal" stroke-linejoin="miter" font-size="12px" stroke-dashoffset="0" image-rendering="auto"
><!--Generated by the Batik Graphics2D SVG Generator--><defs id="genericDefs"
  /><g
  ><defs id="defs1"
    ><clipPath clipPathUnits="userSpaceOnUse" id="clipPath1"
      ><path d="M-7 -7 L93 -7 L93 94 L-7 94 L-7 -7 Z"
      /></clipPath
      ><clipPath clipPathUnits="userSpaceOnUse" id="clipPath2"
      ><path d="M0 0 L0 69 L82 69 L82 0 Z"
      /></clipPath
      ><clipPath clipPathUnits="userSpaceOnUse" id="clipPath3"
      ><path d="M0 0 L0 14 L83 14 L83 0 Z"
      /></clipPath
      ><clipPath clipPathUnits="userSpaceOnUse" id="clipPath4"
      ><path d="M-7 -7 L91 -7 L91 51 L-7 51 L-7 -7 Z"
      /></clipPath
      ><clipPath clipPathUnits="userSpaceOnUse" id="clipPath5"
      ><path d="M0 0 L0 25 L80 25 L80 0 Z"
      /></clipPath
      ><clipPath clipPathUnits="userSpaceOnUse" id="clipPath6"
      ><path d="M0 0 L0 15 L80 15 L80 0 Z"
      /></clipPath
      ><clipPath clipPathUnits="userSpaceOnUse" id="clipPath7"
      ><path d="M-7 -7 L127 -7 L127 64 L-7 64 L-7 -7 Z"
      /></clipPath
      ><clipPath clipPathUnits="userSpaceOnUse" id="clipPath8"
      ><path d="M0 0 L0 38 L116 38 L116 0 Z"
      /></clipPath
      ><clipPath clipPathUnits="userSpaceOnUse" id="clipPath9"
      ><path d="M0 0 L0 15 L116 15 L116 0 Z"
      /></clipPath
      ><clipPath clipPathUnits="userSpaceOnUse" id="clipPath10"
      ><path d="M-7 -7 L96 -7 L96 51 L-7 51 L-7 -7 Z"
      /></clipPath
      ><clipPath clipPathUnits="userSpaceOnUse" id="clipPath11"
      ><path d="M0 0 L0 26 L85 26 L85 0 Z"
      /></clipPath
      ><clipPath clipPathUnits="userSpaceOnUse" id="clipPath12"
      ><path d="M0 0 L0 14 L84 14 L84 0 Z"
      /></clipPath
      ><clipPath clipPathUnits="userSpaceOnUse" id="clipPath13"
      ><path d="M-7 -7 L122 -7 L122 51 L-7 51 L-7 -7 Z"
      /></clipPath
      ><clipPath clipPathUnits="userSpaceOnUse" id="clipPath14"
      ><path d="M0 0 L0 26 L111 26 L111 0 Z"
      /></clipPath
      ><clipPath clipPathUnits="userSpaceOnUse" id="clipPath15"
      ><path d="M0 0 L0 14 L111 14 L111 0 Z"
      /></clipPath
      ><clipPath clipPathUnits="userSpaceOnUse" id="clipPath16"
      ><path d="M-7 -7 L51 -7 L51 51 L-7 51 L-7 -7 Z"
      /></clipPath
      ><clipPath clipPathUnits="userSpaceOnUse" id="clipPath17"
      ><path d="M0 0 L0 40 L40 40 L40 0 Z"
      /></clipPath
      ><clipPath clipPathUnits="userSpaceOnUse" id="clipPath18"
      ><path d="M0 0 L147 0 L147 207 L0 207 L0 0 Z"
      /></clipPath
      ><clipPath clipPathUnits="userSpaceOnUse" id="clipPath19"
      ><path d="M0 0 L0 207 L147 207 L147 117 L82 117 L82 102 L147 102 L147 78 L132 78 L132 62 L147 62 L147 0 Z"
      /></clipPath
      ><clipPath clipPathUnits="userSpaceOnUse" id="clipPath20"
      ><path d="M0 0 L204 0 L204 104 L0 104 L0 0 Z"
      /></clipPath
      ><clipPath clipPathUnits="userSpaceOnUse" id="clipPath21"
      ><path d="M147 67 L147 83 L52 83 L52 67 ZM0 0 L0 104 L204 104 L204 0 Z"
      /></clipPath
      ><clipPath clipPathUnits="userSpaceOnUse" id="clipPath22"
      ><path d="M0 0 L274 0 L274 275 L0 275 L0 0 Z"
      /></clipPath
      ><clipPath clipPathUnits="userSpaceOnUse" id="clipPath23"
      ><path d="M238 65 L238 82 L120 82 L120 65 ZM150 209 L150 225 L68 225 L68 209 ZM0 0 L0 68 L27 68 L27 84 L0 84 L0 275 L274 275 L274 0 Z"
      /></clipPath
      ><clipPath clipPathUnits="userSpaceOnUse" id="clipPath24"
      ><path d="M0 0 L147 0 L147 257 L0 257 L0 0 Z"
      /></clipPath
      ><clipPath clipPathUnits="userSpaceOnUse" id="clipPath25"
      ><path d="M134 117 L134 133 L76 133 L76 117 ZM0 0 L0 66 L17 66 L17 83 L0 83 L0 257 L147 257 L147 0 Z"
      /></clipPath
      ><clipPath clipPathUnits="userSpaceOnUse" id="clipPath26"
      ><path d="M0 0 L285 0 L285 147 L0 147 L0 0 Z"
      /></clipPath
      ><clipPath clipPathUnits="userSpaceOnUse" id="clipPath27"
      ><path d="M198 85 L198 102 L80 102 L80 85 ZM0 0 L0 147 L257 147 L257 136 L285 136 L285 0 Z"
      /></clipPath
      ><clipPath clipPathUnits="userSpaceOnUse" id="clipPath28"
      ><path d="M-118 -17 L236 -17 L236 34 L-118 34 L-118 -17 Z"
      /></clipPath
      ><clipPath clipPathUnits="userSpaceOnUse" id="clipPath29"
      ><path d="M-128 -17 L226 -17 L226 34 L-128 34 L-128 -17 Z"
      /></clipPath
      ><clipPath clipPathUnits="userSpaceOnUse" id="clipPath30"
      ><path d="M-58 -16 L116 -16 L116 32 L-58 32 L-58 -16 Z"
      /></clipPath
      ><clipPath clipPathUnits="userSpaceOnUse" id="clipPath31"
      ><path d="M-82 -16 L164 -16 L164 32 L-82 32 L-82 -16 Z"
      /></clipPath
      ><clipPath clipPathUnits="userSpaceOnUse" id="clipPath32"
      ><path d="M-93 -16 L153 -16 L153 32 L-93 32 L-93 -16 Z"
      /></clipPath
      ><clipPath clipPathUnits="userSpaceOnUse" id="clipPath33"
      ><path d="M-95 -16 L190 -16 L190 32 L-95 32 L-95 -16 Z"
      /></clipPath
      ><clipPath clipPathUnits="userSpaceOnUse" id="clipPath34"
      ><path d="M-105 -16 L180 -16 L180 32 L-105 32 L-105 -16 Z"
      /></clipPath
      ><clipPath clipPathUnits="userSpaceOnUse" id="clipPath35"
      ><path d="M-118 -15 L236 -15 L236 30 L-118 30 L-118 -15 Z"
      /></clipPath
      ><clipPath clipPathUnits="userSpaceOnUse" id="clipPath36"
      ><path d="M-129 -15 L225 -15 L225 30 L-129 30 L-129 -15 Z"
      /></clipPath
    ></defs
    ><g fill="white" text-rendering="geometricPrecision" fill-opacity="1" stroke-opacity="1" stroke="white"
    ><rect x="0" width="548" height="207" y="0" stroke="none"
    /></g
    ><g font-size="11px" transform="translate(19,117)" fill-opacity="1" fill="rgb(122,207,245)" text-rendering="geometricPrecision" image-rendering="optimizeQuality" font-family="sans-serif" stroke="rgb(122,207,245)" font-weight="bold" stroke-opacity="1"
    ><rect x="0" width="82" height="83" y="0" clip-path="url(#clipPath1)" stroke="none"
    /></g
    ><g fill-opacity="1" text-rendering="geometricPrecision" stroke="black" stroke-linecap="butt" transform="translate(19,117)" stroke-miterlimit="0" stroke-opacity="1" fill="black" font-weight="bold" font-family="sans-serif" stroke-linejoin="round" font-size="11px" image-rendering="optimizeQuality"
    ><rect fill="none" x="0" width="82" height="83" y="0" clip-path="url(#clipPath1)"
      /><line y2="14" fill="none" x1="0" clip-path="url(#clipPath1)" x2="82" y1="14"
    /></g
    ><g font-size="11px" transform="matrix(1,0,0,1,19,131)" fill-opacity="1" fill="black" text-rendering="geometricPrecision" image-rendering="optimizeQuality" font-family="sans-serif" stroke="black" stroke-opacity="1"
    ><text x="2" xml:space="preserve" y="14" clip-path="url(#clipPath2)" stroke="none"
      >-snsNmber</text
    ></g
    ><g font-size="11px" transform="matrix(1,0,0,1,19,131)" fill-opacity="1" fill="black" text-rendering="geometricPrecision" image-rendering="optimizeQuality" font-family="sans-serif" stroke="black" stroke-opacity="1"
    ><text x="2" xml:space="preserve" y="29" clip-path="url(#clipPath2)" stroke="none"
      >-phoneNumber</text
    ></g
    ><g font-size="11px" transform="matrix(1,0,0,1,19,131)" fill-opacity="1" fill="black" text-rendering="geometricPrecision" image-rendering="optimizeQuality" font-family="sans-serif" stroke="black" stroke-opacity="1"
    ><text x="2" xml:space="preserve" y="44" clip-path="url(#clipPath2)" stroke="none"
      >-name</text
    ></g
    ><g font-size="11px" transform="matrix(1,0,0,1,19,131)" fill-opacity="1" fill="black" text-rendering="geometricPrecision" image-rendering="optimizeQuality" font-family="sans-serif" stroke="black" stroke-opacity="1"
    ><text x="2" xml:space="preserve" y="59" clip-path="url(#clipPath2)" stroke="none"
      >-birthDate</text
    ></g
    ><g font-size="11px" transform="translate(19,117)" fill-opacity="1" fill="black" text-rendering="geometricPrecision" image-rendering="optimizeQuality" font-family="sans-serif" stroke="black" font-weight="bold" stroke-opacity="1"
    ><text x="17" xml:space="preserve" y="12" clip-path="url(#clipPath3)" stroke="none"
      >SNSUser</text
    ></g
    ><g font-size="11px" transform="translate(220,10)" fill-opacity="1" fill="rgb(122,207,245)" text-rendering="geometricPrecision" image-rendering="optimizeQuality" font-family="sans-serif" stroke="rgb(122,207,245)" font-weight="bold" stroke-opacity="1"
    ><rect x="0" width="80" height="40" y="0" clip-path="url(#clipPath4)" stroke="none"
    /></g
    ><g fill-opacity="1" text-rendering="geometricPrecision" stroke="black" stroke-linecap="butt" transform="translate(220,10)" stroke-miterlimit="0" stroke-opacity="1" fill="black" font-weight="bold" font-family="sans-serif" stroke-linejoin="round" font-size="11px" image-rendering="optimizeQuality"
    ><rect fill="none" x="0" width="80" height="40" y="0" clip-path="url(#clipPath4)"
      /><line y2="15" fill="none" x1="0" clip-path="url(#clipPath4)" x2="80" y1="15"
    /></g
    ><g font-size="11px" transform="translate(220,10)" fill-opacity="1" fill="black" text-rendering="geometricPrecision" image-rendering="optimizeQuality" font-family="sans-serif" stroke="black" font-weight="bold" stroke-opacity="1"
    ><text x="23" xml:space="preserve" y="12" clip-path="url(#clipPath6)" stroke="none"
      >Nurse</text
    ></g
    ><g font-size="11px" transform="translate(2,3)" fill-opacity="1" fill="rgb(122,207,245)" text-rendering="geometricPrecision" image-rendering="optimizeQuality" font-family="sans-serif" stroke="rgb(122,207,245)" font-weight="bold" stroke-opacity="1"
    ><rect x="0" width="116" height="53" y="0" clip-path="url(#clipPath7)" stroke="none"
    /></g
    ><g fill-opacity="1" text-rendering="geometricPrecision" stroke="black" stroke-linecap="butt" transform="translate(2,3)" stroke-miterlimit="0" stroke-opacity="1" fill="black" font-weight="bold" font-family="sans-serif" stroke-linejoin="round" font-size="11px" image-rendering="optimizeQuality"
    ><rect fill="none" x="0" width="116" height="53" y="0" clip-path="url(#clipPath7)"
      /><line y2="15" fill="none" x1="0" clip-path="url(#clipPath7)" x2="116" y1="15"
    /></g
    ><g font-size="11px" transform="matrix(1,0,0,1,2,18)" fill-opacity="1" fill="black" text-rendering="geometricPrecision" image-rendering="optimizeQuality" font-family="sans-serif" stroke="black" stroke-opacity="1"
    ><text x="2" xml:space="preserve" y="14" clip-path="url(#clipPath8)" stroke="none"
      >-arrivalDate</text
    ></g
    ><g font-size="11px" transform="matrix(1,0,0,1,2,18)" fill-opacity="1" fill="black" text-rendering="geometricPrecision" image-rendering="optimizeQuality" font-family="sans-serif" stroke="black" stroke-opacity="1"
    ><text x="2" xml:space="preserve" y="29" clip-path="url(#clipPath8)" stroke="none"
      >-administrationDate</text
    ></g
    ><g font-size="11px" transform="translate(2,3)" fill-opacity="1" fill="black" text-rendering="geometricPrecision" image-rendering="optimizeQuality" font-family="sans-serif" stroke="black" font-weight="bold" stroke-opacity="1"
    ><text x="12" xml:space="preserve" y="12" clip-path="url(#clipPath9)" stroke="none"
      >VaccinationEvent</text
    ></g
    ><g font-size="11px" transform="translate(439,9)" fill-opacity="1" fill="rgb(122,207,245)" text-rendering="geometricPrecision" image-rendering="optimizeQuality" font-family="sans-serif" stroke="rgb(122,207,245)" font-weight="bold" stroke-opacity="1"
    ><rect x="0" width="85" height="40" y="0" clip-path="url(#clipPath10)" stroke="none"
    /></g
    ><g fill-opacity="1" text-rendering="geometricPrecision" stroke="black" stroke-linecap="butt" transform="translate(439,9)" stroke-miterlimit="0" stroke-opacity="1" fill="black" font-weight="bold" font-family="sans-serif" stroke-linejoin="round" font-size="11px" image-rendering="optimizeQuality"
    ><rect fill="none" x="0" width="85" height="40" y="0" clip-path="url(#clipPath10)"
      /><line y2="14" fill="none" x1="0" clip-path="url(#clipPath10)" x2="85" y1="14"
    /></g
    ><g font-size="11px" transform="translate(439,9)" fill-opacity="1" fill="black" text-rendering="geometricPrecision" image-rendering="optimizeQuality" font-family="sans-serif" stroke="black" font-weight="bold" stroke-opacity="1"
    ><text x="6" xml:space="preserve" y="12" clip-path="url(#clipPath12)" stroke="none"
      >WaitingRoom</text
    ></g
    ><g font-size="11px" transform="translate(387,160)" fill-opacity="1" fill="rgb(122,207,245)" text-rendering="geometricPrecision" image-rendering="optimizeQuality" font-family="sans-serif" stroke="rgb(122,207,245)" font-weight="bold" stroke-opacity="1"
    ><rect x="0" width="111" height="40" y="0" clip-path="url(#clipPath13)" stroke="none"
    /></g
    ><g fill-opacity="1" text-rendering="geometricPrecision" stroke="black" stroke-linecap="butt" transform="translate(387,160)" stroke-miterlimit="0" stroke-opacity="1" fill="black" font-weight="bold" font-family="sans-serif" stroke-linejoin="round" font-size="11px" image-rendering="optimizeQuality"
    ><rect fill="none" x="0" width="111" height="40" y="0" clip-path="url(#clipPath13)"
      /><line y2="14" fill="none" x1="0" clip-path="url(#clipPath13)" x2="111" y1="14"
    /></g
    ><g font-size="11px" transform="matrix(1,0,0,1,387,174)" fill-opacity="1" fill="black" text-rendering="geometricPrecision" image-rendering="optimizeQuality" font-family="sans-serif" stroke="black" stroke-opacity="1"
    ><text x="2" xml:space="preserve" y="14" clip-path="url(#clipPath14)" stroke="none"
      >-description</text
    ></g
    ><g font-size="11px" transform="translate(387,160)" fill-opacity="1" fill="black" text-rendering="geometricPrecision" image-rendering="optimizeQuality" font-family="sans-serif" stroke="black" font-weight="bold" stroke-opacity="1"
    ><text x="7" xml:space="preserve" y="12" clip-path="url(#clipPath15)" stroke="none"
      >AdverseReactions</text
    ></g
    ><g font-size="11px" transform="translate(299,2)" fill-opacity="1" fill="black" text-rendering="geometricPrecision" image-rendering="optimizeQuality" font-family="sans-serif" stroke="black" stroke-opacity="1"
    ><text x="17" xml:space="preserve" y="24" clip-path="url(#clipPath17)" stroke="none"
      >*</text
    ></g
    ><g font-size="11px" transform="translate(186,18)" fill-opacity="1" fill="black" text-rendering="geometricPrecision" image-rendering="optimizeQuality" font-family="sans-serif" stroke="black" stroke-opacity="1"
    ><text x="16" xml:space="preserve" y="24" clip-path="url(#clipPath17)" stroke="none"
      >1</text
    ></g
    ><g font-size="11px" transform="translate(53,49)" fill-opacity="1" fill="black" text-rendering="geometricPrecision" image-rendering="optimizeQuality" font-family="sans-serif" stroke="black" stroke-opacity="1"
    ><text x="17" xml:space="preserve" y="24" clip-path="url(#clipPath17)" stroke="none"
      >*</text
    ></g
    ><g font-size="11px" transform="translate(26,85)" fill-opacity="1" fill="black" text-rendering="geometricPrecision" image-rendering="optimizeQuality" font-family="sans-serif" stroke="black" stroke-opacity="1"
    ><text x="16" xml:space="preserve" y="24" clip-path="url(#clipPath17)" stroke="none"
      >1</text
    ></g
    ><g font-size="11px" transform="translate(399,18)" fill-opacity="1" fill="black" text-rendering="geometricPrecision" image-rendering="optimizeQuality" font-family="sans-serif" stroke="black" stroke-opacity="1"
    ><text x="16" xml:space="preserve" y="24" clip-path="url(#clipPath17)" stroke="none"
      >1</text
    ></g
    ><g font-size="11px" transform="translate(112,2)" fill-opacity="1" fill="black" text-rendering="geometricPrecision" image-rendering="optimizeQuality" font-family="sans-serif" stroke="black" stroke-opacity="1"
    ><text x="17" xml:space="preserve" y="24" clip-path="url(#clipPath17)" stroke="none"
      >*</text
    ></g
    ><g stroke-linecap="butt" font-size="11px" transform="translate(-11,-15)" fill-opacity="1" fill="black" text-rendering="geometricPrecision" image-rendering="optimizeQuality" font-family="sans-serif" stroke-linejoin="round" stroke="black" stroke-opacity="1"
    ><line y2="131" fill="none" x1="71" clip-path="url(#clipPath19)" x2="71" y1="71"
    /></g
    ><g stroke-linecap="butt" font-size="11px" transform="translate(69,-20)" fill-opacity="1" fill="black" text-rendering="geometricPrecision" image-rendering="optimizeQuality" font-family="sans-serif" stroke-linejoin="round" stroke="black" stroke-opacity="1"
    ><line y2="50" fill="none" x1="150" clip-path="url(#clipPath21)" x2="50" y1="50"
    /></g
    ><g stroke-linecap="butt" font-size="11px" transform="translate(189,-21)" fill-opacity="1" fill="black" text-rendering="geometricPrecision" image-rendering="optimizeQuality" font-family="sans-serif" stroke-linejoin="round" stroke="black" stroke-opacity="1"
    ><line y2="200" fill="none" x1="71" clip-path="url(#clipPath23)" x2="71" y1="71"
      /><line y2="200" fill="none" x1="71" clip-path="url(#clipPath23)" x2="199" y1="200"
    /></g
    ><g stroke-linecap="butt" font-size="11px" transform="translate(410,-22)" fill-opacity="1" fill="black" text-rendering="geometricPrecision" image-rendering="optimizeQuality" font-family="sans-serif" stroke-linejoin="round" stroke="black" stroke-opacity="1"
    ><line y2="71" fill="none" x1="71" clip-path="url(#clipPath25)" x2="71" y1="181"
    /></g
    ><g stroke-linecap="butt" font-size="11px" transform="translate(229,-41)" fill-opacity="1" fill="black" text-rendering="geometricPrecision" image-rendering="optimizeQuality" font-family="sans-serif" stroke-linejoin="round" stroke="black" stroke-opacity="1"
    ><line y2="71" fill="none" x1="71" clip-path="url(#clipPath27)" x2="210" y1="71"
    /></g
    ><g font-size="11px" transform="translate(319,44)" fill-opacity="1" fill="black" text-rendering="geometricPrecision" image-rendering="optimizeQuality" font-family="sans-serif" stroke="black" stroke-opacity="1"
    ><path d="M14.5 6.5 L1.5 11.5 L1.5 1.5 Z" stroke="none" clip-path="url(#clipPath29)"
      /><text x="27" xml:space="preserve" y="12" clip-path="url(#clipPath28)" transform="translate(-10,0)" stroke="none"
      >checks who is in</text
    ></g
    ><g font-size="11px" transform="translate(486,95)" fill-opacity="1" fill="black" text-rendering="geometricPrecision" image-rendering="optimizeQuality" font-family="sans-serif" stroke="black" stroke-opacity="1"
    ><text x="9" xml:space="preserve" y="12" clip-path="url(#clipPath30)" stroke="none"
      >whos in</text
    ></g
    ><g font-size="11px" transform="translate(268,188)" fill-opacity="1" fill="black" text-rendering="geometricPrecision" image-rendering="optimizeQuality" font-family="sans-serif" stroke="black" stroke-opacity="1"
    ><path d="M14.5 6.5 L1.5 11.5 L1.5 1.5 Z" stroke="none" clip-path="url(#clipPath32)"
      /><text x="28" xml:space="preserve" y="12" clip-path="url(#clipPath31)" transform="translate(-11,0)" stroke="none"
      >registers</text
    ></g
    ><g font-size="11px" transform="translate(131,47)" fill-opacity="1" fill="black" text-rendering="geometricPrecision" image-rendering="optimizeQuality" font-family="sans-serif" stroke="black" stroke-opacity="1"
    ><path d="M1.5 6.5 L14.5 1.5 L14.5 11.5 Z" stroke="none" clip-path="url(#clipPath34)"
      /><text x="27" xml:space="preserve" y="12" clip-path="url(#clipPath33)" transform="translate(-10,0)" stroke="none"
      >administers</text
    ></g
    ><g font-size="11px" transform="translate(82,87)" fill-opacity="1" fill="black" text-rendering="geometricPrecision" image-rendering="optimizeQuality" font-family="sans-serif" stroke="black" stroke-opacity="1"
    ><path d="M8 13 L3 0 L13 0 Z" stroke="none" clip-path="url(#clipPath36)"
      /><text x="28" xml:space="preserve" y="12" clip-path="url(#clipPath35)" transform="translate(-11,0)" stroke="none"
      >administered on</text
    ></g
    ><g font-size="8px" fill-opacity="1" fill="rgb(120,120,120)" text-rendering="geometricPrecision" image-rendering="optimizeQuality" stroke="rgb(120,120,120)" stroke-opacity="1"
    ><text x="0" xml:space="preserve" y="10" stroke="none"
      >Visual Paradigm Standard(tiago(Instituto Superior de Engenharia do Porto))</text
    ></g
  ></g
></svg
>
