@startuml

autonumber

actor Nurse

Nurse -> ":AdverseReactionGUI" : starts recording adverse reactions
activate ":AdverseReactionGUI"
Nurse <-- ":AdverseReactionGUI" : shows SNS users name and SNS number and asks to choose an SNS number
deactivate ":AdverseReactionGUI"

Nurse -> ":AdverseReactionGUI" : selects an SNS number and writes adverse reaction
activate ":AdverseReactionGUI"
Nurse <-- ":AdverseReactionGUI" : informs operation (in)success
deactivate ":AdverseReactionGUI"

@enduml