@startuml
'https://plantuml.com/use-case-diagram

skinparam classAttributeIconSize 0

class ListSNSUsersWaitingRoomUI{
}

class ListSNSUsersWaitingRoomController{
    +getListSNSUsersWaitingRoom(selectedVC)
}

class RegisterVaccinationCenterController{
    +getVaccinationcenterList()
}

class Company {
    -designation
    +getVaccinationCenterStore()
    +getWaitingRoomStore()
}

class VaccinationCenterStore {
    +getVaccinationCenterList()
}

class WaitingRoomStore{
    +getListSNSUsersWaitingRoom(selectedVC)
}


ListSNSUsersWaitingRoomUI ..> ListSNSUsersWaitingRoomController
ListSNSUsersWaitingRoomUI ..> RegisterVaccinationCenterController
ListSNSUsersWaitingRoomController ...> Company
RegisterVaccinationCenterController ..> Company
ListSNSUsersWaitingRoomController ..-> VaccinationCenterStore
RegisterVaccinationCenterController ...> WaitingRoomStore
Company "1" ---> "*" VaccinationCenterStore  : adopts
Company "1" ---> "*" WaitingRoomStore : adopts

@enduml