<?xml version="1.0" encoding="UTF-8" standalone="no"?><svg xmlns="http://www.w3.org/2000/svg" xmlns:xlink="http://www.w3.org/1999/xlink" contentScriptType="application/ecmascript" contentStyleType="text/css" height="570px" preserveAspectRatio="none" style="width:622px;height:570px;" version="1.1" viewBox="0 0 622 570" width="622px" zoomAndPan="magnify">
    <defs>
        <filter height="300%" id="f11f55cfkk59zn" width="300%" x="-1" y="-1">
            <feGaussianBlur result="blurOut" stdDeviation="2.0" />
            <feColorMatrix in="blurOut" result="blurOut2" type="matrix" values="0 0 0 0 0 0 0 0 0 0 0 0 0 0 0 0 0 0 .4 0" />
            <feOffset dx="4.0" dy="4.0" in="blurOut2" result="blurOut3" />
            <feBlend in="SourceGraphic" in2="blurOut3" mode="normal" />
        </filter>
    </defs>
    <g>
        <rect fill="#FFFFFF" filter="url(#f11f55cfkk59zn)" height="451.9219" style="stroke: #A80036; stroke-width: 1.0;" width="10" x="45" y="97.6094" />
        <rect fill="#FFFFFF" filter="url(#f11f55cfkk59zn)" height="30.3516" style="stroke: #A80036; stroke-width: 1.0;" width="10" x="369" y="119.9609" />
        <rect fill="#FFFFFF" filter="url(#f11f55cfkk59zn)" height="73.7031" style="stroke: #A80036; stroke-width: 1.0;" width="10" x="369" y="180.6641" />
        <rect fill="#FFFFFF" filter="url(#f11f55cfkk59zn)" height="30.3516" style="stroke: #A80036; stroke-width: 1.0;" width="10" x="369" y="284.7188" />
        <rect fill="#FFFFFF" filter="url(#f11f55cfkk59zn)" height="30.3516" style="stroke: #A80036; stroke-width: 1.0;" width="10" x="369" y="345.4219" />
        <rect fill="#FFFFFF" filter="url(#f11f55cfkk59zn)" height="73.7031" style="stroke: #A80036; stroke-width: 1.0;" width="10" x="369" y="406.125" />
        <rect fill="#FFFFFF" filter="url(#f11f55cfkk59zn)" height="39.3516" style="stroke: #A80036; stroke-width: 1.0;" width="10" x="369" y="510.1797" />
        <line style="stroke: #A80036; stroke-width: 1.0; stroke-dasharray: 5.0,5.0;" x1="50" x2="50" y1="87.6094" y2="558.5313" />
        <line style="stroke: #A80036; stroke-width: 1.0; stroke-dasharray: 5.0,5.0;" x1="374" x2="374" y1="87.6094" y2="558.5313" /><text fill="#000000" font-family="sans-serif" font-size="14" lengthAdjust="spacingAndGlyphs" textLength="78" x="8" y="84.5332">Receptionist</text>
        <ellipse cx="50" cy="13" fill="#FEFECE" filter="url(#f11f55cfkk59zn)" rx="8" ry="8" style="stroke: #A80036; stroke-width: 2.0;" />
        <path d="M50,21 L50,48 M37,29 L63,29 M50,48 L37,63 M50,48 L63,63 " fill="none" filter="url(#f11f55cfkk59zn)" style="stroke: #A80036; stroke-width: 2.0;" />
        <rect fill="#FEFECE" filter="url(#f11f55cfkk59zn)" height="31.6094" style="stroke: #A80036; stroke-width: 1.5;" width="64" x="340" y="51" /><text fill="#000000" font-family="sans-serif" font-size="14" lengthAdjust="spacingAndGlyphs" textLength="50" x="347" y="72.5332">:System</text>
        <rect fill="#FFFFFF" filter="url(#f11f55cfkk59zn)" height="451.9219" style="stroke: #A80036; stroke-width: 1.0;" width="10" x="45" y="97.6094" />
        <rect fill="#FFFFFF" filter="url(#f11f55cfkk59zn)" height="30.3516" style="stroke: #A80036; stroke-width: 1.0;" width="10" x="369" y="119.9609" />
        <rect fill="#FFFFFF" filter="url(#f11f55cfkk59zn)" height="73.7031" style="stroke: #A80036; stroke-width: 1.0;" width="10" x="369" y="180.6641" />
        <rect fill="#FFFFFF" filter="url(#f11f55cfkk59zn)" height="30.3516" style="stroke: #A80036; stroke-width: 1.0;" width="10" x="369" y="284.7188" />
        <rect fill="#FFFFFF" filter="url(#f11f55cfkk59zn)" height="30.3516" style="stroke: #A80036; stroke-width: 1.0;" width="10" x="369" y="345.4219" />
        <rect fill="#FFFFFF" filter="url(#f11f55cfkk59zn)" height="73.7031" style="stroke: #A80036; stroke-width: 1.0;" width="10" x="369" y="406.125" />
        <rect fill="#FFFFFF" filter="url(#f11f55cfkk59zn)" height="39.3516" style="stroke: #A80036; stroke-width: 1.0;" width="10" x="369" y="510.1797" />
        <polygon fill="#A80036" points="357,115.9609,367,119.9609,357,123.9609,361,119.9609" style="stroke: #A80036; stroke-width: 1.0;" />
        <line style="stroke: #A80036; stroke-width: 1.0;" x1="55" x2="363" y1="119.9609" y2="119.9609" /><text fill="#000000" font-family="sans-serif" font-size="13" font-weight="bold" lengthAdjust="spacingAndGlyphs" textLength="7" x="62" y="115.1045">1</text><text fill="#000000" font-family="sans-serif" font-size="13" lengthAdjust="spacingAndGlyphs" textLength="90" x="73" y="115.1045">starts operation</text>
        <polygon fill="#A80036" points="66,146.3125,56,150.3125,66,154.3125,62,150.3125" style="stroke: #A80036; stroke-width: 1.0;" />
        <line style="stroke: #A80036; stroke-width: 1.0; stroke-dasharray: 2.0,2.0;" x1="60" x2="373" y1="150.3125" y2="150.3125" /><text fill="#000000" font-family="sans-serif" font-size="13" font-weight="bold" lengthAdjust="spacingAndGlyphs" textLength="7" x="72" y="145.4561">2</text><text fill="#000000" font-family="sans-serif" font-size="13" lengthAdjust="spacingAndGlyphs" textLength="155" x="83" y="145.4561">requests SNSUser number</text>
        <polygon fill="#A80036" points="357,176.6641,367,180.6641,357,184.6641,361,180.6641" style="stroke: #A80036; stroke-width: 1.0;" />
        <line style="stroke: #A80036; stroke-width: 1.0;" x1="55" x2="363" y1="180.6641" y2="180.6641" /><text fill="#000000" font-family="sans-serif" font-size="13" font-weight="bold" lengthAdjust="spacingAndGlyphs" textLength="7" x="62" y="175.8076">3</text><text fill="#000000" font-family="sans-serif" font-size="13" lengthAdjust="spacingAndGlyphs" textLength="151" x="73" y="175.8076">submits SNSUser number</text>
        <line style="stroke: #A80036; stroke-width: 1.0;" x1="379" x2="421" y1="211.0156" y2="211.0156" />
        <line style="stroke: #A80036; stroke-width: 1.0;" x1="421" x2="421" y1="211.0156" y2="224.0156" />
        <line style="stroke: #A80036; stroke-width: 1.0;" x1="380" x2="421" y1="224.0156" y2="224.0156" />
        <polygon fill="#A80036" points="390,220.0156,380,224.0156,390,228.0156,386,224.0156" style="stroke: #A80036; stroke-width: 1.0;" /><text fill="#000000" font-family="sans-serif" font-size="13" font-weight="bold" lengthAdjust="spacingAndGlyphs" textLength="7" x="386" y="206.1592">4</text><text fill="#000000" font-family="sans-serif" font-size="13" lengthAdjust="spacingAndGlyphs" textLength="79" x="397" y="206.1592">validates user</text>
        <polygon fill="#A80036" points="66,250.3672,56,254.3672,66,258.3672,62,254.3672" style="stroke: #A80036; stroke-width: 1.0;" />
        <line style="stroke: #A80036; stroke-width: 1.0; stroke-dasharray: 2.0,2.0;" x1="60" x2="373" y1="254.3672" y2="254.3672" /><text fill="#000000" font-family="sans-serif" font-size="13" font-weight="bold" lengthAdjust="spacingAndGlyphs" textLength="7" x="72" y="249.5107">5</text><text fill="#000000" font-family="sans-serif" font-size="13" lengthAdjust="spacingAndGlyphs" textLength="134" x="83" y="249.5107">shows vaccine type list</text>
        <polygon fill="#A80036" points="357,280.7188,367,284.7188,357,288.7188,361,284.7188" style="stroke: #A80036; stroke-width: 1.0;" />
        <line style="stroke: #A80036; stroke-width: 1.0;" x1="55" x2="363" y1="284.7188" y2="284.7188" /><text fill="#000000" font-family="sans-serif" font-size="13" font-weight="bold" lengthAdjust="spacingAndGlyphs" textLength="7" x="62" y="279.8623">6</text><text fill="#000000" font-family="sans-serif" font-size="13" lengthAdjust="spacingAndGlyphs" textLength="118" x="73" y="279.8623">selects vaccine type</text>
        <polygon fill="#A80036" points="66,311.0703,56,315.0703,66,319.0703,62,315.0703" style="stroke: #A80036; stroke-width: 1.0;" />
        <line style="stroke: #A80036; stroke-width: 1.0; stroke-dasharray: 2.0,2.0;" x1="60" x2="373" y1="315.0703" y2="315.0703" /><text fill="#000000" font-family="sans-serif" font-size="13" font-weight="bold" lengthAdjust="spacingAndGlyphs" textLength="7" x="72" y="310.2139">7</text><text fill="#000000" font-family="sans-serif" font-size="13" lengthAdjust="spacingAndGlyphs" textLength="166" x="83" y="310.2139">shows vaccination center list</text>
        <polygon fill="#A80036" points="357,341.4219,367,345.4219,357,349.4219,361,345.4219" style="stroke: #A80036; stroke-width: 1.0;" />
        <line style="stroke: #A80036; stroke-width: 1.0;" x1="55" x2="363" y1="345.4219" y2="345.4219" /><text fill="#000000" font-family="sans-serif" font-size="13" font-weight="bold" lengthAdjust="spacingAndGlyphs" textLength="7" x="62" y="340.5654">8</text><text fill="#000000" font-family="sans-serif" font-size="13" lengthAdjust="spacingAndGlyphs" textLength="150" x="73" y="340.5654">selects vaccination center</text>
        <polygon fill="#A80036" points="66,371.7734,56,375.7734,66,379.7734,62,375.7734" style="stroke: #A80036; stroke-width: 1.0;" />
        <line style="stroke: #A80036; stroke-width: 1.0; stroke-dasharray: 2.0,2.0;" x1="60" x2="373" y1="375.7734" y2="375.7734" /><text fill="#000000" font-family="sans-serif" font-size="13" font-weight="bold" lengthAdjust="spacingAndGlyphs" textLength="7" x="72" y="370.917">9</text><text fill="#000000" font-family="sans-serif" font-size="13" lengthAdjust="spacingAndGlyphs" textLength="200" x="83" y="370.917">shows available dates for schedule</text>
        <polygon fill="#A80036" points="357,402.125,367,406.125,357,410.125,361,406.125" style="stroke: #A80036; stroke-width: 1.0;" />
        <line style="stroke: #A80036; stroke-width: 1.0;" x1="55" x2="363" y1="406.125" y2="406.125" /><text fill="#000000" font-family="sans-serif" font-size="13" font-weight="bold" lengthAdjust="spacingAndGlyphs" textLength="14" x="62" y="401.2686">10</text><text fill="#000000" font-family="sans-serif" font-size="13" lengthAdjust="spacingAndGlyphs" textLength="71" x="80" y="401.2686">selects date</text>
        <line style="stroke: #A80036; stroke-width: 1.0;" x1="379" x2="421" y1="436.4766" y2="436.4766" />
        <line style="stroke: #A80036; stroke-width: 1.0;" x1="421" x2="421" y1="436.4766" y2="449.4766" />
        <line style="stroke: #A80036; stroke-width: 1.0;" x1="380" x2="421" y1="449.4766" y2="449.4766" />
        <polygon fill="#A80036" points="390,445.4766,380,449.4766,390,453.4766,386,449.4766" style="stroke: #A80036; stroke-width: 1.0;" /><text fill="#000000" font-family="sans-serif" font-size="13" font-weight="bold" lengthAdjust="spacingAndGlyphs" textLength="14" x="386" y="431.6201">11</text><text fill="#000000" font-family="sans-serif" font-size="13" lengthAdjust="spacingAndGlyphs" textLength="206" x="404" y="431.6201">validates resulting vaccine schedule</text>
        <polygon fill="#A80036" points="66,475.8281,56,479.8281,66,483.8281,62,479.8281" style="stroke: #A80036; stroke-width: 1.0;" />
        <line style="stroke: #A80036; stroke-width: 1.0; stroke-dasharray: 2.0,2.0;" x1="60" x2="373" y1="479.8281" y2="479.8281" /><text fill="#000000" font-family="sans-serif" font-size="13" font-weight="bold" lengthAdjust="spacingAndGlyphs" textLength="14" x="72" y="474.9717">12</text><text fill="#000000" font-family="sans-serif" font-size="13" lengthAdjust="spacingAndGlyphs" textLength="272" x="90" y="474.9717">asks confirmation of resulting vaccine schedule</text>
        <polygon fill="#A80036" points="357,506.1797,367,510.1797,357,514.1797,361,510.1797" style="stroke: #A80036; stroke-width: 1.0;" />
        <line style="stroke: #A80036; stroke-width: 1.0;" x1="55" x2="363" y1="510.1797" y2="510.1797" /><text fill="#000000" font-family="sans-serif" font-size="13" font-weight="bold" lengthAdjust="spacingAndGlyphs" textLength="14" x="62" y="505.3232">13</text><text fill="#000000" font-family="sans-serif" font-size="13" lengthAdjust="spacingAndGlyphs" textLength="81" x="80" y="505.3232">confirms input</text>
        <polygon fill="#A80036" points="66,536.5313,56,540.5313,66,544.5313,62,540.5313" style="stroke: #A80036; stroke-width: 1.0;" />
        <line style="stroke: #A80036; stroke-width: 1.0; stroke-dasharray: 2.0,2.0;" x1="60" x2="368" y1="540.5313" y2="540.5313" /><text fill="#000000" font-family="sans-serif" font-size="13" font-weight="bold" lengthAdjust="spacingAndGlyphs" textLength="14" x="72" y="535.6748">14</text><text fill="#000000" font-family="sans-serif" font-size="13" lengthAdjust="spacingAndGlyphs" textLength="175" x="90" y="535.6748">informs of operation's success</text>
        <!--
@startuml
hide footbox
autonumber
actor "Receptionist" as   ACT
participant ":System" as SYS
activate ACT
ACT -> SYS : starts operation
activate SYS
SYS - -> ACT : requests SNSUser number
deactivate SYS
ACT -> SYS : submits SNSUser number
activate SYS
SYS -> SYS : validates user
SYS - -> ACT : shows vaccine type list
deactivate SYS
ACT -> SYS : selects vaccine type

activate SYS
SYS - -> ACT : shows vaccination center list
deactivate SYS
ACT -> SYS : selects vaccination center
 activate SYS
 SYS - -> ACT : shows available dates for schedule
 deactivate SYS

 ACT -> SYS : selects date
 activate SYS
 SYS -> SYS : validates resulting vaccine schedule
 SYS - -> ACT : asks confirmation of resulting vaccine schedule
 deactivate SYS
 ACT -> SYS : confirms input
 activate SYS
 SYS - -> ACT : informs of operation's success
@enduml

PlantUML version 1.2018.14(Fri Dec 21 16:33:16 GMT 2018)
(GPL source distribution)
Java Runtime: Java(TM) SE Runtime Environment
JVM: Java HotSpot(TM) 64-Bit Server VM
Java Version: 1.8.0_221-b11
Operating System: Windows 10
OS Version: 10.0
Default Encoding: Cp1252
Language: pt
Country: PT
-->
    </g>
</svg>