@startuml
skinparam classAtributionIconSize 0

class SpecifyVaccineUI{

}

class SpecifyVaccineController {
  -va
  -name
  -id
  -brand
  -vt
  -lAgeGroups
  -ag
  -nrOfDoses
  -dosageQ
  -timeInterval
  -upperAGe
  -lowerAge
  -dosage
  +getVaccineTypeStore()
  +createDosage(nrOfDoses, dosage, timeInterval)
  +createVaccine(name, id, brand, vt, lAgeGroups)
  +saveVaccine()
  }
class VaccineStore{
+createVaccine(name, id, brand, vt, lAgeGroups)
+validateVaccine(va)
+saveVaccine(va)
 }
class VaccineTypeStore{
-lVaccineTypes
+lVaccineTypes=getVaccineTypes()
  }
class Company{
-vtstore
-dstore
-agstore
-vstore
+vtstore=getVaccineTypeStore()
+dStore = getDosageStore()
+agstore=getAgeGroupStore()
+vstore=getVaccineStore()
  }
class DosageStore{

+dosage =createDosage(nrOfDoses, dosage, timeInterval
+validateDosage(dosage)
+saveDosage(dosage)
  }
class AgeGroupStore{
+ageGroup=createAgeGroup(upperAge, lowerAge, dosage
+validateAgeGroup(ag)
+saveAgeGroup(ag)
  }
class AgeGroup{
+create(upperAge, lowerAge, dosage)
  }
class Dosage{
+create(nrOfDoses, dosage, timeInterval)
  }
class Vaccine{
+create(name, id, brand, vt, lAgeGroups)
  }


SpecifyVaccineUI "1" ..> "1" SpecifyVaccineController
SpecifyVaccineController "1" ..> "1" Company
Company "1" -> "1" VaccineTypeStore : has
Company "1" -> "1" VaccineStore : has
Company "1" -> "1" DosageStore : has
Company "1" -> "1" AgeGroupStore : has
DosageStore "1" -> "*" Dosage
AgeGroupStore "1" -> "*" AgeGroup
VaccineStore "1" -> "*" Vaccine
Dosage "1" --* "1" AgeGroup :   for
AgeGroup "*" --* "1" Vaccine: gets
SpecifyVaccineController "1" ..> "1" VaccineTypeStore
SpecifyVaccineController "1" ..> "1" DosageStore
SpecifyVaccineController "1" ..> "1" AgeGroupStore
SpecifyVaccineController "1" ..> "1" VaccineStore
@enduml
