<?xml version="1.0" encoding="UTF-8" standalone="no"?><svg xmlns="http://www.w3.org/2000/svg" xmlns:xlink="http://www.w3.org/1999/xlink" contentScriptType="application/ecmascript" contentStyleType="text/css" height="239px" preserveAspectRatio="none" style="width:1155px;height:239px;background:#FFFFFF;" version="1.1" viewBox="0 0 1155 239" width="1155px" zoomAndPan="magnify"><defs><filter height="300%" id="f6ir9tg26e8lx" width="300%" x="-1" y="-1"><feGaussianBlur result="blurOut" stdDeviation="2.0"/><feColorMatrix in="blurOut" result="blurOut2" type="matrix" values="0 0 0 0 0 0 0 0 0 0 0 0 0 0 0 0 0 0 .4 0"/><feOffset dx="4.0" dy="4.0" in="blurOut2" result="blurOut3"/><feBlend in="SourceGraphic" in2="blurOut3" mode="normal"/></filter></defs><g><!--MD5=[02e4b9b7573f1156f41e60aa5b4e25a4]
class Company--><rect codeLine="5" fill="#FEFECE" filter="url(#f6ir9tg26e8lx)" height="52.8047" id="Company" style="stroke:#A80036;stroke-width:1.5;" width="92" x="7" y="72.5"/><ellipse cx="23.35" cy="88.5" fill="#ADD1B2" rx="11" ry="11" style="stroke:#A80036;stroke-width:1.0;"/><path d="M26.3188,94.1406 Q25.7406,94.4375 25.1,94.5781 Q24.4594,94.7344 23.7563,94.7344 Q21.2563,94.7344 19.9281,93.0938 Q18.6156,91.4375 18.6156,88.3125 Q18.6156,85.1875 19.9281,83.5313 Q21.2563,81.875 23.7563,81.875 Q24.4594,81.875 25.1,82.0313 Q25.7563,82.1875 26.3188,82.4844 L26.3188,85.2031 Q25.6938,84.625 25.1,84.3594 Q24.5063,84.0781 23.8813,84.0781 Q22.5375,84.0781 21.85,85.1563 Q21.1625,86.2188 21.1625,88.3125 Q21.1625,90.4063 21.85,91.4844 Q22.5375,92.5469 23.8813,92.5469 Q24.5063,92.5469 25.1,92.2813 Q25.6938,92 26.3188,91.4219 L26.3188,94.1406 Z " fill="#000000"/><text fill="#000000" font-family="sans-serif" font-size="12" lengthAdjust="spacing" textLength="57" x="37.65" y="92.6543">Company</text><line style="stroke:#A80036;stroke-width:1.5;" x1="8" x2="98" y1="104.5" y2="104.5"/><rect fill="none" height="6" style="stroke:#C82930;stroke-width:1.0;" width="6" x="15" y="112.5"/><text fill="#000000" font-family="sans-serif" font-size="11" lengthAdjust="spacing" textLength="66" x="27" y="118.7104">designation</text><!--MD5=[19e445fc4d3b48519cbe33da05496394]
class Vaccine--><rect codeLine="9" fill="#FEFECE" filter="url(#f6ir9tg26e8lx)" height="104.0234" id="Vaccine" style="stroke:#A80036;stroke-width:1.5;" width="95" x="607" y="25"/><ellipse cx="628.3" cy="41" fill="#ADD1B2" rx="11" ry="11" style="stroke:#A80036;stroke-width:1.0;"/><path d="M631.2688,46.6406 Q630.6906,46.9375 630.05,47.0781 Q629.4094,47.2344 628.7063,47.2344 Q626.2063,47.2344 624.8781,45.5938 Q623.5656,43.9375 623.5656,40.8125 Q623.5656,37.6875 624.8781,36.0313 Q626.2063,34.375 628.7063,34.375 Q629.4094,34.375 630.05,34.5313 Q630.7063,34.6875 631.2688,34.9844 L631.2688,37.7031 Q630.6438,37.125 630.05,36.8594 Q629.4563,36.5781 628.8313,36.5781 Q627.4875,36.5781 626.8,37.6563 Q626.1125,38.7188 626.1125,40.8125 Q626.1125,42.9063 626.8,43.9844 Q627.4875,45.0469 628.8313,45.0469 Q629.4563,45.0469 630.05,44.7813 Q630.6438,44.5 631.2688,43.9219 L631.2688,46.6406 Z " fill="#000000"/><text fill="#000000" font-family="sans-serif" font-size="12" lengthAdjust="spacing" textLength="49" x="643.7" y="45.1543">Vaccine</text><line style="stroke:#A80036;stroke-width:1.5;" x1="608" x2="701" y1="57" y2="57"/><rect fill="none" height="6" style="stroke:#C82930;stroke-width:1.0;" width="6" x="615" y="65"/><text fill="#000000" font-family="sans-serif" font-size="11" lengthAdjust="spacing" textLength="32" x="627" y="71.2104">name</text><rect fill="none" height="6" style="stroke:#C82930;stroke-width:1.0;" width="6" x="615" y="77.8047"/><text fill="#000000" font-family="sans-serif" font-size="11" lengthAdjust="spacing" textLength="33" x="627" y="84.0151">brand</text><rect fill="none" height="6" style="stroke:#C82930;stroke-width:1.0;" width="6" x="615" y="90.6094"/><text fill="#000000" font-family="sans-serif" font-size="11" lengthAdjust="spacing" textLength="11" x="627" y="96.8198">ID</text><rect fill="none" height="6" style="stroke:#C82930;stroke-width:1.0;" width="6" x="615" y="103.4141"/><text fill="#000000" font-family="sans-serif" font-size="11" lengthAdjust="spacing" textLength="69" x="627" y="109.6245">vaccineType</text><rect fill="none" height="6" style="stroke:#C82930;stroke-width:1.0;" width="6" x="615" y="116.2188"/><text fill="#000000" font-family="sans-serif" font-size="11" lengthAdjust="spacing" textLength="66" x="627" y="122.4292">lAgeGroups</text><!--MD5=[0e501da62322464167c8ec4d233a6b7e]
class VaccineType--><rect codeLine="17" fill="#FEFECE" filter="url(#f6ir9tg26e8lx)" height="78.4141" id="VaccineType" style="stroke:#A80036;stroke-width:1.5;" width="110" x="840" y="147"/><ellipse cx="855" cy="163" fill="#ADD1B2" rx="11" ry="11" style="stroke:#A80036;stroke-width:1.0;"/><path d="M857.9688,168.6406 Q857.3906,168.9375 856.75,169.0781 Q856.1094,169.2344 855.4063,169.2344 Q852.9063,169.2344 851.5781,167.5938 Q850.2656,165.9375 850.2656,162.8125 Q850.2656,159.6875 851.5781,158.0313 Q852.9063,156.375 855.4063,156.375 Q856.1094,156.375 856.75,156.5313 Q857.4063,156.6875 857.9688,156.9844 L857.9688,159.7031 Q857.3438,159.125 856.75,158.8594 Q856.1563,158.5781 855.5313,158.5781 Q854.1875,158.5781 853.5,159.6563 Q852.8125,160.7188 852.8125,162.8125 Q852.8125,164.9063 853.5,165.9844 Q854.1875,167.0469 855.5313,167.0469 Q856.1563,167.0469 856.75,166.7813 Q857.3438,166.5 857.9688,165.9219 L857.9688,168.6406 Z " fill="#000000"/><text fill="#000000" font-family="sans-serif" font-size="12" lengthAdjust="spacing" textLength="78" x="869" y="167.1543">VaccineType</text><line style="stroke:#A80036;stroke-width:1.5;" x1="841" x2="949" y1="179" y2="179"/><rect fill="none" height="6" style="stroke:#C82930;stroke-width:1.0;" width="6" x="848" y="187"/><text fill="#000000" font-family="sans-serif" font-size="11" lengthAdjust="spacing" textLength="27" x="860" y="193.2104">code</text><rect fill="none" height="6" style="stroke:#C82930;stroke-width:1.0;" width="6" x="848" y="199.8047"/><text fill="#000000" font-family="sans-serif" font-size="11" lengthAdjust="spacing" textLength="66" x="860" y="206.0151">designation</text><rect fill="none" height="6" style="stroke:#C82930;stroke-width:1.0;" width="6" x="848" y="212.6094"/><text fill="#000000" font-family="sans-serif" font-size="11" lengthAdjust="spacing" textLength="33" x="860" y="218.8198">whold</text><!--MD5=[9e0344aee5137892075360975b58a39b]
class SystemAdministrator--><rect codeLine="22" fill="#FEFECE" filter="url(#f6ir9tg26e8lx)" height="40" id="SystemAdministrator" style="stroke:#A80036;stroke-width:1.5;" width="161" x="213" y="7"/><ellipse cx="228" cy="23" fill="#ADD1B2" rx="11" ry="11" style="stroke:#A80036;stroke-width:1.0;"/><path d="M230.9688,28.6406 Q230.3906,28.9375 229.75,29.0781 Q229.1094,29.2344 228.4063,29.2344 Q225.9063,29.2344 224.5781,27.5938 Q223.2656,25.9375 223.2656,22.8125 Q223.2656,19.6875 224.5781,18.0313 Q225.9063,16.375 228.4063,16.375 Q229.1094,16.375 229.75,16.5313 Q230.4063,16.6875 230.9688,16.9844 L230.9688,19.7031 Q230.3438,19.125 229.75,18.8594 Q229.1563,18.5781 228.5313,18.5781 Q227.1875,18.5781 226.5,19.6563 Q225.8125,20.7188 225.8125,22.8125 Q225.8125,24.9063 226.5,25.9844 Q227.1875,27.0469 228.5313,27.0469 Q229.1563,27.0469 229.75,26.7813 Q230.3438,26.5 230.9688,25.9219 L230.9688,28.6406 Z " fill="#000000"/><text fill="#000000" font-family="sans-serif" font-size="12" lengthAdjust="spacing" textLength="129" x="242" y="27.1543">SystemAdministrator</text><line style="stroke:#A80036;stroke-width:1.5;" x1="214" x2="373" y1="39" y2="39"/><!--MD5=[c59c99efa75f30327e326596f335a568]
class AgeGroup--><rect codeLine="24" fill="#FEFECE" filter="url(#f6ir9tg26e8lx)" height="78.4141" id="AgeGroup" style="stroke:#A80036;stroke-width:1.5;" width="94" x="848" y="33"/><ellipse cx="863" cy="49" fill="#ADD1B2" rx="11" ry="11" style="stroke:#A80036;stroke-width:1.0;"/><path d="M865.9688,54.6406 Q865.3906,54.9375 864.75,55.0781 Q864.1094,55.2344 863.4063,55.2344 Q860.9063,55.2344 859.5781,53.5938 Q858.2656,51.9375 858.2656,48.8125 Q858.2656,45.6875 859.5781,44.0313 Q860.9063,42.375 863.4063,42.375 Q864.1094,42.375 864.75,42.5313 Q865.4063,42.6875 865.9688,42.9844 L865.9688,45.7031 Q865.3438,45.125 864.75,44.8594 Q864.1563,44.5781 863.5313,44.5781 Q862.1875,44.5781 861.5,45.6563 Q860.8125,46.7188 860.8125,48.8125 Q860.8125,50.9063 861.5,51.9844 Q862.1875,53.0469 863.5313,53.0469 Q864.1563,53.0469 864.75,52.7813 Q865.3438,52.5 865.9688,51.9219 L865.9688,54.6406 Z " fill="#000000"/><text fill="#000000" font-family="sans-serif" font-size="12" lengthAdjust="spacing" textLength="62" x="877" y="53.1543">AgeGroup</text><line style="stroke:#A80036;stroke-width:1.5;" x1="849" x2="941" y1="65" y2="65"/><rect fill="none" height="6" style="stroke:#C82930;stroke-width:1.0;" width="6" x="856" y="73"/><text fill="#000000" font-family="sans-serif" font-size="11" lengthAdjust="spacing" textLength="52" x="868" y="79.2104">lowerAge</text><rect fill="none" height="6" style="stroke:#C82930;stroke-width:1.0;" width="6" x="856" y="85.8047"/><text fill="#000000" font-family="sans-serif" font-size="11" lengthAdjust="spacing" textLength="54" x="868" y="92.0151">upperAge</text><rect fill="none" height="6" style="stroke:#C82930;stroke-width:1.0;" width="6" x="856" y="98.6094"/><text fill="#000000" font-family="sans-serif" font-size="11" lengthAdjust="spacing" textLength="42" x="868" y="104.8198">dosage</text><!--MD5=[b3411a3750bc281802b6652af7ee7751]
class Dosage--><rect codeLine="29" fill="#FEFECE" filter="url(#f6ir9tg26e8lx)" height="78.4141" id="Dosage" style="stroke:#A80036;stroke-width:1.5;" width="93" x="1048" y="33"/><ellipse cx="1068.85" cy="49" fill="#ADD1B2" rx="11" ry="11" style="stroke:#A80036;stroke-width:1.0;"/><path d="M1071.8188,54.6406 Q1071.2406,54.9375 1070.6,55.0781 Q1069.9594,55.2344 1069.2563,55.2344 Q1066.7563,55.2344 1065.4281,53.5938 Q1064.1156,51.9375 1064.1156,48.8125 Q1064.1156,45.6875 1065.4281,44.0313 Q1066.7563,42.375 1069.2563,42.375 Q1069.9594,42.375 1070.6,42.5313 Q1071.2563,42.6875 1071.8188,42.9844 L1071.8188,45.7031 Q1071.1938,45.125 1070.6,44.8594 Q1070.0063,44.5781 1069.3813,44.5781 Q1068.0375,44.5781 1067.35,45.6563 Q1066.6625,46.7188 1066.6625,48.8125 Q1066.6625,50.9063 1067.35,51.9844 Q1068.0375,53.0469 1069.3813,53.0469 Q1070.0063,53.0469 1070.6,52.7813 Q1071.1938,52.5 1071.8188,51.9219 L1071.8188,54.6406 Z " fill="#000000"/><text fill="#000000" font-family="sans-serif" font-size="12" lengthAdjust="spacing" textLength="48" x="1084.15" y="53.1543">Dosage</text><line style="stroke:#A80036;stroke-width:1.5;" x1="1049" x2="1140" y1="65" y2="65"/><rect fill="none" height="6" style="stroke:#C82930;stroke-width:1.0;" width="6" x="1056" y="73"/><text fill="#000000" font-family="sans-serif" font-size="11" lengthAdjust="spacing" textLength="61" x="1068" y="79.2104">nrOfDoses</text><rect fill="none" height="6" style="stroke:#C82930;stroke-width:1.0;" width="6" x="1056" y="85.8047"/><text fill="#000000" font-family="sans-serif" font-size="11" lengthAdjust="spacing" textLength="51" x="1068" y="92.0151">dosageQ</text><rect fill="none" height="6" style="stroke:#C82930;stroke-width:1.0;" width="6" x="1056" y="98.6094"/><text fill="#000000" font-family="sans-serif" font-size="11" lengthAdjust="spacing" textLength="67" x="1068" y="104.8198">timeInterval</text><!--MD5=[c29c8d42883934cbaf5793c72a334947]
link Company to Vaccine--><path codeLine="35" d="M99.06,97.35 C209.75,93.28 494.17,82.85 606.68,78.72 " fill="none" id="Company-Vaccine" style="stroke:#A80036;stroke-width:1.0;"/><polygon fill="#000000" points="273.4966,78.383,264.3498,75.7778,264.5654,81.6517,273.4966,78.383" style="stroke:#000000;stroke-width:1.0;"/><text fill="#000000" font-family="sans-serif" font-size="13" lengthAdjust="spacing" textLength="45" x="277.5" y="83.0669">applies</text><text fill="#000000" font-family="sans-serif" font-size="13" lengthAdjust="spacing" textLength="8" x="107.0383" y="97.3324">1</text><text fill="#000000" font-family="sans-serif" font-size="13" lengthAdjust="spacing" textLength="7" x="592.1424" y="92.1491">*</text><!--MD5=[3568623adf67b2630dce9e60c05bd02a]
link Vaccine to VaccineType--><path codeLine="36" d="M702.05,98.28 C741.5,116.3 798.11,142.18 839.63,161.15 " fill="none" id="Vaccine-VaccineType" style="stroke:#A80036;stroke-width:1.0;"/><polygon fill="#000000" points="760.0477,105.6446,753.0424,99.2121,750.5994,104.5582,760.0477,105.6446" style="stroke:#000000;stroke-width:1.0;"/><text fill="#000000" font-family="sans-serif" font-size="13" lengthAdjust="spacing" textLength="26" x="764.5" y="108.0669">is of</text><text fill="#000000" font-family="sans-serif" font-size="13" lengthAdjust="spacing" textLength="7" x="709.867" y="114.7622">*</text><text fill="#000000" font-family="sans-serif" font-size="13" lengthAdjust="spacing" textLength="8" x="824.0232" y="170.9759">1</text><!--MD5=[05986564e1c13a00611587b35563d868]
link Company to VaccineType--><path codeLine="37" d="M99.16,103.68 C242.2,118.49 684.93,164.35 839.82,180.39 " fill="none" id="Company-VaccineType" style="stroke:#A80036;stroke-width:1.0;"/><polygon fill="#000000" points="413.9734,127.0815,405.2792,123.2264,404.6737,129.073,413.9734,127.0815" style="stroke:#000000;stroke-width:1.0;"/><text fill="#000000" font-family="sans-serif" font-size="13" lengthAdjust="spacing" textLength="158" x="418" y="131.0669">promotes administration</text><text fill="#000000" font-family="sans-serif" font-size="13" lengthAdjust="spacing" textLength="8" x="107.1543" y="117.7142">1</text><text fill="#000000" font-family="sans-serif" font-size="13" lengthAdjust="spacing" textLength="7" x="824.9349" y="192.692">*</text><!--MD5=[c3688fb11a62da651adba35d4b44e197]
link SystemAdministrator to Vaccine--><path codeLine="38" d="M374.17,38.1 C445.65,48.05 548.08,62.32 606.99,70.52 " fill="none" id="SystemAdministrator-Vaccine" style="stroke:#A80036;stroke-width:1.0;"/><polygon fill="#000000" points="465.4522,35.256,456.8989,31.0977,456.0882,36.9194,465.4522,35.256" style="stroke:#000000;stroke-width:1.0;"/><text fill="#000000" font-family="sans-serif" font-size="13" lengthAdjust="spacing" textLength="55" x="469.5" y="39.0669">specifies</text><text fill="#000000" font-family="sans-serif" font-size="13" lengthAdjust="spacing" textLength="8" x="381.9755" y="51.8877">1</text><text fill="#000000" font-family="sans-serif" font-size="13" lengthAdjust="spacing" textLength="7" x="591.8603" y="65.3675">*</text><!--MD5=[60245d8ef532f0fba94ba7a9bcd4938c]
link Company to SystemAdministrator--><path codeLine="39" d="M99.07,82.89 C108.9,79.51 119.27,76.05 129,73 C157.84,63.95 189.8,54.78 217.75,47.02 " fill="none" id="Company-SystemAdministrator" style="stroke:#A80036;stroke-width:1.0;"/><polygon fill="#000000" points="138.7862,46.1198,129.2776,45.9235,130.9782,51.55,138.7862,46.1198" style="stroke:#000000;stroke-width:1.0;"/><text fill="#000000" font-family="sans-serif" font-size="13" lengthAdjust="spacing" textLength="39" x="143" y="52.0669">knows</text><text fill="#000000" font-family="sans-serif" font-size="13" lengthAdjust="spacing" textLength="8" x="107.0499" y="76.2202">1</text><text fill="#000000" font-family="sans-serif" font-size="13" lengthAdjust="spacing" textLength="8" x="197.0398" y="63.4835">1</text><!--MD5=[b642d3dcd838b142a59054da7986f07e]
link Vaccine to AgeGroup--><path codeLine="40" d="M702.05,76.02 C744.21,75.14 805.98,73.85 847.97,72.96 " fill="none" id="Vaccine-AgeGroup" style="stroke:#A80036;stroke-width:1.0;"/><polygon fill="#000000" points="741.9989,64.4616,732.8942,61.7129,733.0174,67.5895,741.9989,64.4616" style="stroke:#000000;stroke-width:1.0;"/><text fill="#000000" font-family="sans-serif" font-size="13" lengthAdjust="spacing" textLength="63" x="746" y="69.0669">applied to</text><text fill="#000000" font-family="sans-serif" font-size="13" lengthAdjust="spacing" textLength="8" x="709.9436" y="89.0936">1</text><text fill="#000000" font-family="sans-serif" font-size="13" lengthAdjust="spacing" textLength="7" x="832.9168" y="86.3528">*</text><!--MD5=[be08eaf64c43ee968b1132a1c1a3877a]
link AgeGroup to Dosage--><path codeLine="41" d="M942.3,72 C974.11,72 1016.15,72 1047.83,72 " fill="none" id="AgeGroup-Dosage" style="stroke:#A80036;stroke-width:1.0;"/><polygon fill="#000000" points="990,63.5664,980.9549,60.6275,980.9549,66.5053,990,63.5664" style="stroke:#000000;stroke-width:1.0;"/><text fill="#000000" font-family="sans-serif" font-size="13" lengthAdjust="spacing" textLength="23" x="994" y="68.0669">has</text><text fill="#000000" font-family="sans-serif" font-size="13" lengthAdjust="spacing" textLength="7" x="950.0787" y="85.1938">*</text><text fill="#000000" font-family="sans-serif" font-size="13" lengthAdjust="spacing" textLength="8" x="1032.0712" y="85.1938">1</text><!--MD5=[a97aadd522969fae529f1f2fd5241de9]
@startuml
hide methods
left to right direction


class Company {
 -designation
}

class Vaccine {
  -name
  -brand
  -ID
  -vaccineType
  -lAgeGroups 
  }

class VaccineType{
  -code
  -designation
  -whold
  }
class SystemAdministrator{
  }
class AgeGroup{
  -lowerAge
  -upperAge
  -dosage
}
class Dosage{
  -nrOfDoses
  -dosageQ
  -timeInterval
}

Company "1" - - "*" Vaccine : applies >
Vaccine "*" - - "1" VaccineType : is of >
Company "1" - - "*" VaccineType : promotes administration >
SystemAdministrator "1" - - "*" Vaccine : specifies >
Company "1" - - "1" SystemAdministrator : knows >
Vaccine "1" - - "*" AgeGroup : applied to >
AgeGroup "*" - - "1" Dosage : has >
@enduml

PlantUML version 1.2021.16(Wed Dec 08 17:25:22 UTC 2021)
(GPL source distribution)
Java Runtime: OpenJDK Runtime Environment
JVM: OpenJDK 64-Bit Server VM
Default Encoding: UTF-8
Language: en
Country: US
--></g></svg>