@startuml
hide footbox
autonumber
actor "Administrator" as ADM
participant ":SpecifyVaccineUI" as UI
participant ":SpecifyVaccineController" as CONT
participant ":Company" as COMP
participant "vtstore:VaccineTypeStore" as VTSTO
participant "dstore:DosageStore" as DSTO
participant "dosage:Dosage" as DO
participant "agstore:AgeGroupStore" as AGSTO
participant "agegroup:AgeGroup" as AG
participant "vstore:VaccineStore" as VSTO
participant "va:Vaccine" as VA
activate ADM

    ADM -> UI : Iniciates vaccine specification

 activate UI


     UI --> ADM : Asks for introduction of vaccine Name, ID and brand;
deactivate UI
     ADM -> UI : Introduces requested data;
activate UI


     UI -> CONT : getVaccineTypeStore()
activate CONT

     CONT -> COMP : vtstore=getVaccineTypeStore()
activate COMP
     CONT -> VTSTO : lVaccineTypes=getVaccineTypes()
deactivate COMP
activate VTSTO


    UI --> ADM : Shows vaccine type list and asks for selection of one
deactivate VTSTO
deactivate CONT

  ADM -> UI: Selects vaccine type
deactivate UI
loop       (for all the age groups intended)

  UI --> ADM: Asks for upper age and lower age of the age group
activate UI
  ADM -> UI: Introduces upper age and lower age
  UI --> ADM: Asks for number of doses, vaccine dosage and time interval between doses
  ADM -> UI : Introduces requested data
  UI -> CONT : createDosage(nrOfDoses, dosageQ, timeInterval)

activate CONT
 CONT -> COMP : dStore = getDosageStore()
activate COMP
deactivate COMP
 CONT -> DSTO : dosage =createDosage(nrOfDoses, dosageQ, timeInterval)
activate DSTO
 DSTO -> DO **: create(nrOfDoses, dosageQ, timeInterval)
deactivate DSTO
 CONT -> DSTO: validateDosage(dosage)
activate DSTO
 DSTO -> DSTO: saveDosage(dosage)
activate DSTO
deactivate DSTO
 CONT -> COMP: agstore=getAgeGroupStore()
deactivate DSTO
activate COMP

 CONT -> AGSTO: ageGroup=createAgeGroup(upperAge, lowerAge, dosage)
deactivate COMP
 activate AGSTO
 AGSTO -> AG **: create(upperAge, lowerAge, dosage)
deactivate AGSTO
 CONT -> AGSTO: validateAgeGroup(ag)
activate AGSTO
 AGSTO-> AGSTO: saveAgeGroup(ag)
activate AGSTO
deactivate AGSTO
deactivate CONT

 UI--> ADM: Shows introduced information and asks for confirmation
deactivate AGSTO
 ADM -> UI: Confirms information regading age group
deactivate UI
end
 UI --> ADM: Shows list of age groups introduced with respective dosage and asks for confirmation
activate UI
 ADM -> UI: Confirms age groups

 UI -> CONT: createVaccine(name, id, brand, vt, lAgeGroups)
deactivate UI
activate CONT
 CONT -> COMP: vstore=getVaccineStore()
activate COMP
 CONT -> VSTO: createVaccine(name, id, brand, vt, lAgeGroups)
deactivate COMP
activate VSTO
 VSTO -> VA **: create(name, id, brand, vt, lAgeGroups)
deactivate VSTO
 CONT -> VSTO: validateVaccine(va)
deactivate CONT
activate VSTO
 UI --> ADM: Shows vaccine data and requests confirmation
deactivate VSTO
activate UI
 ADM -> UI: Confirms vaccine data
 UI -> CONT: saveVaccine()
activate CONT
 CONT -> VSTO: saveVaccine(va)
activate VSTO
 VSTO -> VSTO: validateVaccine(va)
activate VSTO
deactivate VSTO
 VSTO -> VSTO: saveVaccine(va)
activate VSTO
deactivate VSTO
 UI --> ADM: Informs (in)success of operation

@enduml     
