@startuml
'https://plantuml.com/sequence-diagram

autonumber

actor Administrator as admin
participant CreateVaccineTypeUI as ui
participant CreateVaccineTypeCtrl as ctrl
participant "Company" as comp
participant VaccineTypeStore as store
participant "vt : VaccineType" as vt

activate admin

admin -> ui : Asks to specify a new vaccine type
activate ui
ui --> admin : Requests the code and designation for the vaccine type
deactivate ui

admin -> ui : Enters the code and designation of the vaccine type
activate ui
ui -> ctrl : createVaccineType(code, designation)
activate ctrl
ctrl -> comp : store = getVaccineTypeStore()
activate comp
deactivate comp
ctrl -> store : vt = createVaccineType(code, designation)
activate store
store -> vt : create(code, designation)
activate vt
deactivate vt
deactivate store
ctrl -> store : validateVt(vt)
activate store
deactivate store
deactivate ctrl
ui --> admin : Shows the new vaccine type and requests confirmation
deactivate ui

admin -> ui  : Confirms data
activate ui
ui -> ctrl : saveVt()
activate ctrl
ctrl -> store : saveVt(vt)
activate store
store -> store : validateVt(vt)
activate store
deactivate store
store -> store : addVt(vt)
activate store
deactivate store
deactivate store
deactivate ctrl
ui --> admin : Informs operation success
deactivate ui
deactivate admin


@enduml