@startuml
'https://plantuml.com/sequence-diagram

autonumber

activate Administrator
Administrator -> ":System" : Asks to specify a new vaccine type
activate ":System"
":System" --> Administrator : Requests the code and designation for the vaccine type
deactivate ":System"

Administrator -> ":System" : Enters the code and designation of the vaccine type
activate ":System"
":System" --> Administrator : Shows the new vaccine type and requests confirmation
deactivate ":System"

Administrator -> ":System" : Confirms data
activate ":System"
":System" --> Administrator : Informs operation success
deactivate ":System"
deactivate Administrator

@enduml