<?xml version="1.0" encoding="UTF-8"?>
<!DOCTYPE svg PUBLIC '-//W3C//DTD SVG 1.0//EN'
          'http://www.w3.org/TR/2001/REC-SVG-20010904/DTD/svg10.dtd'>
<svg fill-opacity="0" xmlns:xlink="http://www.w3.org/1999/xlink" color-rendering="auto" color-interpolation="auto" text-rendering="auto" stroke="rgb(0,0,0)" stroke-linecap="square" width="846" stroke-miterlimit="10" shape-rendering="auto" stroke-opacity="0" fill="rgb(0,0,0)" stroke-dasharray="none" font-weight="normal" stroke-width="1" height="936" xmlns="http://www.w3.org/2000/svg" font-family="'Dialog'" font-style="normal" stroke-linejoin="miter" font-size="12px" stroke-dashoffset="0" image-rendering="auto"
><!--Generated by the Batik Graphics2D SVG Generator--><defs id="genericDefs"
  /><g
  ><defs id="defs1"
    ><clipPath clipPathUnits="userSpaceOnUse" id="clipPath1"
      ><path d="M-7 -7 L161 -7 L161 51 L-7 51 L-7 -7 Z"
      /></clipPath
      ><clipPath clipPathUnits="userSpaceOnUse" id="clipPath2"
      ><path d="M0 0 L0 25 L150 25 L150 0 Z"
      /></clipPath
      ><clipPath clipPathUnits="userSpaceOnUse" id="clipPath3"
      ><path d="M0 0 L0 15 L150 15 L150 0 Z"
      /></clipPath
      ><clipPath clipPathUnits="userSpaceOnUse" id="clipPath4"
      ><path d="M-7 -7 L201 -7 L201 51 L-7 51 L-7 -7 Z"
      /></clipPath
      ><clipPath clipPathUnits="userSpaceOnUse" id="clipPath5"
      ><path d="M0 0 L0 25 L190 25 L190 0 Z"
      /></clipPath
      ><clipPath clipPathUnits="userSpaceOnUse" id="clipPath6"
      ><path d="M0 0 L0 15 L190 15 L190 0 Z"
      /></clipPath
      ><clipPath clipPathUnits="userSpaceOnUse" id="clipPath7"
      ><path d="M-7 -7 L151 -7 L151 51 L-7 51 L-7 -7 Z"
      /></clipPath
      ><clipPath clipPathUnits="userSpaceOnUse" id="clipPath8"
      ><path d="M0 0 L0 25 L140 25 L140 0 Z"
      /></clipPath
      ><clipPath clipPathUnits="userSpaceOnUse" id="clipPath9"
      ><path d="M0 0 L0 15 L140 15 L140 0 Z"
      /></clipPath
      ><clipPath clipPathUnits="userSpaceOnUse" id="clipPath10"
      ><path d="M-7 -7 L261 -7 L261 391 L-7 391 L-7 -7 Z"
      /></clipPath
      ><clipPath clipPathUnits="userSpaceOnUse" id="clipPath11"
      ><path d="M0 0 L0 365 L250 365 L250 0 Z"
      /></clipPath
      ><clipPath clipPathUnits="userSpaceOnUse" id="clipPath12"
      ><path d="M0 0 L0 15 L250 15 L250 0 Z"
      /></clipPath
      ><clipPath clipPathUnits="userSpaceOnUse" id="clipPath13"
      ><path d="M-7 -7 L231 -7 L231 121 L-7 121 L-7 -7 Z"
      /></clipPath
      ><clipPath clipPathUnits="userSpaceOnUse" id="clipPath14"
      ><path d="M0 0 L0 95 L220 95 L220 0 Z"
      /></clipPath
      ><clipPath clipPathUnits="userSpaceOnUse" id="clipPath15"
      ><path d="M0 0 L0 15 L220 15 L220 0 Z"
      /></clipPath
      ><clipPath clipPathUnits="userSpaceOnUse" id="clipPath16"
      ><path d="M-7 -7 L121 -7 L121 91 L-7 91 L-7 -7 Z"
      /></clipPath
      ><clipPath clipPathUnits="userSpaceOnUse" id="clipPath17"
      ><path d="M0 0 L0 65 L110 65 L110 0 Z"
      /></clipPath
      ><clipPath clipPathUnits="userSpaceOnUse" id="clipPath18"
      ><path d="M0 0 L0 15 L110 15 L110 0 Z"
      /></clipPath
      ><clipPath clipPathUnits="userSpaceOnUse" id="clipPath19"
      ><path d="M-7 -7 L391 -7 L391 301 L-7 301 L-7 -7 Z"
      /></clipPath
      ><clipPath clipPathUnits="userSpaceOnUse" id="clipPath20"
      ><path d="M0 0 L0 275 L380 275 L380 0 Z"
      /></clipPath
      ><clipPath clipPathUnits="userSpaceOnUse" id="clipPath21"
      ><path d="M0 0 L0 15 L380 15 L380 0 Z"
      /></clipPath
      ><clipPath clipPathUnits="userSpaceOnUse" id="clipPath22"
      ><path d="M-7 -7 L51 -7 L51 51 L-7 51 L-7 -7 Z"
      /></clipPath
      ><clipPath clipPathUnits="userSpaceOnUse" id="clipPath23"
      ><path d="M0 0 L0 40 L40 40 L40 0 Z"
      /></clipPath
      ><clipPath clipPathUnits="userSpaceOnUse" id="clipPath24"
      ><path d="M-7 -7 L61 -7 L61 61 L-7 61 L-7 -7 Z"
      /></clipPath
      ><clipPath clipPathUnits="userSpaceOnUse" id="clipPath25"
      ><path d="M0 0 L0 50 L50 50 L50 0 Z"
      /></clipPath
      ><clipPath clipPathUnits="userSpaceOnUse" id="clipPath26"
      ><path d="M0 0 L104 0 L104 162 L0 162 L0 0 Z"
      /></clipPath
      ><clipPath clipPathUnits="userSpaceOnUse" id="clipPath27"
      ><path d="M0 0 L0 162 L104 162 L104 0 Z"
      /></clipPath
      ><clipPath clipPathUnits="userSpaceOnUse" id="clipPath28"
      ><path d="M0 0 L104 0 L104 272 L0 272 L0 0 Z"
      /></clipPath
      ><clipPath clipPathUnits="userSpaceOnUse" id="clipPath29"
      ><path d="M0 0 L0 272 L104 272 L104 0 Z"
      /></clipPath
      ><clipPath clipPathUnits="userSpaceOnUse" id="clipPath30"
      ><path d="M0 0 L104 0 L104 422 L0 422 L0 0 Z"
      /></clipPath
      ><clipPath clipPathUnits="userSpaceOnUse" id="clipPath31"
      ><path d="M0 0 L0 422 L104 422 L104 0 Z"
      /></clipPath
      ><clipPath clipPathUnits="userSpaceOnUse" id="clipPath32"
      ><path d="M0 0 L412 0 L412 104 L0 104 L0 0 Z"
      /></clipPath
      ><clipPath clipPathUnits="userSpaceOnUse" id="clipPath33"
      ><path d="M233 30 L233 45 L179 45 L179 30 ZM0 0 L0 104 L412 104 L412 0 Z"
      /></clipPath
      ><clipPath clipPathUnits="userSpaceOnUse" id="clipPath34"
      ><path d="M0 0 L172 0 L172 104 L0 104 L0 0 Z"
      /></clipPath
      ><clipPath clipPathUnits="userSpaceOnUse" id="clipPath35"
      ><path d="M0 0 L0 104 L172 104 L172 0 Z"
      /></clipPath
      ><clipPath clipPathUnits="userSpaceOnUse" id="clipPath36"
      ><path d="M0 0 L192 0 L192 104 L0 104 L0 0 Z"
      /></clipPath
      ><clipPath clipPathUnits="userSpaceOnUse" id="clipPath37"
      ><path d="M0 0 L0 104 L192 104 L192 0 Z"
      /></clipPath
      ><clipPath clipPathUnits="userSpaceOnUse" id="clipPath38"
      ><path d="M0 0 L104 0 L104 182 L0 182 L0 0 Z"
      /></clipPath
      ><clipPath clipPathUnits="userSpaceOnUse" id="clipPath39"
      ><path d="M0 0 L0 182 L104 182 L104 0 Z"
      /></clipPath
      ><clipPath clipPathUnits="userSpaceOnUse" id="clipPath40"
      ><path d="M-54 -15 L108 -15 L108 30 L-54 30 L-54 -15 Z"
      /></clipPath
    ></defs
    ><g fill="white" text-rendering="geometricPrecision" fill-opacity="1" stroke-opacity="1" stroke="white"
    ><rect x="0" width="846" height="936" y="0" stroke="none"
    /></g
    ><g font-size="11px" transform="translate(227,2)" fill-opacity="1" fill="rgb(122,207,245)" text-rendering="geometricPrecision" image-rendering="optimizeQuality" font-family="sans-serif" stroke="rgb(122,207,245)" font-weight="bold" stroke-opacity="1"
    ><rect x="0" width="150" height="40" y="0" clip-path="url(#clipPath1)" stroke="none"
    /></g
    ><g fill-opacity="1" text-rendering="geometricPrecision" stroke="black" stroke-linecap="butt" transform="translate(227,2)" stroke-miterlimit="0" stroke-opacity="1" fill="black" font-weight="bold" font-family="sans-serif" stroke-linejoin="round" font-size="11px" image-rendering="optimizeQuality"
    ><rect fill="none" x="0" width="150" height="40" y="0" clip-path="url(#clipPath1)"
      /><line y2="15" fill="none" x1="0" clip-path="url(#clipPath1)" x2="150" y1="15"
    /></g
    ><g font-size="11px" transform="translate(227,2)" fill-opacity="1" fill="black" text-rendering="geometricPrecision" image-rendering="optimizeQuality" font-family="sans-serif" stroke="black" font-weight="bold" stroke-opacity="1"
    ><text x="6" xml:space="preserve" y="12" clip-path="url(#clipPath3)" stroke="none"
      >ImportSnsUserFromCsvUI</text
    ></g
    ><g font-size="11px" transform="translate(207,102)" fill-opacity="1" fill="rgb(122,207,245)" text-rendering="geometricPrecision" image-rendering="optimizeQuality" font-family="sans-serif" stroke="rgb(122,207,245)" font-weight="bold" stroke-opacity="1"
    ><rect x="0" width="190" height="40" y="0" clip-path="url(#clipPath4)" stroke="none"
    /></g
    ><g fill-opacity="1" text-rendering="geometricPrecision" stroke="black" stroke-linecap="butt" transform="translate(207,102)" stroke-miterlimit="0" stroke-opacity="1" fill="black" font-weight="bold" font-family="sans-serif" stroke-linejoin="round" font-size="11px" image-rendering="optimizeQuality"
    ><rect fill="none" x="0" width="190" height="40" y="0" clip-path="url(#clipPath4)"
      /><line y2="15" fill="none" x1="0" clip-path="url(#clipPath4)" x2="190" y1="15"
    /></g
    ><g font-size="11px" transform="matrix(1,0,0,1,207,117)" fill-opacity="1" fill="black" text-rendering="geometricPrecision" image-rendering="optimizeQuality" font-family="sans-serif" stroke="black" stroke-opacity="1"
    ><text x="2" xml:space="preserve" y="14" clip-path="url(#clipPath5)" stroke="none"
      >+readCsv(fileLocation)</text
    ></g
    ><g font-size="11px" transform="translate(207,102)" fill-opacity="1" fill="black" text-rendering="geometricPrecision" image-rendering="optimizeQuality" font-family="sans-serif" stroke="black" font-weight="bold" stroke-opacity="1"
    ><text x="4" xml:space="preserve" y="12" clip-path="url(#clipPath6)" stroke="none"
      >ImportSnsUserFromCsvController</text
    ></g
    ><g font-size="11px" transform="translate(232,312)" fill-opacity="1" fill="rgb(122,207,245)" text-rendering="geometricPrecision" image-rendering="optimizeQuality" font-family="sans-serif" stroke="rgb(122,207,245)" font-weight="bold" stroke-opacity="1"
    ><rect x="0" width="140" height="40" y="0" clip-path="url(#clipPath7)" stroke="none"
    /></g
    ><g fill-opacity="1" text-rendering="geometricPrecision" stroke="black" stroke-linecap="butt" transform="translate(232,312)" stroke-miterlimit="0" stroke-opacity="1" fill="black" font-weight="bold" font-family="sans-serif" stroke-linejoin="round" font-size="11px" image-rendering="optimizeQuality"
    ><rect fill="none" x="0" width="140" height="40" y="0" clip-path="url(#clipPath7)"
      /><line y2="15" fill="none" x1="0" clip-path="url(#clipPath7)" x2="140" y1="15"
    /></g
    ><g font-size="11px" transform="matrix(1,0,0,1,232,327)" fill-opacity="1" fill="black" text-rendering="geometricPrecision" image-rendering="optimizeQuality" font-family="sans-serif" stroke="black" stroke-opacity="1"
    ><text x="2" xml:space="preserve" y="14" clip-path="url(#clipPath8)" stroke="none"
      >+readCsv()</text
    ></g
    ><g font-size="11px" transform="translate(232,312)" fill-opacity="1" fill="black" text-rendering="geometricPrecision" image-rendering="optimizeQuality" font-family="sans-serif" stroke="black" font-weight="bold" stroke-opacity="1"
    ><text x="6" xml:space="preserve" y="12" clip-path="url(#clipPath9)" stroke="none"
      >ImportSnsUserFromCsv</text
    ></g
    ><g font-size="11px" transform="translate(532,552)" fill-opacity="1" fill="rgb(122,207,245)" text-rendering="geometricPrecision" image-rendering="optimizeQuality" font-family="sans-serif" stroke="rgb(122,207,245)" font-weight="bold" stroke-opacity="1"
    ><rect x="0" width="250" height="380" y="0" clip-path="url(#clipPath10)" stroke="none"
    /></g
    ><g fill-opacity="1" text-rendering="geometricPrecision" stroke="black" stroke-linecap="butt" transform="translate(532,552)" stroke-miterlimit="0" stroke-opacity="1" fill="black" font-weight="bold" font-family="sans-serif" stroke-linejoin="round" font-size="11px" image-rendering="optimizeQuality"
    ><rect fill="none" x="0" width="250" height="380" y="0" clip-path="url(#clipPath10)"
      /><line y2="15" fill="none" x1="0" clip-path="url(#clipPath10)" x2="250" y1="15"
    /></g
    ><g font-size="11px" transform="matrix(1,0,0,1,532,567)" fill-opacity="1" fill="black" text-rendering="geometricPrecision" image-rendering="optimizeQuality" font-family="sans-serif" stroke="black" stroke-opacity="1"
    ><text x="2" xml:space="preserve" y="14" clip-path="url(#clipPath11)" stroke="none"
      >-name</text
    ></g
    ><g font-size="11px" transform="matrix(1,0,0,1,532,567)" fill-opacity="1" fill="black" text-rendering="geometricPrecision" image-rendering="optimizeQuality" font-family="sans-serif" stroke="black" stroke-opacity="1"
    ><text x="2" xml:space="preserve" y="29" clip-path="url(#clipPath11)" stroke="none"
      >-address</text
    ></g
    ><g font-size="11px" transform="matrix(1,0,0,1,532,567)" fill-opacity="1" fill="black" text-rendering="geometricPrecision" image-rendering="optimizeQuality" font-family="sans-serif" stroke="black" stroke-opacity="1"
    ><text x="2" xml:space="preserve" y="44" clip-path="url(#clipPath11)" stroke="none"
      >-sex</text
    ></g
    ><g font-size="11px" transform="matrix(1,0,0,1,532,567)" fill-opacity="1" fill="black" text-rendering="geometricPrecision" image-rendering="optimizeQuality" font-family="sans-serif" stroke="black" stroke-opacity="1"
    ><text x="2" xml:space="preserve" y="59" clip-path="url(#clipPath11)" stroke="none"
      >-phoneNumber</text
    ></g
    ><g font-size="11px" transform="matrix(1,0,0,1,532,567)" fill-opacity="1" fill="black" text-rendering="geometricPrecision" image-rendering="optimizeQuality" font-family="sans-serif" stroke="black" stroke-opacity="1"
    ><text x="2" xml:space="preserve" y="74" clip-path="url(#clipPath11)" stroke="none"
      >-email</text
    ></g
    ><g font-size="11px" transform="matrix(1,0,0,1,532,567)" fill-opacity="1" fill="black" text-rendering="geometricPrecision" image-rendering="optimizeQuality" font-family="sans-serif" stroke="black" stroke-opacity="1"
    ><text x="2" xml:space="preserve" y="89" clip-path="url(#clipPath11)" stroke="none"
      >-password</text
    ></g
    ><g font-size="11px" transform="matrix(1,0,0,1,532,567)" fill-opacity="1" fill="black" text-rendering="geometricPrecision" image-rendering="optimizeQuality" font-family="sans-serif" stroke="black" stroke-opacity="1"
    ><text x="2" xml:space="preserve" y="104" clip-path="url(#clipPath11)" stroke="none"
      >-birthdate</text
    ></g
    ><g font-size="11px" transform="matrix(1,0,0,1,532,567)" fill-opacity="1" fill="black" text-rendering="geometricPrecision" image-rendering="optimizeQuality" font-family="sans-serif" stroke="black" stroke-opacity="1"
    ><text x="2" xml:space="preserve" y="119" clip-path="url(#clipPath11)" stroke="none"
      >-snsNumber</text
    ></g
    ><g font-size="11px" transform="matrix(1,0,0,1,532,567)" fill-opacity="1" fill="black" text-rendering="geometricPrecision" image-rendering="optimizeQuality" font-family="sans-serif" stroke="black" stroke-opacity="1"
    ><text x="2" xml:space="preserve" y="134" clip-path="url(#clipPath11)" stroke="none"
      >-ccNumber</text
      ><line stroke-linecap="butt" clip-path="url(#clipPath11)" fill="none" x1="0" x2="250" y1="139" y2="139" stroke-linejoin="bevel" stroke-miterlimit="0"
    /></g
    ><g font-size="11px" transform="matrix(1,0,0,1,532,567)" fill-opacity="1" fill="black" text-rendering="geometricPrecision" image-rendering="optimizeQuality" font-family="sans-serif" stroke="black" stroke-opacity="1"
    ><text x="2" xml:space="preserve" y="153" clip-path="url(#clipPath11)" stroke="none"
      >+SnsUser(SnsUserDto snsUserDto)</text
    ></g
    ><g font-size="11px" transform="matrix(1,0,0,1,532,567)" fill-opacity="1" fill="black" text-rendering="geometricPrecision" image-rendering="optimizeQuality" font-family="sans-serif" stroke="black" stroke-opacity="1"
    ><text x="2" xml:space="preserve" y="168" clip-path="url(#clipPath11)" stroke="none"
      >+getSnsNumber()</text
    ></g
    ><g font-size="11px" transform="matrix(1,0,0,1,532,567)" fill-opacity="1" fill="black" text-rendering="geometricPrecision" image-rendering="optimizeQuality" font-family="sans-serif" stroke="black" stroke-opacity="1"
    ><text x="2" xml:space="preserve" y="183" clip-path="url(#clipPath11)" stroke="none"
      >+getPhoneNumber()</text
    ></g
    ><g font-size="11px" transform="matrix(1,0,0,1,532,567)" fill-opacity="1" fill="black" text-rendering="geometricPrecision" image-rendering="optimizeQuality" font-family="sans-serif" stroke="black" stroke-opacity="1"
    ><text x="2" xml:space="preserve" y="198" clip-path="url(#clipPath11)" stroke="none"
      >+getCcNumber()</text
    ></g
    ><g font-size="11px" transform="matrix(1,0,0,1,532,567)" fill-opacity="1" fill="black" text-rendering="geometricPrecision" image-rendering="optimizeQuality" font-family="sans-serif" stroke="black" stroke-opacity="1"
    ><text x="2" xml:space="preserve" y="213" clip-path="url(#clipPath11)" stroke="none"
      >+validateName(SnsUserDto snsUserDto)</text
    ></g
    ><g font-size="11px" transform="matrix(1,0,0,1,532,567)" fill-opacity="1" fill="black" text-rendering="geometricPrecision" image-rendering="optimizeQuality" font-family="sans-serif" stroke="black" stroke-opacity="1"
    ><text x="2" xml:space="preserve" y="228" clip-path="url(#clipPath11)" stroke="none"
      >+validateSex(SnsUserDto snsUserDto)</text
    ></g
    ><g font-size="11px" transform="matrix(1,0,0,1,532,567)" fill-opacity="1" fill="black" text-rendering="geometricPrecision" image-rendering="optimizeQuality" font-family="sans-serif" stroke="black" stroke-opacity="1"
    ><text x="2" xml:space="preserve" y="243" clip-path="url(#clipPath11)" stroke="none"
      >+validatePhoneNumber(SnsUserDto snsUserDto)</text
    ></g
    ><g font-size="11px" transform="matrix(1,0,0,1,532,567)" fill-opacity="1" fill="black" text-rendering="geometricPrecision" image-rendering="optimizeQuality" font-family="sans-serif" stroke="black" stroke-opacity="1"
    ><text x="2" xml:space="preserve" y="258" clip-path="url(#clipPath11)" stroke="none"
      >+validateEmail(SnsUserDto snsUserDto)</text
    ></g
    ><g font-size="11px" transform="matrix(1,0,0,1,532,567)" fill-opacity="1" fill="black" text-rendering="geometricPrecision" image-rendering="optimizeQuality" font-family="sans-serif" stroke="black" stroke-opacity="1"
    ><text x="2" xml:space="preserve" y="273" clip-path="url(#clipPath11)" stroke="none"
      >+validatePassword(SnsUserDto snsUserDto)</text
    ></g
    ><g font-size="11px" transform="matrix(1,0,0,1,532,567)" fill-opacity="1" fill="black" text-rendering="geometricPrecision" image-rendering="optimizeQuality" font-family="sans-serif" stroke="black" stroke-opacity="1"
    ><text x="2" xml:space="preserve" y="288" clip-path="url(#clipPath11)" stroke="none"
      >+validateBirthdate(SnsUserDto snsUserDto)</text
    ></g
    ><g font-size="11px" transform="matrix(1,0,0,1,532,567)" fill-opacity="1" fill="black" text-rendering="geometricPrecision" image-rendering="optimizeQuality" font-family="sans-serif" stroke="black" stroke-opacity="1"
    ><text x="2" xml:space="preserve" y="303" clip-path="url(#clipPath11)" stroke="none"
      >+validateSnsNumber(SnsUserDto snsUserDto)</text
    ></g
    ><g font-size="11px" transform="matrix(1,0,0,1,532,567)" fill-opacity="1" fill="black" text-rendering="geometricPrecision" image-rendering="optimizeQuality" font-family="sans-serif" stroke="black" stroke-opacity="1"
    ><text x="2" xml:space="preserve" y="318" clip-path="url(#clipPath11)" stroke="none"
      >+ValidateCcNumber()</text
    ></g
    ><g font-size="11px" transform="matrix(1,0,0,1,532,567)" fill-opacity="1" fill="black" text-rendering="geometricPrecision" image-rendering="optimizeQuality" font-family="sans-serif" stroke="black" stroke-opacity="1"
    ><text x="2" xml:space="preserve" y="333" clip-path="url(#clipPath11)" stroke="none"
      >+saveSnsUser()</text
    ></g
    ><g font-size="11px" transform="matrix(1,0,0,1,532,567)" fill-opacity="1" fill="black" text-rendering="geometricPrecision" image-rendering="optimizeQuality" font-family="sans-serif" stroke="black" stroke-opacity="1"
    ><text x="2" xml:space="preserve" y="348" clip-path="url(#clipPath11)" stroke="none"
      >+toString()</text
    ></g
    ><g font-size="11px" transform="translate(532,552)" fill-opacity="1" fill="black" text-rendering="geometricPrecision" image-rendering="optimizeQuality" font-family="sans-serif" stroke="black" font-weight="bold" stroke-opacity="1"
    ><text x="102" xml:space="preserve" y="12" clip-path="url(#clipPath12)" stroke="none"
      >SnsUser</text
    ></g
    ><g font-size="11px" transform="translate(2,692)" fill-opacity="1" fill="rgb(122,207,245)" text-rendering="geometricPrecision" image-rendering="optimizeQuality" font-family="sans-serif" stroke="rgb(122,207,245)" font-weight="bold" stroke-opacity="1"
    ><rect x="0" width="220" height="110" y="0" clip-path="url(#clipPath13)" stroke="none"
    /></g
    ><g fill-opacity="1" text-rendering="geometricPrecision" stroke="black" stroke-linecap="butt" transform="translate(2,692)" stroke-miterlimit="0" stroke-opacity="1" fill="black" font-weight="bold" font-family="sans-serif" stroke-linejoin="round" font-size="11px" image-rendering="optimizeQuality"
    ><rect fill="none" x="0" width="220" height="110" y="0" clip-path="url(#clipPath13)"
      /><line y2="15" fill="none" x1="0" clip-path="url(#clipPath13)" x2="220" y1="15"
    /></g
    ><g font-size="11px" transform="matrix(1,0,0,1,2,707)" fill-opacity="1" fill="black" text-rendering="geometricPrecision" image-rendering="optimizeQuality" font-family="sans-serif" stroke="black" stroke-opacity="1"
    ><text x="2" xml:space="preserve" y="14" clip-path="url(#clipPath14)" stroke="none"
      >-List&lt;SnsUser&gt; snsUserStore</text
    ></g
    ><g stroke-linecap="butt" font-size="11px" transform="matrix(1,0,0,1,2,707)" fill-opacity="1" fill="black" text-rendering="geometricPrecision" image-rendering="optimizeQuality" font-family="sans-serif" stroke-linejoin="bevel" stroke="black" stroke-opacity="1" stroke-miterlimit="0"
    ><line y2="19" fill="none" x1="0" clip-path="url(#clipPath14)" x2="220" y1="19"
    /></g
    ><g font-size="11px" transform="matrix(1,0,0,1,2,707)" fill-opacity="1" fill="black" text-rendering="geometricPrecision" image-rendering="optimizeQuality" font-family="sans-serif" stroke="black" stroke-opacity="1"
    ><text x="2" xml:space="preserve" y="33" clip-path="url(#clipPath14)" stroke="none"
      >+createSnsUser(SnsUserDto snsUserDto)</text
    ></g
    ><g font-size="11px" transform="matrix(1,0,0,1,2,707)" fill-opacity="1" fill="black" text-rendering="geometricPrecision" image-rendering="optimizeQuality" font-family="sans-serif" stroke="black" stroke-opacity="1"
    ><text x="2" xml:space="preserve" y="48" clip-path="url(#clipPath14)" stroke="none"
      >+saveSnsUser(SnsUser snsUser)</text
    ></g
    ><g font-size="11px" transform="matrix(1,0,0,1,2,707)" fill-opacity="1" fill="black" text-rendering="geometricPrecision" image-rendering="optimizeQuality" font-family="sans-serif" stroke="black" stroke-opacity="1"
    ><text x="2" xml:space="preserve" y="63" clip-path="url(#clipPath14)" stroke="none"
      >+validateSnsUser(SnsUser snsUser)</text
    ></g
    ><g font-size="11px" transform="matrix(1,0,0,1,2,707)" fill-opacity="1" fill="black" text-rendering="geometricPrecision" image-rendering="optimizeQuality" font-family="sans-serif" stroke="black" stroke-opacity="1"
    ><text x="2" xml:space="preserve" y="78" clip-path="url(#clipPath14)" stroke="none"
      >+toString()</text
    ></g
    ><g font-size="11px" transform="translate(2,692)" fill-opacity="1" fill="black" text-rendering="geometricPrecision" image-rendering="optimizeQuality" font-family="sans-serif" stroke="black" font-weight="bold" stroke-opacity="1"
    ><text x="73" xml:space="preserve" y="12" clip-path="url(#clipPath15)" stroke="none"
      >SnsUserStore</text
    ></g
    ><g font-size="11px" transform="translate(52,292)" fill-opacity="1" fill="rgb(122,207,245)" text-rendering="geometricPrecision" image-rendering="optimizeQuality" font-family="sans-serif" stroke="rgb(122,207,245)" font-weight="bold" stroke-opacity="1"
    ><rect x="0" width="110" height="80" y="0" clip-path="url(#clipPath16)" stroke="none"
    /></g
    ><g fill-opacity="1" text-rendering="geometricPrecision" stroke="black" stroke-linecap="butt" transform="translate(52,292)" stroke-miterlimit="0" stroke-opacity="1" fill="black" font-weight="bold" font-family="sans-serif" stroke-linejoin="round" font-size="11px" image-rendering="optimizeQuality"
    ><rect fill="none" x="0" width="110" height="80" y="0" clip-path="url(#clipPath16)"
      /><line y2="15" fill="none" x1="0" clip-path="url(#clipPath16)" x2="110" y1="15"
    /></g
    ><g font-size="11px" transform="matrix(1,0,0,1,52,307)" fill-opacity="1" fill="black" text-rendering="geometricPrecision" image-rendering="optimizeQuality" font-family="sans-serif" stroke="black" stroke-opacity="1"
    ><text x="2" xml:space="preserve" y="14" clip-path="url(#clipPath17)" stroke="none"
      >-designation</text
    ></g
    ><g font-size="11px" transform="matrix(1,0,0,1,52,307)" fill-opacity="1" fill="black" text-rendering="geometricPrecision" image-rendering="optimizeQuality" font-family="sans-serif" stroke="black" stroke-opacity="1"
    ><text x="2" xml:space="preserve" y="29" clip-path="url(#clipPath17)" stroke="none"
      >-snsUserStore</text
      ><line stroke-linecap="butt" clip-path="url(#clipPath17)" fill="none" x1="0" x2="110" y1="34" y2="34" stroke-linejoin="bevel" stroke-miterlimit="0"
    /></g
    ><g font-size="11px" transform="matrix(1,0,0,1,52,307)" fill-opacity="1" fill="black" text-rendering="geometricPrecision" image-rendering="optimizeQuality" font-family="sans-serif" stroke="black" stroke-opacity="1"
    ><text x="2" xml:space="preserve" y="48" clip-path="url(#clipPath17)" stroke="none"
      >+getSnsUserStore()</text
    ></g
    ><g font-size="11px" transform="translate(52,292)" fill-opacity="1" fill="black" text-rendering="geometricPrecision" image-rendering="optimizeQuality" font-family="sans-serif" stroke="black" font-weight="bold" stroke-opacity="1"
    ><text x="29" xml:space="preserve" y="12" clip-path="url(#clipPath18)" stroke="none"
      >Company</text
    ></g
    ><g font-size="11px" transform="translate(462,182)" fill-opacity="1" fill="rgb(122,207,245)" text-rendering="geometricPrecision" image-rendering="optimizeQuality" font-family="sans-serif" stroke="rgb(122,207,245)" font-weight="bold" stroke-opacity="1"
    ><rect x="0" width="380" height="290" y="0" clip-path="url(#clipPath19)" stroke="none"
    /></g
    ><g fill-opacity="1" text-rendering="geometricPrecision" stroke="black" stroke-linecap="butt" transform="translate(462,182)" stroke-miterlimit="0" stroke-opacity="1" fill="black" font-weight="bold" font-family="sans-serif" stroke-linejoin="round" font-size="11px" image-rendering="optimizeQuality"
    ><rect fill="none" x="0" width="380" height="290" y="0" clip-path="url(#clipPath19)"
      /><line y2="15" fill="none" x1="0" clip-path="url(#clipPath19)" x2="380" y1="15"
    /></g
    ><g font-size="11px" transform="matrix(1,0,0,1,462,197)" fill-opacity="1" fill="black" text-rendering="geometricPrecision" image-rendering="optimizeQuality" font-family="sans-serif" stroke="black" stroke-opacity="1"
    ><text x="2" xml:space="preserve" y="14" clip-path="url(#clipPath20)" stroke="none"
      >-name</text
    ></g
    ><g font-size="11px" transform="matrix(1,0,0,1,462,197)" fill-opacity="1" fill="black" text-rendering="geometricPrecision" image-rendering="optimizeQuality" font-family="sans-serif" stroke="black" stroke-opacity="1"
    ><text x="2" xml:space="preserve" y="29" clip-path="url(#clipPath20)" stroke="none"
      >-address</text
    ></g
    ><g font-size="11px" transform="matrix(1,0,0,1,462,197)" fill-opacity="1" fill="black" text-rendering="geometricPrecision" image-rendering="optimizeQuality" font-family="sans-serif" stroke="black" stroke-opacity="1"
    ><text x="2" xml:space="preserve" y="44" clip-path="url(#clipPath20)" stroke="none"
      >-phoneNumber</text
    ></g
    ><g font-size="11px" transform="matrix(1,0,0,1,462,197)" fill-opacity="1" fill="black" text-rendering="geometricPrecision" image-rendering="optimizeQuality" font-family="sans-serif" stroke="black" stroke-opacity="1"
    ><text x="2" xml:space="preserve" y="59" clip-path="url(#clipPath20)" stroke="none"
      >-email</text
    ></g
    ><g font-size="11px" transform="matrix(1,0,0,1,462,197)" fill-opacity="1" fill="black" text-rendering="geometricPrecision" image-rendering="optimizeQuality" font-family="sans-serif" stroke="black" stroke-opacity="1"
    ><text x="2" xml:space="preserve" y="74" clip-path="url(#clipPath20)" stroke="none"
      >-password</text
    ></g
    ><g font-size="11px" transform="matrix(1,0,0,1,462,197)" fill-opacity="1" fill="black" text-rendering="geometricPrecision" image-rendering="optimizeQuality" font-family="sans-serif" stroke="black" stroke-opacity="1"
    ><text x="2" xml:space="preserve" y="89" clip-path="url(#clipPath20)" stroke="none"
      >-birthDate</text
    ></g
    ><g font-size="11px" transform="matrix(1,0,0,1,462,197)" fill-opacity="1" fill="black" text-rendering="geometricPrecision" image-rendering="optimizeQuality" font-family="sans-serif" stroke="black" stroke-opacity="1"
    ><text x="2" xml:space="preserve" y="104" clip-path="url(#clipPath20)" stroke="none"
      >-snsNumber</text
    ></g
    ><g font-size="11px" transform="matrix(1,0,0,1,462,197)" fill-opacity="1" fill="black" text-rendering="geometricPrecision" image-rendering="optimizeQuality" font-family="sans-serif" stroke="black" stroke-opacity="1"
    ><text x="2" xml:space="preserve" y="119" clip-path="url(#clipPath20)" stroke="none"
      >-ccNumber</text
      ><line stroke-linecap="butt" clip-path="url(#clipPath20)" fill="none" x1="0" x2="380" y1="124" y2="124" stroke-linejoin="bevel" stroke-miterlimit="0"
    /></g
    ><g font-size="11px" transform="matrix(1,0,0,1,462,197)" fill-opacity="1" fill="black" text-rendering="geometricPrecision" image-rendering="optimizeQuality" font-family="sans-serif" stroke="black" stroke-opacity="1"
    ><text x="2" xml:space="preserve" y="138" clip-path="url(#clipPath20)" stroke="none"
      >+SnsUserDto(name, email, password, birthdate, snsNumber, phoneNumber)</text
    ></g
    ><g font-size="11px" transform="matrix(1,0,0,1,462,197)" fill-opacity="1" fill="black" text-rendering="geometricPrecision" image-rendering="optimizeQuality" font-family="sans-serif" stroke="black" stroke-opacity="1"
    ><text x="2" xml:space="preserve" y="153" clip-path="url(#clipPath20)" stroke="none"
      >+getName()</text
    ></g
    ><g font-size="11px" transform="matrix(1,0,0,1,462,197)" fill-opacity="1" fill="black" text-rendering="geometricPrecision" image-rendering="optimizeQuality" font-family="sans-serif" stroke="black" stroke-opacity="1"
    ><text x="2" xml:space="preserve" y="168" clip-path="url(#clipPath20)" stroke="none"
      >+getAddress()</text
    ></g
    ><g font-size="11px" transform="matrix(1,0,0,1,462,197)" fill-opacity="1" fill="black" text-rendering="geometricPrecision" image-rendering="optimizeQuality" font-family="sans-serif" stroke="black" stroke-opacity="1"
    ><text x="2" xml:space="preserve" y="183" clip-path="url(#clipPath20)" stroke="none"
      >+getPhoneNumber()</text
    ></g
    ><g font-size="11px" transform="matrix(1,0,0,1,462,197)" fill-opacity="1" fill="black" text-rendering="geometricPrecision" image-rendering="optimizeQuality" font-family="sans-serif" stroke="black" stroke-opacity="1"
    ><text x="2" xml:space="preserve" y="198" clip-path="url(#clipPath20)" stroke="none"
      >+getEmail()</text
    ></g
    ><g font-size="11px" transform="matrix(1,0,0,1,462,197)" fill-opacity="1" fill="black" text-rendering="geometricPrecision" image-rendering="optimizeQuality" font-family="sans-serif" stroke="black" stroke-opacity="1"
    ><text x="2" xml:space="preserve" y="213" clip-path="url(#clipPath20)" stroke="none"
      >+getPassword()</text
    ></g
    ><g font-size="11px" transform="matrix(1,0,0,1,462,197)" fill-opacity="1" fill="black" text-rendering="geometricPrecision" image-rendering="optimizeQuality" font-family="sans-serif" stroke="black" stroke-opacity="1"
    ><text x="2" xml:space="preserve" y="228" clip-path="url(#clipPath20)" stroke="none"
      >+getBirthDate()</text
    ></g
    ><g font-size="11px" transform="matrix(1,0,0,1,462,197)" fill-opacity="1" fill="black" text-rendering="geometricPrecision" image-rendering="optimizeQuality" font-family="sans-serif" stroke="black" stroke-opacity="1"
    ><text x="2" xml:space="preserve" y="243" clip-path="url(#clipPath20)" stroke="none"
      >+getSnsNumber()</text
    ></g
    ><g font-size="11px" transform="matrix(1,0,0,1,462,197)" fill-opacity="1" fill="black" text-rendering="geometricPrecision" image-rendering="optimizeQuality" font-family="sans-serif" stroke="black" stroke-opacity="1"
    ><text x="2" xml:space="preserve" y="258" clip-path="url(#clipPath20)" stroke="none"
      >+getCcNumber()</text
    ></g
    ><g font-size="11px" transform="translate(462,182)" fill-opacity="1" fill="black" text-rendering="geometricPrecision" image-rendering="optimizeQuality" font-family="sans-serif" stroke="black" font-weight="bold" stroke-opacity="1"
    ><text x="158" xml:space="preserve" y="12" clip-path="url(#clipPath21)" stroke="none"
      >SnsUserDto</text
    ></g
    ><g font-size="11px" transform="translate(222,712)" fill-opacity="1" fill="black" text-rendering="geometricPrecision" image-rendering="optimizeQuality" font-family="sans-serif" stroke="black" stroke-opacity="1"
    ><text x="16" xml:space="preserve" y="24" clip-path="url(#clipPath23)" stroke="none"
      >1</text
    ></g
    ><g font-size="11px" transform="translate(492,732)" fill-opacity="1" fill="black" text-rendering="geometricPrecision" image-rendering="optimizeQuality" font-family="sans-serif" stroke="black" stroke-opacity="1"
    ><text x="17" xml:space="preserve" y="24" clip-path="url(#clipPath23)" stroke="none"
      >*</text
    ></g
    ><g font-size="11px" transform="translate(112,512)" fill-opacity="1" fill="black" text-rendering="geometricPrecision" image-rendering="optimizeQuality" font-family="sans-serif" stroke="black" stroke-opacity="1"
    ><text x="13" xml:space="preserve" y="29" clip-path="url(#clipPath25)" stroke="none"
      >uses</text
    ></g
    ><g font-size="11px" transform="translate(112,362)" fill-opacity="1" fill="black" text-rendering="geometricPrecision" image-rendering="optimizeQuality" font-family="sans-serif" stroke="black" stroke-opacity="1"
    ><text x="16" xml:space="preserve" y="24" clip-path="url(#clipPath23)" stroke="none"
      >1</text
    ></g
    ><g font-size="11px" transform="translate(72,662)" fill-opacity="1" fill="black" text-rendering="geometricPrecision" image-rendering="optimizeQuality" font-family="sans-serif" stroke="black" stroke-opacity="1"
    ><text x="16" xml:space="preserve" y="24" clip-path="url(#clipPath23)" stroke="none"
      >1</text
    ></g
    ><g fill-opacity="1" text-rendering="geometricPrecision" stroke="black" stroke-linecap="butt" transform="translate(247,-7)" stroke-opacity="1" fill="black" stroke-dasharray="5" font-family="sans-serif" stroke-linejoin="round" font-size="11px" stroke-dashoffset="1" image-rendering="optimizeQuality"
    ><line y2="108" fill="none" x1="50" clip-path="url(#clipPath27)" x2="50" y1="50"
      /><line clip-path="url(#clipPath27)" stroke-dashoffset="0" fill="none" x1="50" x2="56" y1="108" y2="96" stroke-dasharray="none"
      /><line clip-path="url(#clipPath27)" stroke-dashoffset="0" fill="none" x1="50" x2="44" y1="108" y2="96" stroke-dasharray="none"
    /></g
    ><g fill-opacity="1" text-rendering="geometricPrecision" stroke="black" stroke-linecap="butt" transform="translate(252,93)" stroke-opacity="1" fill="black" stroke-dasharray="5" font-family="sans-serif" stroke-linejoin="round" font-size="11px" stroke-dashoffset="1" image-rendering="optimizeQuality"
    ><line y2="218" fill="none" x1="50" clip-path="url(#clipPath29)" x2="50" y1="50"
      /><line clip-path="url(#clipPath29)" stroke-dashoffset="0" fill="none" x1="50" x2="56" y1="218" y2="206" stroke-dasharray="none"
      /><line clip-path="url(#clipPath29)" stroke-dashoffset="0" fill="none" x1="50" x2="44" y1="218" y2="206" stroke-dasharray="none"
    /></g
    ><g stroke-linecap="butt" font-size="11px" transform="translate(62,323)" fill-opacity="1" fill="black" text-rendering="geometricPrecision" image-rendering="optimizeQuality" font-family="sans-serif" stroke-linejoin="round" stroke="black" stroke-opacity="1"
    ><line y2="368" fill="none" x1="50" clip-path="url(#clipPath31)" x2="50" y1="50"
      /><line y2="356" fill="none" x1="50" clip-path="url(#clipPath31)" x2="56" y1="368"
      /><line y2="356" fill="none" x1="50" clip-path="url(#clipPath31)" x2="44" y1="368"
    /></g
    ><g stroke-linecap="butt" font-size="11px" transform="translate(173,692)" fill-opacity="1" fill="black" text-rendering="geometricPrecision" image-rendering="optimizeQuality" font-family="sans-serif" stroke-linejoin="round" stroke="black" stroke-opacity="1"
    ><line y2="50" fill="none" x1="50" clip-path="url(#clipPath33)" x2="358" y1="50"
      /><line y2="44" fill="none" x1="358" clip-path="url(#clipPath33)" x2="346" y1="50"
      /><line y2="56" fill="none" x1="358" clip-path="url(#clipPath33)" x2="346" y1="50"
    /></g
    ><g fill-opacity="1" text-rendering="geometricPrecision" stroke="black" stroke-linecap="butt" transform="translate(113,282)" stroke-opacity="1" fill="black" stroke-dasharray="5" font-family="sans-serif" stroke-linejoin="round" font-size="11px" stroke-dashoffset="1" image-rendering="optimizeQuality"
    ><line y2="50" fill="none" x1="118" clip-path="url(#clipPath35)" x2="50" y1="50"
      /><line clip-path="url(#clipPath35)" stroke-dashoffset="0" fill="none" x1="50" x2="62" y1="50" y2="56" stroke-dasharray="none"
      /><line clip-path="url(#clipPath35)" stroke-dashoffset="0" fill="none" x1="50" x2="62" y1="50" y2="44" stroke-dasharray="none"
    /></g
    ><g fill-opacity="1" text-rendering="geometricPrecision" stroke="black" stroke-linecap="butt" transform="translate(323,282)" stroke-opacity="1" fill="black" stroke-dasharray="5" font-family="sans-serif" stroke-linejoin="round" font-size="11px" stroke-dashoffset="1" image-rendering="optimizeQuality"
    ><line y2="50" fill="none" x1="50" clip-path="url(#clipPath37)" x2="138" y1="50"
      /><line clip-path="url(#clipPath37)" stroke-dashoffset="0" fill="none" x1="138" x2="126" y1="50" y2="44" stroke-dasharray="none"
      /><line clip-path="url(#clipPath37)" stroke-dashoffset="0" fill="none" x1="138" x2="126" y1="50" y2="56" stroke-dasharray="none"
    /></g
    ><g fill-opacity="1" text-rendering="geometricPrecision" stroke="black" stroke-linecap="butt" transform="translate(602,423)" stroke-opacity="1" fill="black" stroke-dasharray="5" font-family="sans-serif" stroke-linejoin="round" font-size="11px" stroke-dashoffset="1" image-rendering="optimizeQuality"
    ><line y2="50" fill="none" x1="50" clip-path="url(#clipPath39)" x2="50" y1="128"
      /><line clip-path="url(#clipPath39)" stroke-dashoffset="0" fill="none" x1="50" x2="44" y1="50" y2="62" stroke-dasharray="none"
      /><line clip-path="url(#clipPath39)" stroke-dashoffset="0" fill="none" x1="50" x2="56" y1="50" y2="62" stroke-dasharray="none"
    /></g
    ><g font-size="11px" transform="translate(352,722)" fill-opacity="1" fill="black" text-rendering="geometricPrecision" image-rendering="optimizeQuality" font-family="sans-serif" stroke="black" stroke-opacity="1"
    ><text x="9" xml:space="preserve" y="12" clip-path="url(#clipPath40)" stroke="none"
      >adopts</text
    ></g
    ><g font-size="8px" fill-opacity="1" fill="rgb(120,120,120)" text-rendering="geometricPrecision" image-rendering="optimizeQuality" stroke="rgb(120,120,120)" stroke-opacity="1"
    ><text x="0" xml:space="preserve" y="10" stroke="none"
      >Visual Paradigm Standard(tiago(Instituto Superior de Engenharia do Porto))</text
    ></g
  ></g
></svg
>
