@startuml
'https://plantuml.com/use-case-diagram

usecase UC1 as "UC1 - Schedule a vaccine"
usecase UC2 as "UC2 - Schedule a vaccination"
usecase UC3 as "UC3 - Register a SNS user"
usecase UC4 as "UC4 - Register the arrival of a SNS User to take the vaccine"
usecase UC5 as "UC5 - Consult the users in the waiting room"
usecase UC6 as "UC6 - Record daily the total number of people vaccinated"
usecase UC7 as "UC7 - Record adverse reactions of a SNS user"
usecase UC8 as "UC8 - Record the administration of a vaccine to a SNS user"
usecase UC9 as "UC9 - Register a vaccination center"
usecase UC10 as "UC10 - Register an employee"
usecase UC11 as "UC11 - List employees"
usecase UC12 as "UC12 - Specify a new vaccine type"
usecase UC13 as "UC13 - Specify new vaccine and administration process"
usecase UC14 as "UC14 - Load a set of users from a CSV file"
usecase UC15 as "UC15 - Check and export vaccinations statistics"
usecase UC16 as "UC16 - Analyze the performance of a center"
usecase UC17 as "UC17 - Import data from a legacy system"
usecase UC18 as "UC18 - List all vaccines"

actor "Nurse" as NURSE
actor "Receptionist" as REC
actor "Center Coordinator" as CC
actor "Administrator" as ADMIN
actor "SNS User" as SNS
actor "DGS" as DGS

left to right direction

SNS -- UC1
REC -- UC2
REC -- UC3
REC -- UC4
NURSE -- UC5
DGS -- UC6
NURSE -- UC7
NURSE -- UC8
ADMIN -- UC9
ADMIN -- UC10
ADMIN -- UC11
ADMIN -- UC12
ADMIN -- UC13
ADMIN -- UC14
CC -- UC15
CC -- UC16
CC -- UC17
CC -- UC18

@enduml