<?xml version="1.0" encoding="UTF-8" standalone="no"?><svg xmlns="http://www.w3.org/2000/svg" xmlns:xlink="http://www.w3.org/1999/xlink" contentStyleType="text/css" height="531px" preserveAspectRatio="none" style="width:687px;height:531px;background:#FFFFFF;" version="1.1" viewBox="0 0 687 531" width="687px" zoomAndPan="magnify"><defs/><g><rect fill="#FFFFFF" height="424.4609" style="stroke:#181818;stroke-width:1.0;" width="10" x="33" y="91.2969"/><rect fill="#FFFFFF" height="29.1328" style="stroke:#181818;stroke-width:1.0;" width="10" x="518" y="112.4297"/><rect fill="#FFFFFF" height="30" style="stroke:#181818;stroke-width:1.0;" width="10" x="518" y="170.6953"/><rect fill="#FFFFFF" height="29.1328" style="stroke:#181818;stroke-width:1.0;" width="10" x="518" y="229.8281"/><rect fill="#FFFFFF" height="29.1328" style="stroke:#181818;stroke-width:1.0;" width="10" x="518" y="288.0938"/><rect fill="#FFFFFF" height="30" style="stroke:#181818;stroke-width:1.0;" width="10" x="518" y="346.3594"/><rect fill="#FFFFFF" height="110.2656" style="stroke:#181818;stroke-width:1.0;" width="10" x="518" y="405.4922"/><rect fill="#FFFFFF" height="28" style="stroke:#181818;stroke-width:1.0;" width="10" x="523" y="442.625"/><line style="stroke:#181818;stroke-width:0.5;stroke-dasharray:5.0,5.0;" x1="38" x2="38" y1="81.2969" y2="524.7578"/><line style="stroke:#181818;stroke-width:0.5;stroke-dasharray:5.0,5.0;" x1="523" x2="523" y1="81.2969" y2="524.7578"/><text fill="#000000" font-family="sans-serif" font-size="14" lengthAdjust="spacing" textLength="60" x="5" y="77.9951">SNSUser</text><ellipse cx="38" cy="13.5" fill="#E2E2F0" rx="8" ry="8" style="stroke:#181818;stroke-width:0.5;"/><path d="M38,21.5 L38,48.5 M25,29.5 L51,29.5 M38,48.5 L25,63.5 M38,48.5 L51,63.5 " fill="none" style="stroke:#181818;stroke-width:0.5;"/><rect fill="#E2E2F0" height="30.2969" rx="2.5" ry="2.5" style="stroke:#181818;stroke-width:0.5;" width="70" x="488" y="50"/><text fill="#000000" font-family="sans-serif" font-size="14" lengthAdjust="spacing" textLength="56" x="495" y="69.9951">:System</text><rect fill="#FFFFFF" height="424.4609" style="stroke:#181818;stroke-width:1.0;" width="10" x="33" y="91.2969"/><rect fill="#FFFFFF" height="29.1328" style="stroke:#181818;stroke-width:1.0;" width="10" x="518" y="112.4297"/><rect fill="#FFFFFF" height="30" style="stroke:#181818;stroke-width:1.0;" width="10" x="518" y="170.6953"/><rect fill="#FFFFFF" height="29.1328" style="stroke:#181818;stroke-width:1.0;" width="10" x="518" y="229.8281"/><rect fill="#FFFFFF" height="29.1328" style="stroke:#181818;stroke-width:1.0;" width="10" x="518" y="288.0938"/><rect fill="#FFFFFF" height="30" style="stroke:#181818;stroke-width:1.0;" width="10" x="518" y="346.3594"/><rect fill="#FFFFFF" height="110.2656" style="stroke:#181818;stroke-width:1.0;" width="10" x="518" y="405.4922"/><rect fill="#FFFFFF" height="28" style="stroke:#181818;stroke-width:1.0;" width="10" x="523" y="442.625"/><polygon fill="#181818" points="506,108.4297,516,112.4297,506,116.4297,510,112.4297" style="stroke:#181818;stroke-width:1.0;"/><line style="stroke:#181818;stroke-width:1.0;" x1="43" x2="512" y1="112.4297" y2="112.4297"/><text fill="#000000" font-family="sans-serif" font-size="13" font-weight="bold" lengthAdjust="spacing" textLength="9" x="50" y="107.3638">1</text><text fill="#000000" font-family="sans-serif" font-size="13" lengthAdjust="spacing" textLength="176" x="63" y="107.3638">Iniciates vaccine scheduling</text><polygon fill="#181818" points="54,137.5625,44,141.5625,54,145.5625,50,141.5625" style="stroke:#181818;stroke-width:1.0;"/><line style="stroke:#181818;stroke-width:1.0;stroke-dasharray:2.0,2.0;" x1="48" x2="522" y1="141.5625" y2="141.5625"/><text fill="#000000" font-family="sans-serif" font-size="13" font-weight="bold" lengthAdjust="spacing" textLength="9" x="60" y="136.4966">2</text><text fill="#000000" font-family="sans-serif" font-size="13" lengthAdjust="spacing" textLength="233" x="73" y="136.4966">Asks for introduction of SNS number</text><polygon fill="#181818" points="506,166.6953,516,170.6953,506,174.6953,510,170.6953" style="stroke:#181818;stroke-width:1.0;"/><line style="stroke:#181818;stroke-width:1.0;" x1="43" x2="512" y1="170.6953" y2="170.6953"/><text fill="#000000" font-family="sans-serif" font-size="13" font-weight="bold" lengthAdjust="spacing" textLength="9" x="50" y="165.6294">3</text><text fill="#000000" font-family="sans-serif" font-size="13" lengthAdjust="spacing" textLength="169" x="63" y="165.6294">Introduces requested data</text><polygon fill="#181818" points="54,225.8281,44,229.8281,54,233.8281,50,229.8281" style="stroke:#181818;stroke-width:1.0;"/><line style="stroke:#181818;stroke-width:1.0;stroke-dasharray:2.0,2.0;" x1="48" x2="517" y1="229.8281" y2="229.8281"/><text fill="#000000" font-family="sans-serif" font-size="13" font-weight="bold" lengthAdjust="spacing" textLength="9" x="60" y="224.7622">4</text><text fill="#000000" font-family="sans-serif" font-size="13" lengthAdjust="spacing" textLength="350" x="73" y="224.7622">Shows list of vaccination centers and asks for selection</text><polygon fill="#181818" points="511,254.9609,521,258.9609,511,262.9609,515,258.9609" style="stroke:#181818;stroke-width:1.0;"/><line style="stroke:#181818;stroke-width:1.0;" x1="43" x2="517" y1="258.9609" y2="258.9609"/><text fill="#000000" font-family="sans-serif" font-size="13" font-weight="bold" lengthAdjust="spacing" textLength="9" x="50" y="253.895">5</text><text fill="#000000" font-family="sans-serif" font-size="13" lengthAdjust="spacing" textLength="168" x="63" y="253.895">Selects vaccination center</text><polygon fill="#181818" points="54,284.0938,44,288.0938,54,292.0938,50,288.0938" style="stroke:#181818;stroke-width:1.0;"/><line style="stroke:#181818;stroke-width:1.0;stroke-dasharray:2.0,2.0;" x1="48" x2="517" y1="288.0938" y2="288.0938"/><text fill="#000000" font-family="sans-serif" font-size="13" font-weight="bold" lengthAdjust="spacing" textLength="9" x="60" y="283.0278">6</text><text fill="#000000" font-family="sans-serif" font-size="13" lengthAdjust="spacing" textLength="443" x="73" y="283.0278">Shows list of vaccine types and available times at the selected center</text><polygon fill="#181818" points="511,313.2266,521,317.2266,511,321.2266,515,317.2266" style="stroke:#181818;stroke-width:1.0;"/><line style="stroke:#181818;stroke-width:1.0;" x1="43" x2="517" y1="317.2266" y2="317.2266"/><text fill="#000000" font-family="sans-serif" font-size="13" font-weight="bold" lengthAdjust="spacing" textLength="9" x="50" y="312.1606">7</text><text fill="#000000" font-family="sans-serif" font-size="13" lengthAdjust="spacing" textLength="361" x="63" y="312.1606">Selects vaccine type and time for vaccine administration</text><polygon fill="#181818" points="54,342.3594,44,346.3594,54,350.3594,50,346.3594" style="stroke:#181818;stroke-width:1.0;"/><line style="stroke:#181818;stroke-width:1.0;stroke-dasharray:2.0,2.0;" x1="48" x2="517" y1="346.3594" y2="346.3594"/><text fill="#000000" font-family="sans-serif" font-size="13" font-weight="bold" lengthAdjust="spacing" textLength="9" x="60" y="341.2935">8</text><text fill="#000000" font-family="sans-serif" font-size="13" lengthAdjust="spacing" textLength="301" x="73" y="341.2935">Shows schedule data and asks for confirmation</text><polygon fill="#181818" points="506,401.4922,516,405.4922,506,409.4922,510,405.4922" style="stroke:#181818;stroke-width:1.0;"/><line style="stroke:#181818;stroke-width:1.0;" x1="43" x2="512" y1="405.4922" y2="405.4922"/><text fill="#000000" font-family="sans-serif" font-size="13" font-weight="bold" lengthAdjust="spacing" textLength="9" x="50" y="400.4263">9</text><text fill="#000000" font-family="sans-serif" font-size="13" lengthAdjust="spacing" textLength="195" x="63" y="400.4263">Confirms schedule information</text><line style="stroke:#181818;stroke-width:1.0;" x1="533" x2="575" y1="434.625" y2="434.625"/><line style="stroke:#181818;stroke-width:1.0;" x1="575" x2="575" y1="434.625" y2="447.625"/><line style="stroke:#181818;stroke-width:1.0;" x1="534" x2="575" y1="447.625" y2="447.625"/><polygon fill="#181818" points="544,443.625,534,447.625,544,451.625,540,447.625" style="stroke:#181818;stroke-width:1.0;"/><text fill="#000000" font-family="sans-serif" font-size="13" font-weight="bold" lengthAdjust="spacing" textLength="18" x="540" y="429.5591">10</text><text fill="#000000" font-family="sans-serif" font-size="13" lengthAdjust="spacing" textLength="118" x="562" y="429.5591">Schedules vaccine</text><polygon fill="#181818" points="54,502.7578,44,506.7578,54,510.7578,50,506.7578" style="stroke:#181818;stroke-width:1.0;"/><line style="stroke:#181818;stroke-width:1.0;stroke-dasharray:2.0,2.0;" x1="48" x2="517" y1="506.7578" y2="506.7578"/><text fill="#000000" font-family="sans-serif" font-size="13" font-weight="bold" lengthAdjust="spacing" textLength="18" x="60" y="501.6919">11</text><text fill="#000000" font-family="sans-serif" font-size="13" lengthAdjust="spacing" textLength="198" x="82" y="501.6919">Shows (in)success of operation</text><!--MD5=[6377f90be15584d80d6cdd3445c7aaa3]
@startuml
hide footbox
autonumber
actor "SNSUser" as   ADM
participant ":System" as SIST
activate ADM

    ADM -> SIST : Iniciates vaccine scheduling
activate SIST

        SIST - -> ADM : Asks for introduction of SNS number
deactivate SIST
       
        ADM -> SIST : Introduces requested data
activate SIST
 deactivate SIST 

        SIST - -> ADM : Shows list of vaccination centers and asks for selection
activate SIST

        ADM -> SIST : Selects vaccination center
deactivate SIST
        SIST - -> ADM: Shows list of vaccine types and available times at the selected center
activate SIST
        ADM -> SIST: Selects vaccine type and time for vaccine administration
     deactivate SIST
    SIST - -> ADM: Shows schedule data and asks for confirmation
    activate SIST
deactivate SIST
    ADM -> SIST: Confirms schedule information
activate SIST
   SIST -> SIST:Schedules vaccine
  activate SIST
deactivate SIST
 SIST - -> ADM: Shows (in)success of operation
@enduml

PlantUML version 1.2022.4(Sat Apr 09 13:29:17 UTC 2022)
(GPL source distribution)
Java Runtime: OpenJDK Runtime Environment
JVM: OpenJDK 64-Bit Server VM
Default Encoding: UTF-8
Language: en
Country: US
--></g></svg>