@startuml
hide methods
left to right direction


class Company {
 -designation
}

class VaccineType {
  -code
  -technology
  -shortDesc
  }

class VaccineSchedule{
  -date
  -vaccineType
  -snsUserNumber
  -vaccinationCenter
}

class SNSUser{
  -snsNumber
  -phoneNumber
  -name
  -birthDate
  }

class VaccinationCenter{
-name
-adress
-phoneNumber
-email
-faxNumber
-website
-openingHour
-closingHour
-slotDuration
-vaccinePerSlot
  }

class HealthCareCenter{
-name
-adress
-phoneNumber
-email
-faxNumber
-website
-openingHour
-closingHour
-slotDuration
-vaccinePerSlot
}

Company "1" -- "*" VaccineType : applies >
Company "1" -- "*" VaccinationCenter: manages >
Company "1" -- "*" HealthCareCenter: manages >
VaccineSchedule "1" -- "*" SNSUser: scheduled by/for >
Company "1" -- "*" SNSUser: knows >
VaccineSchedule "1" -- "*" VaccineType: knows >
@enduml
