@startuml
hide footbox
autonumber
actor "SNSUser" as   ADM
participant ":System" as SIST
activate ADM

    ADM -> SIST : Iniciates vaccine scheduling
activate SIST

        SIST --> ADM : Asks for introduction of SNS number
deactivate SIST

        ADM -> SIST : Introduces requested data
activate SIST
 deactivate SIST

        SIST --> ADM : Shows list of vaccination centers and asks for selection
activate SIST

        ADM -> SIST : Selects vaccination center
deactivate SIST
        SIST --> ADM: Shows list of vaccine types and available times at the selected center
activate SIST
        ADM -> SIST: Selects vaccine type and time for vaccine administration
     deactivate SIST
    SIST --> ADM: Shows schedule data and asks for confirmation
    activate SIST
deactivate SIST
    ADM -> SIST: Confirms schedule information
activate SIST
   SIST -> SIST:Schedules vaccine
  activate SIST
deactivate SIST
 SIST --> ADM: Shows (in)success of operation
@enduml
