<?xml version="1.0" encoding="UTF-8" standalone="no"?><svg xmlns="http://www.w3.org/2000/svg" xmlns:xlink="http://www.w3.org/1999/xlink" contentStyleType="text/css" height="718px" preserveAspectRatio="none" style="width:503px;height:718px;background:#FFFFFF;" version="1.1" viewBox="0 0 503 718" width="503px" zoomAndPan="magnify"><defs/><g><!--MD5=[02e4b9b7573f1156f41e60aa5b4e25a4]
class Company--><g id="elem_Company"><rect codeLine="5" fill="#F1F1F1" height="56.2969" id="Company" rx="2.5" ry="2.5" style="stroke:#181818;stroke-width:0.5;" width="107" x="29" y="276.5"/><ellipse cx="48.5" cy="292.5" fill="#ADD1B2" rx="11" ry="11" style="stroke:#181818;stroke-width:1.0;"/><path d="M51.4688,298.1406 Q50.8906,298.4375 50.25,298.5781 Q49.6094,298.7344 48.9063,298.7344 Q46.4063,298.7344 45.0781,297.0938 Q43.7656,295.4375 43.7656,292.3125 Q43.7656,289.1875 45.0781,287.5313 Q46.4063,285.875 48.9063,285.875 Q49.6094,285.875 50.25,286.0313 Q50.9063,286.1875 51.4688,286.4844 L51.4688,289.2031 Q50.8438,288.625 50.25,288.3594 Q49.6563,288.0781 49.0313,288.0781 Q47.6875,288.0781 47,289.1563 Q46.3125,290.2188 46.3125,292.3125 Q46.3125,294.4063 47,295.4844 Q47.6875,296.5469 49.0313,296.5469 Q49.6563,296.5469 50.25,296.2813 Q50.8438,296 51.4688,295.4219 L51.4688,298.1406 Z " fill="#000000"/><text fill="#000000" font-family="sans-serif" font-size="14" lengthAdjust="spacing" textLength="65" x="63.5" y="297.3467">Company</text><line style="stroke:#181818;stroke-width:0.5;" x1="30" x2="135" y1="308.5" y2="308.5"/><rect fill="none" height="6" style="stroke:#C82930;stroke-width:1.0;" width="6" x="37" y="316.5"/><text fill="#000000" font-family="sans-serif" font-size="14" lengthAdjust="spacing" textLength="81" x="49" y="325.4951">designation</text></g><!--MD5=[0e501da62322464167c8ec4d233a6b7e]
class VaccineType--><g id="elem_VaccineType"><rect codeLine="9" fill="#F1F1F1" height="88.8906" id="VaccineType" rx="2.5" ry="2.5" style="stroke:#181818;stroke-width:0.5;" width="120" x="357" y="7"/><ellipse cx="372" cy="23" fill="#ADD1B2" rx="11" ry="11" style="stroke:#181818;stroke-width:1.0;"/><path d="M374.9688,28.6406 Q374.3906,28.9375 373.75,29.0781 Q373.1094,29.2344 372.4063,29.2344 Q369.9063,29.2344 368.5781,27.5938 Q367.2656,25.9375 367.2656,22.8125 Q367.2656,19.6875 368.5781,18.0313 Q369.9063,16.375 372.4063,16.375 Q373.1094,16.375 373.75,16.5313 Q374.4063,16.6875 374.9688,16.9844 L374.9688,19.7031 Q374.3438,19.125 373.75,18.8594 Q373.1563,18.5781 372.5313,18.5781 Q371.1875,18.5781 370.5,19.6563 Q369.8125,20.7188 369.8125,22.8125 Q369.8125,24.9063 370.5,25.9844 Q371.1875,27.0469 372.5313,27.0469 Q373.1563,27.0469 373.75,26.7813 Q374.3438,26.5 374.9688,25.9219 L374.9688,28.6406 Z " fill="#000000"/><text fill="#000000" font-family="sans-serif" font-size="14" lengthAdjust="spacing" textLength="88" x="386" y="27.8467">VaccineType</text><line style="stroke:#181818;stroke-width:0.5;" x1="358" x2="476" y1="39" y2="39"/><rect fill="none" height="6" style="stroke:#C82930;stroke-width:1.0;" width="6" x="365" y="47"/><text fill="#000000" font-family="sans-serif" font-size="14" lengthAdjust="spacing" textLength="35" x="377" y="55.9951">code</text><rect fill="none" height="6" style="stroke:#C82930;stroke-width:1.0;" width="6" x="365" y="63.2969"/><text fill="#000000" font-family="sans-serif" font-size="14" lengthAdjust="spacing" textLength="77" x="377" y="72.292">technology</text><rect fill="none" height="6" style="stroke:#C82930;stroke-width:1.0;" width="6" x="365" y="79.5938"/><text fill="#000000" font-family="sans-serif" font-size="14" lengthAdjust="spacing" textLength="72" x="377" y="88.5889">shortDesc</text></g><!--MD5=[cd4ce1c0d44638ff9f42448de30e6b92]
class VaccineSchedule--><g id="elem_VaccineSchedule"><rect codeLine="15" fill="#F1F1F1" height="105.1875" id="VaccineSchedule" rx="2.5" ry="2.5" style="stroke:#181818;stroke-width:0.5;" width="151" x="7" y="100"/><ellipse cx="22" cy="116" fill="#ADD1B2" rx="11" ry="11" style="stroke:#181818;stroke-width:1.0;"/><path d="M24.9688,121.6406 Q24.3906,121.9375 23.75,122.0781 Q23.1094,122.2344 22.4063,122.2344 Q19.9063,122.2344 18.5781,120.5938 Q17.2656,118.9375 17.2656,115.8125 Q17.2656,112.6875 18.5781,111.0313 Q19.9063,109.375 22.4063,109.375 Q23.1094,109.375 23.75,109.5313 Q24.4063,109.6875 24.9688,109.9844 L24.9688,112.7031 Q24.3438,112.125 23.75,111.8594 Q23.1563,111.5781 22.5313,111.5781 Q21.1875,111.5781 20.5,112.6563 Q19.8125,113.7188 19.8125,115.8125 Q19.8125,117.9063 20.5,118.9844 Q21.1875,120.0469 22.5313,120.0469 Q23.1563,120.0469 23.75,119.7813 Q24.3438,119.5 24.9688,118.9219 L24.9688,121.6406 Z " fill="#000000"/><text fill="#000000" font-family="sans-serif" font-size="14" lengthAdjust="spacing" textLength="119" x="36" y="120.8467">VaccineSchedule</text><line style="stroke:#181818;stroke-width:0.5;" x1="8" x2="157" y1="132" y2="132"/><rect fill="none" height="6" style="stroke:#C82930;stroke-width:1.0;" width="6" x="15" y="140"/><text fill="#000000" font-family="sans-serif" font-size="14" lengthAdjust="spacing" textLength="31" x="27" y="148.9951">date</text><rect fill="none" height="6" style="stroke:#C82930;stroke-width:1.0;" width="6" x="15" y="156.2969"/><text fill="#000000" font-family="sans-serif" font-size="14" lengthAdjust="spacing" textLength="86" x="27" y="165.292">vaccineType</text><rect fill="none" height="6" style="stroke:#C82930;stroke-width:1.0;" width="6" x="15" y="172.5938"/><text fill="#000000" font-family="sans-serif" font-size="14" lengthAdjust="spacing" textLength="112" x="27" y="181.5889">snsUserNumber</text><rect fill="none" height="6" style="stroke:#C82930;stroke-width:1.0;" width="6" x="15" y="188.8906"/><text fill="#000000" font-family="sans-serif" font-size="14" lengthAdjust="spacing" textLength="124" x="27" y="197.8857">vaccinationCenter</text></g><!--MD5=[72be06cc7ae02ccc98efe28a50e62246]
class SNSUser--><g id="elem_SNSUser"><rect codeLine="22" fill="#F1F1F1" height="105.1875" id="SNSUser" rx="2.5" ry="2.5" style="stroke:#181818;stroke-width:0.5;" width="126" x="354" y="131"/><ellipse cx="384.3" cy="147" fill="#ADD1B2" rx="11" ry="11" style="stroke:#181818;stroke-width:1.0;"/><path d="M387.2688,152.6406 Q386.6906,152.9375 386.05,153.0781 Q385.4094,153.2344 384.7063,153.2344 Q382.2063,153.2344 380.8781,151.5938 Q379.5656,149.9375 379.5656,146.8125 Q379.5656,143.6875 380.8781,142.0313 Q382.2063,140.375 384.7063,140.375 Q385.4094,140.375 386.05,140.5313 Q386.7063,140.6875 387.2688,140.9844 L387.2688,143.7031 Q386.6438,143.125 386.05,142.8594 Q385.4563,142.5781 384.8313,142.5781 Q383.4875,142.5781 382.8,143.6563 Q382.1125,144.7188 382.1125,146.8125 Q382.1125,148.9063 382.8,149.9844 Q383.4875,151.0469 384.8313,151.0469 Q385.4563,151.0469 386.05,150.7813 Q386.6438,150.5 387.2688,149.9219 L387.2688,152.6406 Z " fill="#000000"/><text fill="#000000" font-family="sans-serif" font-size="14" lengthAdjust="spacing" textLength="60" x="401.7" y="151.8467">SNSUser</text><line style="stroke:#181818;stroke-width:0.5;" x1="355" x2="479" y1="163" y2="163"/><rect fill="none" height="6" style="stroke:#C82930;stroke-width:1.0;" width="6" x="362" y="171"/><text fill="#000000" font-family="sans-serif" font-size="14" lengthAdjust="spacing" textLength="80" x="374" y="179.9951">snsNumber</text><rect fill="none" height="6" style="stroke:#C82930;stroke-width:1.0;" width="6" x="362" y="187.2969"/><text fill="#000000" font-family="sans-serif" font-size="14" lengthAdjust="spacing" textLength="100" x="374" y="196.292">phoneNumber</text><rect fill="none" height="6" style="stroke:#C82930;stroke-width:1.0;" width="6" x="362" y="203.5938"/><text fill="#000000" font-family="sans-serif" font-size="14" lengthAdjust="spacing" textLength="39" x="374" y="212.5889">name</text><rect fill="none" height="6" style="stroke:#C82930;stroke-width:1.0;" width="6" x="362" y="219.8906"/><text fill="#000000" font-family="sans-serif" font-size="14" lengthAdjust="spacing" textLength="64" x="374" y="228.8857">birthDate</text></g><!--MD5=[de60e6d4f424ae4d0522096f76a59010]
class VaccinationCenter--><g id="elem_VaccinationCenter"><rect codeLine="29" fill="#F1F1F1" height="202.9688" id="VaccinationCenter" rx="2.5" ry="2.5" style="stroke:#181818;stroke-width:0.5;" width="158" x="338" y="271"/><ellipse cx="353" cy="287" fill="#ADD1B2" rx="11" ry="11" style="stroke:#181818;stroke-width:1.0;"/><path d="M355.9688,292.6406 Q355.3906,292.9375 354.75,293.0781 Q354.1094,293.2344 353.4063,293.2344 Q350.9063,293.2344 349.5781,291.5938 Q348.2656,289.9375 348.2656,286.8125 Q348.2656,283.6875 349.5781,282.0313 Q350.9063,280.375 353.4063,280.375 Q354.1094,280.375 354.75,280.5313 Q355.4063,280.6875 355.9688,280.9844 L355.9688,283.7031 Q355.3438,283.125 354.75,282.8594 Q354.1563,282.5781 353.5313,282.5781 Q352.1875,282.5781 351.5,283.6563 Q350.8125,284.7188 350.8125,286.8125 Q350.8125,288.9063 351.5,289.9844 Q352.1875,291.0469 353.5313,291.0469 Q354.1563,291.0469 354.75,290.7813 Q355.3438,290.5 355.9688,289.9219 L355.9688,292.6406 Z " fill="#000000"/><text fill="#000000" font-family="sans-serif" font-size="14" lengthAdjust="spacing" textLength="126" x="367" y="291.8467">VaccinationCenter</text><line style="stroke:#181818;stroke-width:0.5;" x1="339" x2="495" y1="303" y2="303"/><rect fill="none" height="6" style="stroke:#C82930;stroke-width:1.0;" width="6" x="346" y="311"/><text fill="#000000" font-family="sans-serif" font-size="14" lengthAdjust="spacing" textLength="39" x="358" y="319.9951">name</text><rect fill="none" height="6" style="stroke:#C82930;stroke-width:1.0;" width="6" x="346" y="327.2969"/><text fill="#000000" font-family="sans-serif" font-size="14" lengthAdjust="spacing" textLength="47" x="358" y="336.292">adress</text><rect fill="none" height="6" style="stroke:#C82930;stroke-width:1.0;" width="6" x="346" y="343.5938"/><text fill="#000000" font-family="sans-serif" font-size="14" lengthAdjust="spacing" textLength="100" x="358" y="352.5889">phoneNumber</text><rect fill="none" height="6" style="stroke:#C82930;stroke-width:1.0;" width="6" x="346" y="359.8906"/><text fill="#000000" font-family="sans-serif" font-size="14" lengthAdjust="spacing" textLength="36" x="358" y="368.8857">email</text><rect fill="none" height="6" style="stroke:#C82930;stroke-width:1.0;" width="6" x="346" y="376.1875"/><text fill="#000000" font-family="sans-serif" font-size="14" lengthAdjust="spacing" textLength="74" x="358" y="385.1826">faxNumber</text><rect fill="none" height="6" style="stroke:#C82930;stroke-width:1.0;" width="6" x="346" y="392.4844"/><text fill="#000000" font-family="sans-serif" font-size="14" lengthAdjust="spacing" textLength="54" x="358" y="401.4795">website</text><rect fill="none" height="6" style="stroke:#C82930;stroke-width:1.0;" width="6" x="346" y="408.7813"/><text fill="#000000" font-family="sans-serif" font-size="14" lengthAdjust="spacing" textLength="90" x="358" y="417.7764">openingHour</text><rect fill="none" height="6" style="stroke:#C82930;stroke-width:1.0;" width="6" x="346" y="425.0781"/><text fill="#000000" font-family="sans-serif" font-size="14" lengthAdjust="spacing" textLength="82" x="358" y="434.0732">closingHour</text><rect fill="none" height="6" style="stroke:#C82930;stroke-width:1.0;" width="6" x="346" y="441.375"/><text fill="#000000" font-family="sans-serif" font-size="14" lengthAdjust="spacing" textLength="84" x="358" y="450.3701">slotDuration</text><rect fill="none" height="6" style="stroke:#C82930;stroke-width:1.0;" width="6" x="346" y="457.6719"/><text fill="#000000" font-family="sans-serif" font-size="14" lengthAdjust="spacing" textLength="101" x="358" y="466.667">vaccinePerSlot</text></g><!--MD5=[1db03e903fe0a044a2ca0dcbef10799a]
class HealthCareCenter--><g id="elem_HealthCareCenter"><rect codeLine="42" fill="#F1F1F1" height="202.9688" id="HealthCareCenter" rx="2.5" ry="2.5" style="stroke:#181818;stroke-width:0.5;" width="155" x="339.5" y="509"/><ellipse cx="354.5" cy="525" fill="#ADD1B2" rx="11" ry="11" style="stroke:#181818;stroke-width:1.0;"/><path d="M357.4688,530.6406 Q356.8906,530.9375 356.25,531.0781 Q355.6094,531.2344 354.9063,531.2344 Q352.4063,531.2344 351.0781,529.5938 Q349.7656,527.9375 349.7656,524.8125 Q349.7656,521.6875 351.0781,520.0313 Q352.4063,518.375 354.9063,518.375 Q355.6094,518.375 356.25,518.5313 Q356.9063,518.6875 357.4688,518.9844 L357.4688,521.7031 Q356.8438,521.125 356.25,520.8594 Q355.6563,520.5781 355.0313,520.5781 Q353.6875,520.5781 353,521.6563 Q352.3125,522.7188 352.3125,524.8125 Q352.3125,526.9063 353,527.9844 Q353.6875,529.0469 355.0313,529.0469 Q355.6563,529.0469 356.25,528.7813 Q356.8438,528.5 357.4688,527.9219 L357.4688,530.6406 Z " fill="#000000"/><text fill="#000000" font-family="sans-serif" font-size="14" lengthAdjust="spacing" textLength="123" x="368.5" y="529.8467">HealthCareCenter</text><line style="stroke:#181818;stroke-width:0.5;" x1="340.5" x2="493.5" y1="541" y2="541"/><rect fill="none" height="6" style="stroke:#C82930;stroke-width:1.0;" width="6" x="347.5" y="549"/><text fill="#000000" font-family="sans-serif" font-size="14" lengthAdjust="spacing" textLength="39" x="359.5" y="557.9951">name</text><rect fill="none" height="6" style="stroke:#C82930;stroke-width:1.0;" width="6" x="347.5" y="565.2969"/><text fill="#000000" font-family="sans-serif" font-size="14" lengthAdjust="spacing" textLength="47" x="359.5" y="574.292">adress</text><rect fill="none" height="6" style="stroke:#C82930;stroke-width:1.0;" width="6" x="347.5" y="581.5938"/><text fill="#000000" font-family="sans-serif" font-size="14" lengthAdjust="spacing" textLength="100" x="359.5" y="590.5889">phoneNumber</text><rect fill="none" height="6" style="stroke:#C82930;stroke-width:1.0;" width="6" x="347.5" y="597.8906"/><text fill="#000000" font-family="sans-serif" font-size="14" lengthAdjust="spacing" textLength="36" x="359.5" y="606.8857">email</text><rect fill="none" height="6" style="stroke:#C82930;stroke-width:1.0;" width="6" x="347.5" y="614.1875"/><text fill="#000000" font-family="sans-serif" font-size="14" lengthAdjust="spacing" textLength="74" x="359.5" y="623.1826">faxNumber</text><rect fill="none" height="6" style="stroke:#C82930;stroke-width:1.0;" width="6" x="347.5" y="630.4844"/><text fill="#000000" font-family="sans-serif" font-size="14" lengthAdjust="spacing" textLength="54" x="359.5" y="639.4795">website</text><rect fill="none" height="6" style="stroke:#C82930;stroke-width:1.0;" width="6" x="347.5" y="646.7813"/><text fill="#000000" font-family="sans-serif" font-size="14" lengthAdjust="spacing" textLength="90" x="359.5" y="655.7764">openingHour</text><rect fill="none" height="6" style="stroke:#C82930;stroke-width:1.0;" width="6" x="347.5" y="663.0781"/><text fill="#000000" font-family="sans-serif" font-size="14" lengthAdjust="spacing" textLength="82" x="359.5" y="672.0732">closingHour</text><rect fill="none" height="6" style="stroke:#C82930;stroke-width:1.0;" width="6" x="347.5" y="679.375"/><text fill="#000000" font-family="sans-serif" font-size="14" lengthAdjust="spacing" textLength="84" x="359.5" y="688.3701">slotDuration</text><rect fill="none" height="6" style="stroke:#C82930;stroke-width:1.0;" width="6" x="347.5" y="695.6719"/><text fill="#000000" font-family="sans-serif" font-size="14" lengthAdjust="spacing" textLength="101" x="359.5" y="704.667">vaccinePerSlot</text></g><!--MD5=[05986564e1c13a00611587b35563d868]
link Company to VaccineType--><g id="link_Company_VaccineType"><path codeLine="55" d="M136.24,285.06 C194.63,262.62 283.74,225.37 308,198.5 C334.85,168.77 314.75,146.12 338,113.5 C343.32,106.03 349.78,99 356.68,92.54 " fill="none" id="Company-VaccineType" style="stroke:#181818;stroke-width:1.0;"/><polygon fill="#000000" points="226.766,186.7774,218.02,190.5137,221.8865,194.9408,226.766,186.7774" style="stroke:#000000;stroke-width:1.0;"/><text fill="#000000" font-family="sans-serif" font-size="13" lengthAdjust="spacing" textLength="45" x="232" y="194.5669">applies</text><text fill="#000000" font-family="sans-serif" font-size="13" lengthAdjust="spacing" textLength="8" x="143.9988" y="295.5114">1</text><text fill="#000000" font-family="sans-serif" font-size="13" lengthAdjust="spacing" textLength="7" x="341.9019" y="110.5375">*</text></g><!--MD5=[eebe9b198877275d05dd12630ed9e401]
link Company to VaccinationCenter--><g id="link_Company_VaccinationCenter"><path codeLine="56" d="M136.22,332.29 C152.43,339.7 170.59,346.92 188,351.5 C236.82,364.34 293.32,369.61 337.86,371.66 " fill="none" id="Company-VaccinationCenter" style="stroke:#181818;stroke-width:1.0;"/><polygon fill="#000000" points="220.4073,344.0246,212.0931,339.4068,210.9667,345.1757,220.4073,344.0246" style="stroke:#000000;stroke-width:1.0;"/><text fill="#000000" font-family="sans-serif" font-size="13" lengthAdjust="spacing" textLength="60" x="224.5" y="347.5669">manages</text><text fill="#000000" font-family="sans-serif" font-size="13" lengthAdjust="spacing" textLength="8" x="140.3393" y="352.9388">1</text><text fill="#000000" font-family="sans-serif" font-size="13" lengthAdjust="spacing" textLength="7" x="322.9834" y="384.3695">*</text></g><!--MD5=[f2ed8d1e3c8c605b4c505c38102a02ce]
link Company to HealthCareCenter--><g id="link_Company_HealthCareCenter"><path codeLine="57" d="M114.18,332.74 C164.91,379.42 267.72,474.04 339.17,539.79 " fill="none" id="Company-HealthCareCenter" style="stroke:#181818;stroke-width:1.0;"/><polygon fill="#000000" points="219.1792,398.4522,214.5136,390.1647,210.5334,394.4898,219.1792,398.4522" style="stroke:#000000;stroke-width:1.0;"/><text fill="#000000" font-family="sans-serif" font-size="13" lengthAdjust="spacing" textLength="60" x="224.5" y="399.5669">manages</text><text fill="#000000" font-family="sans-serif" font-size="13" lengthAdjust="spacing" textLength="8" x="112.581" y="353.0528">1</text><text fill="#000000" font-family="sans-serif" font-size="13" lengthAdjust="spacing" textLength="7" x="324.4182" y="545.84">*</text></g><!--MD5=[8e51fd2526d7ed1449c2aa4f1c32bf49]
link VaccineSchedule to SNSUser--><g id="link_VaccineSchedule_SNSUser"><path codeLine="58" d="M158.12,159.46 C217.09,164.96 298.43,172.54 353.89,177.71 " fill="none" id="VaccineSchedule-SNSUser" style="stroke:#181818;stroke-width:1.0;"/><polygon fill="#000000" points="197.9784,155.5305,189.2452,151.7647,188.6996,157.6172,197.9784,155.5305" style="stroke:#000000;stroke-width:1.0;"/><text fill="#000000" font-family="sans-serif" font-size="13" lengthAdjust="spacing" textLength="105" x="202" y="159.5669">scheduled by/for</text><text fill="#000000" font-family="sans-serif" font-size="13" lengthAdjust="spacing" textLength="8" x="165.9576" y="172.9476">1</text><text fill="#000000" font-family="sans-serif" font-size="13" lengthAdjust="spacing" textLength="7" x="339.1882" y="189.9715">*</text></g><!--MD5=[1a8aa2b864b87f860d28abceaa28b7a5]
link Company to SNSUser--><g id="link_Company_SNSUser"><path codeLine="59" d="M136.2,310.36 C183.56,313.3 253.79,311.76 308,285.5 C325.55,277 324.07,267.13 338,253.5 C343.85,247.77 350.06,241.9 356.31,236.1 " fill="none" id="Company-SNSUser" style="stroke:#181818;stroke-width:1.0;"/><polygon fill="#000000" points="230.7376,275.468,221.2277,275.5748,223.1067,281.1442,230.7376,275.468" style="stroke:#000000;stroke-width:1.0;"/><text fill="#000000" font-family="sans-serif" font-size="13" lengthAdjust="spacing" textLength="39" x="235" y="281.5669">knows</text><text fill="#000000" font-family="sans-serif" font-size="13" lengthAdjust="spacing" textLength="8" x="143.9534" y="324.2111">1</text><text fill="#000000" font-family="sans-serif" font-size="13" lengthAdjust="spacing" textLength="7" x="340.6845" y="256.2392">*</text></g><!--MD5=[0627282f411ece888f894017ff17802b]
link VaccineSchedule to VaccineType--><g id="link_VaccineSchedule_VaccineType"><path codeLine="60" d="M158.12,129.83 C218.14,111.6 301.35,86.33 356.84,69.47 " fill="none" id="VaccineSchedule-VaccineType" style="stroke:#181818;stroke-width:1.0;"/><polygon fill="#000000" points="230.7842,77.6132,221.2754,77.43,222.9837,83.0541,230.7842,77.6132" style="stroke:#000000;stroke-width:1.0;"/><text fill="#000000" font-family="sans-serif" font-size="13" lengthAdjust="spacing" textLength="39" x="235" y="83.5669">knows</text><text fill="#000000" font-family="sans-serif" font-size="13" lengthAdjust="spacing" textLength="8" x="165.9576" y="140.4009">1</text><text fill="#000000" font-family="sans-serif" font-size="13" lengthAdjust="spacing" textLength="7" x="342.0814" y="84.6558">*</text></g><!--MD5=[930fa8416ec468a057226e1c49dd202f]
@startuml
hide methods
left to right direction


class Company {
 -designation
}

class VaccineType {
  -code
  -technology
  -shortDesc
  }

class VaccineSchedule{
  -date
  -vaccineType
  -snsUserNumber
  -vaccinationCenter
}

class SNSUser{
  -snsNumber
  -phoneNumber
  -name
  -birthDate
  }

class VaccinationCenter{
-name
-adress
-phoneNumber
-email
-faxNumber
-website
-openingHour
-closingHour
-slotDuration
-vaccinePerSlot
  }

class HealthCareCenter{
-name
-adress
-phoneNumber
-email
-faxNumber
-website
-openingHour
-closingHour
-slotDuration
-vaccinePerSlot
}

Company "1" - - "*" VaccineType : applies >
Company "1" - - "*" VaccinationCenter: manages >
Company "1" - - "*" HealthCareCenter: manages >
VaccineSchedule "1" - - "*" SNSUser: scheduled by/for >
Company "1" - - "*" SNSUser: knows >
VaccineSchedule "1" - - "*" VaccineType: knows >
@enduml

PlantUML version 1.2022.4(Sat Apr 09 13:29:17 UTC 2022)
(GPL source distribution)
Java Runtime: OpenJDK Runtime Environment
JVM: OpenJDK 64-Bit Server VM
Default Encoding: UTF-8
Language: en
Country: US
--></g></svg>